%YAML 1.1
%TAG !u! tag:unity3d.com,2011:
--- !u!114 &11400000
MonoBehaviour:
  m_ObjectHideFlags: 0
  m_PrefabParentObject: {fileID: 0}
  m_PrefabInternal: {fileID: 0}
  m_GameObject: {fileID: 0}
  m_Enabled: 1
  m_EditorHideFlags: 0
  m_Script: {fileID: 11500000, guid: 3bb766ec5aebe4332b86a7b9b50eb01d, type: 3}
  m_Name: FullHD TV 42
  m_EditorClassIdentifier: 
  name: FullHD TV 42
  dpi: 52
  nativeDPI: 52
  nativeResolution: {x: 1920, y: 1080}
