%YAML 1.1
%TAG !u! tag:unity3d.com,2011:
--- !u!1 &100002
GameObject:
  m_ObjectHideFlags: 0
  m_PrefabParentObject: {fileID: 0}
  m_PrefabInternal: {fileID: 100100000}
  serializedVersion: 5
  m_Component:
  - component: {fileID: 400002}
  - component: {fileID: 11400000}
  - component: {fileID: 11478012}
  m_Layer: 0
  m_Name: TouchManager
  m_TagString: Untagged
  m_Icon: {fileID: 0}
  m_NavMeshLayer: 0
  m_StaticEditorFlags: 0
  m_IsActive: 1
--- !u!4 &400002
Transform:
  m_ObjectHideFlags: 1
  m_PrefabParentObject: {fileID: 0}
  m_PrefabInternal: {fileID: 100100000}
  m_GameObject: {fileID: 100002}
  m_LocalRotation: {x: 0, y: 0, z: 0, w: 1}
  m_LocalPosition: {x: 0, y: 0, z: 0}
  m_LocalScale: {x: 1, y: 1, z: 1}
  m_Children: []
  m_Father: {fileID: 0}
  m_RootOrder: 0
  m_LocalEulerAnglesHint: {x: 0, y: 0, z: 0}
--- !u!114 &11400000
MonoBehaviour:
  m_ObjectHideFlags: 1
  m_PrefabParentObject: {fileID: 0}
  m_PrefabInternal: {fileID: 100100000}
  m_GameObject: {fileID: 100002}
  m_Enabled: 1
  m_EditorHideFlags: 0
  m_Script: {fileID: 11500000, guid: 0dd4c394fe06f4ea49e03aaa5e7a8190, type: 3}
  m_Name: 
  m_EditorClassIdentifier: 
  debugMode: 1
  OnFrameStart:
    m_PersistentCalls:
      m_Calls: []
    m_TypeName: TouchScript.TouchManager+FrameEvent, Assembly-CSharp, Version=0.0.0.0,
      Culture=neutral, PublicKeyToken=null
  OnFrameFinish:
    m_PersistentCalls:
      m_Calls: []
    m_TypeName: TouchScript.TouchManager+FrameEvent, Assembly-CSharp, Version=0.0.0.0,
      Culture=neutral, PublicKeyToken=null
  OnPointersAdd:
    m_PersistentCalls:
      m_Calls: []
    m_TypeName: TouchScript.TouchManager+PointerEvent, Assembly-CSharp, Version=0.0.0.0,
      Culture=neutral, PublicKeyToken=null
  OnPointersUpdate:
    m_PersistentCalls:
      m_Calls: []
    m_TypeName: TouchScript.TouchManager+PointerEvent, Assembly-CSharp, Version=0.0.0.0,
      Culture=neutral, PublicKeyToken=null
  OnPointersPress:
    m_PersistentCalls:
      m_Calls: []
    m_TypeName: TouchScript.TouchManager+PointerEvent, Assembly-CSharp, Version=0.0.0.0,
      Culture=neutral, PublicKeyToken=null
  OnPointersRelease:
    m_PersistentCalls:
      m_Calls: []
    m_TypeName: TouchScript.TouchManager+PointerEvent, Assembly-CSharp, Version=0.0.0.0,
      Culture=neutral, PublicKeyToken=null
  OnPointersRemove:
    m_PersistentCalls:
      m_Calls: []
    m_TypeName: TouchScript.TouchManager+PointerEvent, Assembly-CSharp, Version=0.0.0.0,
      Culture=neutral, PublicKeyToken=null
  OnPointersCancel:
    m_PersistentCalls:
      m_Calls: []
    m_TypeName: TouchScript.TouchManager+PointerEvent, Assembly-CSharp, Version=0.0.0.0,
      Culture=neutral, PublicKeyToken=null
  advancedProps: 0
  displayDevice: {fileID: 0}
  shouldCreateCameraLayer: 1
  shouldCreateStandardInput: 1
  useSendMessage: 0
  sendMessageEvents: 60
  sendMessageTarget: {fileID: 0}
  useUnityEvents: 0
  layers: []
--- !u!114 &11478012
MonoBehaviour:
  m_ObjectHideFlags: 1
  m_PrefabParentObject: {fileID: 0}
  m_PrefabInternal: {fileID: 100100000}
  m_GameObject: {fileID: 100002}
  m_Enabled: 1
  m_EditorHideFlags: 0
  m_Script: {fileID: 11500000, guid: e276ccba4f7314d9988af19f9b3a611b, type: 3}
  m_Name: 
  m_EditorClassIdentifier: 
  advancedProps: 0
  generalProps: 0
  windowsProps: 0
  windows8API: 0
  windows7API: 0
  webGLTouch: 1
  windows8Mouse: 1
  windows7Mouse: 1
  universalWindowsMouse: 1
  emulateSecondMousePointer: 1
--- !u!1001 &100100000
Prefab:
  m_ObjectHideFlags: 1
  serializedVersion: 2
  m_Modification:
    m_TransformParent: {fileID: 0}
    m_Modifications: []
    m_RemovedComponents: []
  m_ParentPrefab: {fileID: 0}
  m_RootGameObject: {fileID: 100002}
  m_IsPrefabParent: 1
