# 3ds Max Wavefront OBJ Exporter v0.97b - (c)2007 guruware
# File Created: 20.08.2018 02:39:48

#
# object Object001
#

v  -0.000205 0.000000 72.111023
v  7.537442 0.000000 71.716011
v  7.537442 30.000000 71.716011
v  -0.000205 30.000000 72.111023
v  14.992507 0.000000 70.535271
v  14.992507 30.000000 70.535271
v  22.283314 0.000000 68.581726
v  22.283314 30.000000 68.581726
v  10.975039 0.000000 51.634285
v  16.312162 0.000000 50.204220
v  5.517671 0.000000 52.498627
v  -0.000157 0.000000 52.787792
v  5.517671 30.000000 52.498627
v  -0.000157 30.000000 52.787792
v  10.975039 30.000000 51.634285
v  16.312162 30.000000 50.204220
# 16 vertices

vn 0.052333 0.000000 0.998630
vn 0.104525 0.000000 0.994522
vn 0.207909 0.000000 0.978148
vn 0.258816 0.000000 0.965927
vn 0.000000 -1.000000 -0.000000
vn 0.000000 1.000000 -0.000000
vn -0.258817 0.000000 -0.965926
vn -0.207909 0.000000 -0.978148
vn -0.104526 0.000000 -0.994522
vn -0.052334 0.000000 -0.998630
vn -1.000000 0.000000 -0.000002
vn 0.951057 0.000000 -0.309014
# 12 vertex normals

vt 0.028344 0.545281 0.000000
vt 0.137314 0.545281 0.000000
vt 0.137314 0.978388 0.000000
vt 0.028344 0.978388 0.000000
vt 0.246283 0.545281 0.000000
vt 0.246283 0.978388 0.000000
vt 0.355253 0.545281 0.000000
vt 0.355253 0.978388 0.000000
vt 0.674697 0.175609 0.000000
vt 0.781739 0.196015 0.000000
vt 0.715228 0.466937 0.000000
vt 0.636869 0.452000 0.000000
vt 0.886061 0.227498 0.000000
vt 0.791595 0.489984 0.000000
vt 0.986521 0.269713 0.000000
vt 0.865136 0.520887 0.000000
vt 0.323460 0.056452 0.000000
vt 0.432281 0.050762 0.000000
vt 0.432246 0.329730 0.000000
vt 0.352585 0.333894 0.000000
vt 0.541100 0.056479 0.000000
vt 0.511906 0.333914 0.000000
vt 0.648726 0.073539 0.000000
vt 0.590692 0.346403 0.000000
vt 0.041905 0.055280 0.000000
vt 0.121674 0.055280 0.000000
vt 0.121674 0.488387 0.000000
vt 0.041905 0.488387 0.000000
vt 0.201444 0.055280 0.000000
vt 0.201444 0.488387 0.000000
vt 0.281213 0.055280 0.000000
vt 0.281213 0.488387 0.000000
vt 0.660648 0.984630 0.000000
vt 0.381680 0.984630 0.000000
vt 0.381680 0.551524 0.000000
vt 0.660648 0.551524 0.000000
vt 0.706420 0.551524 0.000000
vt 0.985387 0.551524 0.000000
vt 0.985387 0.984630 0.000000
vt 0.706420 0.984630 0.000000
# 40 texture coords

o Object001
g Object001
s 8
f -16/-40/-12 -15/-39/-11 -14/-38/-11 -13/-37/-12 
f -15/-39/-11 -12/-36/-10 -11/-35/-10 -14/-38/-11 
f -12/-36/-10 -10/-34/-9 -9/-33/-9 -11/-35/-10 
s off
f -10/-32/-8 -12/-31/-8 -8/-30/-8 -7/-29/-8 
f -12/-31/-8 -15/-28/-8 -6/-27/-8 -8/-30/-8 
f -15/-28/-8 -16/-26/-8 -5/-25/-8 -6/-27/-8 
f -13/-24/-7 -14/-23/-7 -4/-22/-7 -3/-21/-7 
f -14/-23/-7 -11/-20/-7 -2/-19/-7 -4/-22/-7 
f -11/-20/-7 -9/-18/-7 -1/-17/-7 -2/-19/-7 
s 1
f -7/-16/-6 -8/-15/-5 -2/-14/-5 -1/-13/-6 
f -8/-15/-5 -6/-12/-4 -4/-11/-4 -2/-14/-5 
f -6/-12/-4 -5/-10/-3 -3/-9/-3 -4/-11/-4 
s off
f -13/-8/-2 -3/-7/-2 -5/-6/-2 -16/-5/-2 
f -10/-4/-1 -7/-3/-1 -1/-2/-1 -9/-1/-1 
# 14 polygons

#
# object Object002
#

v  22.283339 0.000000 68.581718
v  29.330000 0.000000 65.876778
v  29.330000 30.000000 65.876778
v  22.283339 30.000000 68.581718
v  36.055321 0.000000 62.450092
v  36.055321 30.000000 62.450092
v  42.385612 0.000000 58.339176
v  42.385612 30.000000 58.339176
v  26.393753 0.000000 45.715652
v  31.027748 0.000000 42.706314
v  21.470587 0.000000 48.224106
v  16.312176 0.000000 50.204224
v  21.470587 30.000000 48.224106
v  16.312176 30.000000 50.204224
v  26.393755 30.000000 45.715652
v  31.027748 30.000000 42.706314
# 16 vertices

vn 0.052333 0.000000 0.998630
vn 0.104525 0.000000 0.994522
vn 0.207909 0.000000 0.978148
vn 0.258816 0.000000 0.965927
vn 0.000000 -1.000000 -0.000000
vn 0.000000 1.000000 -0.000000
vn -0.258817 0.000000 -0.965926
vn -0.207909 0.000000 -0.978148
vn -0.104526 0.000000 -0.994522
vn -0.052334 0.000000 -0.998630
vn -1.000000 0.000000 -0.000002
vn 0.951057 0.000000 -0.309014
# 12 vertex normals

vt 0.028344 0.545281 0.000000
vt 0.137314 0.545281 0.000000
vt 0.137314 0.978388 0.000000
vt 0.028344 0.978388 0.000000
vt 0.246283 0.545281 0.000000
vt 0.246283 0.978388 0.000000
vt 0.355253 0.545281 0.000000
vt 0.355253 0.978388 0.000000
vt 0.674697 0.175609 0.000000
vt 0.781739 0.196015 0.000000
vt 0.715228 0.466937 0.000000
vt 0.636869 0.452000 0.000000
vt 0.886061 0.227498 0.000000
vt 0.791595 0.489984 0.000000
vt 0.986521 0.269713 0.000000
vt 0.865136 0.520887 0.000000
vt 0.323460 0.056452 0.000000
vt 0.432281 0.050762 0.000000
vt 0.432246 0.329730 0.000000
vt 0.352585 0.333894 0.000000
vt 0.541100 0.056479 0.000000
vt 0.511906 0.333914 0.000000
vt 0.648726 0.073539 0.000000
vt 0.590692 0.346403 0.000000
vt 0.041905 0.055280 0.000000
vt 0.121674 0.055280 0.000000
vt 0.121674 0.488387 0.000000
vt 0.041905 0.488387 0.000000
vt 0.201444 0.055280 0.000000
vt 0.201444 0.488387 0.000000
vt 0.281213 0.055280 0.000000
vt 0.281213 0.488387 0.000000
vt 0.660648 0.984630 0.000000
vt 0.381680 0.984630 0.000000
vt 0.381680 0.551524 0.000000
vt 0.660648 0.551524 0.000000
vt 0.706420 0.551524 0.000000
vt 0.985387 0.551524 0.000000
vt 0.985387 0.984630 0.000000
vt 0.706420 0.984630 0.000000
# 40 texture coords

o Object002
g Object002
s 8
f -16/-40/-12 -15/-39/-11 -14/-38/-11 -13/-37/-12 
f -15/-39/-11 -12/-36/-10 -11/-35/-10 -14/-38/-11 
f -12/-36/-10 -10/-34/-9 -9/-33/-9 -11/-35/-10 
s off
f -10/-32/-8 -12/-31/-8 -8/-30/-8 -7/-29/-8 
f -12/-31/-8 -15/-28/-8 -6/-27/-8 -8/-30/-8 
f -15/-28/-8 -16/-26/-8 -5/-25/-8 -6/-27/-8 
f -13/-24/-7 -14/-23/-7 -4/-22/-7 -3/-21/-7 
f -14/-23/-7 -11/-20/-7 -2/-19/-7 -4/-22/-7 
f -11/-20/-7 -9/-18/-7 -1/-17/-7 -2/-19/-7 
s 1
f -7/-16/-6 -8/-15/-5 -2/-14/-5 -1/-13/-6 
f -8/-15/-5 -6/-12/-4 -4/-11/-4 -2/-14/-5 
f -6/-12/-4 -5/-10/-3 -3/-9/-3 -4/-11/-4 
s off
f -13/-8/-2 -3/-7/-2 -5/-6/-2 -16/-5/-2 
f -10/-4/-1 -7/-3/-1 -1/-2/-1 -9/-1/-1 
# 14 polygons

#
# object Object003
#

v  42.385628 0.000000 58.339165
v  48.251534 0.000000 53.589077
v  48.251534 30.000000 53.589077
v  42.385628 30.000000 58.339165
v  53.588783 0.000000 48.251858
v  53.588783 30.000000 48.251858
v  58.338905 0.000000 42.385979
v  58.338905 30.000000 42.385979
v  39.228863 0.000000 35.322048
v  42.706116 0.000000 31.028019
v  35.321808 0.000000 39.229076
v  31.027758 0.000000 42.706314
v  35.321808 30.000000 39.229076
v  31.027758 30.000000 42.706314
v  39.228867 30.000000 35.322048
v  42.706116 30.000000 31.028019
# 16 vertices

vn 0.052333 0.000000 0.998630
vn 0.104525 0.000000 0.994522
vn 0.207909 0.000000 0.978148
vn 0.258816 0.000000 0.965927
vn 0.000000 -1.000000 -0.000000
vn 0.000000 1.000000 -0.000000
vn -0.258817 0.000000 -0.965926
vn -0.207909 0.000000 -0.978148
vn -0.104526 0.000000 -0.994522
vn -0.052334 0.000000 -0.998630
vn -1.000000 0.000000 -0.000002
vn 0.951057 0.000000 -0.309014
# 12 vertex normals

vt 0.028344 0.545281 0.000000
vt 0.137314 0.545281 0.000000
vt 0.137314 0.978388 0.000000
vt 0.028344 0.978388 0.000000
vt 0.246283 0.545281 0.000000
vt 0.246283 0.978388 0.000000
vt 0.355253 0.545281 0.000000
vt 0.355253 0.978388 0.000000
vt 0.674697 0.175609 0.000000
vt 0.781739 0.196015 0.000000
vt 0.715228 0.466937 0.000000
vt 0.636869 0.452000 0.000000
vt 0.886061 0.227498 0.000000
vt 0.791595 0.489984 0.000000
vt 0.986521 0.269713 0.000000
vt 0.865136 0.520887 0.000000
vt 0.323460 0.056452 0.000000
vt 0.432281 0.050762 0.000000
vt 0.432246 0.329730 0.000000
vt 0.352585 0.333894 0.000000
vt 0.541100 0.056479 0.000000
vt 0.511906 0.333914 0.000000
vt 0.648726 0.073539 0.000000
vt 0.590692 0.346403 0.000000
vt 0.041905 0.055280 0.000000
vt 0.121674 0.055280 0.000000
vt 0.121674 0.488387 0.000000
vt 0.041905 0.488387 0.000000
vt 0.201444 0.055280 0.000000
vt 0.201444 0.488387 0.000000
vt 0.281213 0.055280 0.000000
vt 0.281213 0.488387 0.000000
vt 0.660648 0.984630 0.000000
vt 0.381680 0.984630 0.000000
vt 0.381680 0.551524 0.000000
vt 0.660648 0.551524 0.000000
vt 0.706420 0.551524 0.000000
vt 0.985387 0.551524 0.000000
vt 0.985387 0.984630 0.000000
vt 0.706420 0.984630 0.000000
# 40 texture coords

o Object003
g Object003
s 8
f -16/-40/-12 -15/-39/-11 -14/-38/-11 -13/-37/-12 
f -15/-39/-11 -12/-36/-10 -11/-35/-10 -14/-38/-11 
f -12/-36/-10 -10/-34/-9 -9/-33/-9 -11/-35/-10 
s off
f -10/-32/-8 -12/-31/-8 -8/-30/-8 -7/-29/-8 
f -12/-31/-8 -15/-28/-8 -6/-27/-8 -8/-30/-8 
f -15/-28/-8 -16/-26/-8 -5/-25/-8 -6/-27/-8 
f -13/-24/-7 -14/-23/-7 -4/-22/-7 -3/-21/-7 
f -14/-23/-7 -11/-20/-7 -2/-19/-7 -4/-22/-7 
f -11/-20/-7 -9/-18/-7 -1/-17/-7 -2/-19/-7 
s 1
f -7/-16/-6 -8/-15/-5 -2/-14/-5 -1/-13/-6 
f -8/-15/-5 -6/-12/-4 -4/-11/-4 -2/-14/-5 
f -6/-12/-4 -5/-10/-3 -3/-9/-3 -4/-11/-4 
s off
f -13/-8/-2 -3/-7/-2 -5/-6/-2 -16/-5/-2 
f -10/-4/-1 -7/-3/-1 -1/-2/-1 -9/-1/-1 
# 14 polygons

#
# object Object004
#

v  58.338921 0.000000 42.385963
v  62.449871 0.000000 36.055695
v  62.449871 30.000000 36.055695
v  58.338921 30.000000 42.385963
v  65.876602 0.000000 29.330399
v  65.876602 30.000000 29.330399
v  68.581589 0.000000 22.283745
v  68.581589 30.000000 22.283745
v  48.223980 0.000000 21.470879
v  50.204113 0.000000 16.312485
v  45.715488 0.000000 26.394028
v  42.706131 0.000000 31.028013
v  45.715488 30.000000 26.394028
v  42.706131 30.000000 31.028013
v  48.223980 30.000000 21.470877
v  50.204113 30.000000 16.312485
# 16 vertices

vn 0.052333 0.000000 0.998630
vn 0.104525 0.000000 0.994522
vn 0.207909 0.000000 0.978148
vn 0.258816 0.000000 0.965927
vn 0.000000 -1.000000 -0.000000
vn 0.000000 1.000000 -0.000000
vn -0.258817 0.000000 -0.965926
vn -0.207909 0.000000 -0.978148
vn -0.104526 0.000000 -0.994522
vn -0.052334 0.000000 -0.998630
vn -1.000000 0.000000 -0.000002
vn 0.951057 0.000000 -0.309014
# 12 vertex normals

vt 0.028344 0.545281 0.000000
vt 0.137314 0.545281 0.000000
vt 0.137314 0.978388 0.000000
vt 0.028344 0.978388 0.000000
vt 0.246283 0.545281 0.000000
vt 0.246283 0.978388 0.000000
vt 0.355253 0.545281 0.000000
vt 0.355253 0.978388 0.000000
vt 0.674697 0.175609 0.000000
vt 0.781739 0.196015 0.000000
vt 0.715228 0.466937 0.000000
vt 0.636869 0.452000 0.000000
vt 0.886061 0.227498 0.000000
vt 0.791595 0.489984 0.000000
vt 0.986521 0.269713 0.000000
vt 0.865136 0.520887 0.000000
vt 0.323460 0.056452 0.000000
vt 0.432281 0.050762 0.000000
vt 0.432246 0.329730 0.000000
vt 0.352585 0.333894 0.000000
vt 0.541100 0.056479 0.000000
vt 0.511906 0.333914 0.000000
vt 0.648726 0.073539 0.000000
vt 0.590692 0.346403 0.000000
vt 0.041905 0.055280 0.000000
vt 0.121674 0.055280 0.000000
vt 0.121674 0.488387 0.000000
vt 0.041905 0.488387 0.000000
vt 0.201444 0.055280 0.000000
vt 0.201444 0.488387 0.000000
vt 0.281213 0.055280 0.000000
vt 0.281213 0.488387 0.000000
vt 0.660648 0.984630 0.000000
vt 0.381680 0.984630 0.000000
vt 0.381680 0.551524 0.000000
vt 0.660648 0.551524 0.000000
vt 0.706420 0.551524 0.000000
vt 0.985387 0.551524 0.000000
vt 0.985387 0.984630 0.000000
vt 0.706420 0.984630 0.000000
# 40 texture coords

o Object004
g Object004
s 8
f -16/-40/-12 -15/-39/-11 -14/-38/-11 -13/-37/-12 
f -15/-39/-11 -12/-36/-10 -11/-35/-10 -14/-38/-11 
f -12/-36/-10 -10/-34/-9 -9/-33/-9 -11/-35/-10 
s off
f -10/-32/-8 -12/-31/-8 -8/-30/-8 -7/-29/-8 
f -12/-31/-8 -15/-28/-8 -6/-27/-8 -8/-30/-8 
f -15/-28/-8 -16/-26/-8 -5/-25/-8 -6/-27/-8 
f -13/-24/-7 -14/-23/-7 -4/-22/-7 -3/-21/-7 
f -14/-23/-7 -11/-20/-7 -2/-19/-7 -4/-22/-7 
f -11/-20/-7 -9/-18/-7 -1/-17/-7 -2/-19/-7 
s 1
f -7/-16/-6 -8/-15/-5 -2/-14/-5 -1/-13/-6 
f -8/-15/-5 -6/-12/-4 -4/-11/-4 -2/-14/-5 
f -6/-12/-4 -5/-10/-3 -3/-9/-3 -4/-11/-4 
s off
f -13/-8/-2 -3/-7/-2 -5/-6/-2 -16/-5/-2 
f -10/-4/-1 -7/-3/-1 -1/-2/-1 -9/-1/-1 
# 14 polygons

#
# object Object005
#

v  68.581596 0.000000 22.283724
v  70.535179 0.000000 14.992931
v  70.535179 30.000000 14.992931
v  68.581596 30.000000 22.283724
v  71.715973 0.000000 7.537875
v  71.715973 30.000000 7.537875
v  72.111023 0.000000 0.000225
v  72.111023 30.000000 0.000225
v  52.498596 0.000000 5.517988
v  52.787788 0.000000 0.000167
v  51.634216 0.000000 10.975349
v  50.204124 0.000000 16.312473
v  51.634216 30.000000 10.975349
v  50.204124 30.000000 16.312473
v  52.498596 30.000000 5.517987
v  52.787788 30.000000 0.000167
# 16 vertices

vn 0.052333 0.000000 0.998630
vn 0.104525 0.000000 0.994522
vn 0.207909 0.000000 0.978148
vn 0.258816 0.000000 0.965927
vn 0.000000 -1.000000 -0.000000
vn 0.000000 1.000000 -0.000000
vn -0.258817 0.000000 -0.965926
vn -0.207909 0.000000 -0.978148
vn -0.104526 0.000000 -0.994522
vn -0.052334 0.000000 -0.998630
vn -1.000000 0.000000 -0.000002
vn 0.951057 0.000000 -0.309014
# 12 vertex normals

vt 0.028344 0.545281 0.000000
vt 0.137314 0.545281 0.000000
vt 0.137314 0.978388 0.000000
vt 0.028344 0.978388 0.000000
vt 0.246283 0.545281 0.000000
vt 0.246283 0.978388 0.000000
vt 0.355253 0.545281 0.000000
vt 0.355253 0.978388 0.000000
vt 0.674697 0.175609 0.000000
vt 0.781739 0.196015 0.000000
vt 0.715228 0.466937 0.000000
vt 0.636869 0.452000 0.000000
vt 0.886061 0.227498 0.000000
vt 0.791595 0.489984 0.000000
vt 0.986521 0.269713 0.000000
vt 0.865136 0.520887 0.000000
vt 0.323460 0.056452 0.000000
vt 0.432281 0.050762 0.000000
vt 0.432246 0.329730 0.000000
vt 0.352585 0.333894 0.000000
vt 0.541100 0.056479 0.000000
vt 0.511906 0.333914 0.000000
vt 0.648726 0.073539 0.000000
vt 0.590692 0.346403 0.000000
vt 0.041905 0.055280 0.000000
vt 0.121674 0.055280 0.000000
vt 0.121674 0.488387 0.000000
vt 0.041905 0.488387 0.000000
vt 0.201444 0.055280 0.000000
vt 0.201444 0.488387 0.000000
vt 0.281213 0.055280 0.000000
vt 0.281213 0.488387 0.000000
vt 0.660648 0.984630 0.000000
vt 0.381680 0.984630 0.000000
vt 0.381680 0.551524 0.000000
vt 0.660648 0.551524 0.000000
vt 0.706420 0.551524 0.000000
vt 0.985387 0.551524 0.000000
vt 0.985387 0.984630 0.000000
vt 0.706420 0.984630 0.000000
# 40 texture coords

o Object005
g Object005
s 8
f -16/-40/-12 -15/-39/-11 -14/-38/-11 -13/-37/-12 
f -15/-39/-11 -12/-36/-10 -11/-35/-10 -14/-38/-11 
f -12/-36/-10 -10/-34/-9 -9/-33/-9 -11/-35/-10 
s off
f -10/-32/-8 -12/-31/-8 -8/-30/-8 -7/-29/-8 
f -12/-31/-8 -15/-28/-8 -6/-27/-8 -8/-30/-8 
f -15/-28/-8 -16/-26/-8 -5/-25/-8 -6/-27/-8 
f -13/-24/-7 -14/-23/-7 -4/-22/-7 -3/-21/-7 
f -14/-23/-7 -11/-20/-7 -2/-19/-7 -4/-22/-7 
f -11/-20/-7 -9/-18/-7 -1/-17/-7 -2/-19/-7 
s 1
f -7/-16/-6 -8/-15/-5 -2/-14/-5 -1/-13/-6 
f -8/-15/-5 -6/-12/-4 -4/-11/-4 -2/-14/-5 
f -6/-12/-4 -5/-10/-3 -3/-9/-3 -4/-11/-4 
s off
f -13/-8/-2 -3/-7/-2 -5/-6/-2 -16/-5/-2 
f -10/-4/-1 -7/-3/-1 -1/-2/-1 -9/-1/-1 
# 14 polygons

#
# object Object006
#

v  72.111023 0.000000 0.000202
v  71.716011 0.000000 -7.537445
v  71.716011 30.000000 -7.537445
v  72.111023 30.000000 0.000202
v  70.535271 0.000000 -14.992510
v  70.535271 30.000000 -14.992510
v  68.581726 0.000000 -22.283318
v  68.581726 30.000000 -22.283318
v  51.634285 0.000000 -10.975040
v  50.204220 0.000000 -16.312164
v  52.498627 0.000000 -5.517673
v  52.787792 0.000000 0.000155
v  52.498627 30.000000 -5.517673
v  52.787792 30.000000 0.000155
v  51.634285 30.000000 -10.975041
v  50.204220 30.000000 -16.312164
# 16 vertices

vn 0.052333 0.000000 0.998630
vn 0.104525 0.000000 0.994522
vn 0.207909 0.000000 0.978148
vn 0.258816 0.000000 0.965927
vn 0.000000 -1.000000 -0.000000
vn 0.000000 1.000000 -0.000000
vn -0.258817 0.000000 -0.965926
vn -0.207909 0.000000 -0.978148
vn -0.104526 0.000000 -0.994522
vn -0.052334 0.000000 -0.998630
vn -1.000000 0.000000 -0.000002
vn 0.951057 0.000000 -0.309014
# 12 vertex normals

vt 0.028344 0.545281 0.000000
vt 0.137314 0.545281 0.000000
vt 0.137314 0.978388 0.000000
vt 0.028344 0.978388 0.000000
vt 0.246283 0.545281 0.000000
vt 0.246283 0.978388 0.000000
vt 0.355253 0.545281 0.000000
vt 0.355253 0.978388 0.000000
vt 0.674697 0.175609 0.000000
vt 0.781739 0.196015 0.000000
vt 0.715228 0.466937 0.000000
vt 0.636869 0.452000 0.000000
vt 0.886061 0.227498 0.000000
vt 0.791595 0.489984 0.000000
vt 0.986521 0.269713 0.000000
vt 0.865136 0.520887 0.000000
vt 0.323460 0.056452 0.000000
vt 0.432281 0.050762 0.000000
vt 0.432246 0.329730 0.000000
vt 0.352585 0.333894 0.000000
vt 0.541100 0.056479 0.000000
vt 0.511906 0.333914 0.000000
vt 0.648726 0.073539 0.000000
vt 0.590692 0.346403 0.000000
vt 0.041905 0.055280 0.000000
vt 0.121674 0.055280 0.000000
vt 0.121674 0.488387 0.000000
vt 0.041905 0.488387 0.000000
vt 0.201444 0.055280 0.000000
vt 0.201444 0.488387 0.000000
vt 0.281213 0.055280 0.000000
vt 0.281213 0.488387 0.000000
vt 0.660648 0.984630 0.000000
vt 0.381680 0.984630 0.000000
vt 0.381680 0.551524 0.000000
vt 0.660648 0.551524 0.000000
vt 0.706420 0.551524 0.000000
vt 0.985387 0.551524 0.000000
vt 0.985387 0.984630 0.000000
vt 0.706420 0.984630 0.000000
# 40 texture coords

o Object006
g Object006
s 8
f -16/-40/-12 -15/-39/-11 -14/-38/-11 -13/-37/-12 
f -15/-39/-11 -12/-36/-10 -11/-35/-10 -14/-38/-11 
f -12/-36/-10 -10/-34/-9 -9/-33/-9 -11/-35/-10 
s off
f -10/-32/-8 -12/-31/-8 -8/-30/-8 -7/-29/-8 
f -12/-31/-8 -15/-28/-8 -6/-27/-8 -8/-30/-8 
f -15/-28/-8 -16/-26/-8 -5/-25/-8 -6/-27/-8 
f -13/-24/-7 -14/-23/-7 -4/-22/-7 -3/-21/-7 
f -14/-23/-7 -11/-20/-7 -2/-19/-7 -4/-22/-7 
f -11/-20/-7 -9/-18/-7 -1/-17/-7 -2/-19/-7 
s 1
f -7/-16/-6 -8/-15/-5 -2/-14/-5 -1/-13/-6 
f -8/-15/-5 -6/-12/-4 -4/-11/-4 -2/-14/-5 
f -6/-12/-4 -5/-10/-3 -3/-9/-3 -4/-11/-4 
s off
f -13/-8/-2 -3/-7/-2 -5/-6/-2 -16/-5/-2 
f -10/-4/-1 -7/-3/-1 -1/-2/-1 -9/-1/-1 
# 14 polygons

#
# object Object007
#

v  68.581718 0.000000 -22.283340
v  65.876778 0.000000 -29.330002
v  65.876778 30.000000 -29.330002
v  68.581718 30.000000 -22.283340
v  62.450085 0.000000 -36.055321
v  62.450085 30.000000 -36.055321
v  58.339172 0.000000 -42.385612
v  58.339172 30.000000 -42.385612
v  45.715645 0.000000 -26.393755
v  42.706310 0.000000 -31.027748
v  48.224102 0.000000 -21.470585
v  50.204220 0.000000 -16.312178
v  48.224102 30.000000 -21.470585
v  50.204220 30.000000 -16.312178
v  45.715645 30.000000 -26.393757
v  42.706310 30.000000 -31.027748
# 16 vertices

vn 0.052333 0.000000 0.998630
vn 0.104525 0.000000 0.994522
vn 0.207909 0.000000 0.978148
vn 0.258816 0.000000 0.965927
vn 0.000000 -1.000000 -0.000000
vn 0.000000 1.000000 -0.000000
vn -0.258817 0.000000 -0.965926
vn -0.207909 0.000000 -0.978148
vn -0.104526 0.000000 -0.994522
vn -0.052334 0.000000 -0.998630
vn -1.000000 0.000000 -0.000002
vn 0.951057 0.000000 -0.309014
# 12 vertex normals

vt 0.028344 0.545281 0.000000
vt 0.137314 0.545281 0.000000
vt 0.137314 0.978388 0.000000
vt 0.028344 0.978388 0.000000
vt 0.246283 0.545281 0.000000
vt 0.246283 0.978388 0.000000
vt 0.355253 0.545281 0.000000
vt 0.355253 0.978388 0.000000
vt 0.674697 0.175609 0.000000
vt 0.781739 0.196015 0.000000
vt 0.715228 0.466937 0.000000
vt 0.636869 0.452000 0.000000
vt 0.886061 0.227498 0.000000
vt 0.791595 0.489984 0.000000
vt 0.986521 0.269713 0.000000
vt 0.865136 0.520887 0.000000
vt 0.323460 0.056452 0.000000
vt 0.432281 0.050762 0.000000
vt 0.432246 0.329730 0.000000
vt 0.352585 0.333894 0.000000
vt 0.541100 0.056479 0.000000
vt 0.511906 0.333914 0.000000
vt 0.648726 0.073539 0.000000
vt 0.590692 0.346403 0.000000
vt 0.041905 0.055280 0.000000
vt 0.121674 0.055280 0.000000
vt 0.121674 0.488387 0.000000
vt 0.041905 0.488387 0.000000
vt 0.201444 0.055280 0.000000
vt 0.201444 0.488387 0.000000
vt 0.281213 0.055280 0.000000
vt 0.281213 0.488387 0.000000
vt 0.660648 0.984630 0.000000
vt 0.381680 0.984630 0.000000
vt 0.381680 0.551524 0.000000
vt 0.660648 0.551524 0.000000
vt 0.706420 0.551524 0.000000
vt 0.985387 0.551524 0.000000
vt 0.985387 0.984630 0.000000
vt 0.706420 0.984630 0.000000
# 40 texture coords

o Object007
g Object007
s 8
f -16/-40/-12 -15/-39/-11 -14/-38/-11 -13/-37/-12 
f -15/-39/-11 -12/-36/-10 -11/-35/-10 -14/-38/-11 
f -12/-36/-10 -10/-34/-9 -9/-33/-9 -11/-35/-10 
s off
f -10/-32/-8 -12/-31/-8 -8/-30/-8 -7/-29/-8 
f -12/-31/-8 -15/-28/-8 -6/-27/-8 -8/-30/-8 
f -15/-28/-8 -16/-26/-8 -5/-25/-8 -6/-27/-8 
f -13/-24/-7 -14/-23/-7 -4/-22/-7 -3/-21/-7 
f -14/-23/-7 -11/-20/-7 -2/-19/-7 -4/-22/-7 
f -11/-20/-7 -9/-18/-7 -1/-17/-7 -2/-19/-7 
s 1
f -7/-16/-6 -8/-15/-5 -2/-14/-5 -1/-13/-6 
f -8/-15/-5 -6/-12/-4 -4/-11/-4 -2/-14/-5 
f -6/-12/-4 -5/-10/-3 -3/-9/-3 -4/-11/-4 
s off
f -13/-8/-2 -3/-7/-2 -5/-6/-2 -16/-5/-2 
f -10/-4/-1 -7/-3/-1 -1/-2/-1 -9/-1/-1 
# 14 polygons

#
# object Object008
#

v  58.339165 0.000000 -42.385624
v  53.589077 0.000000 -48.251530
v  53.589077 30.000000 -48.251530
v  58.339165 30.000000 -42.385624
v  48.251858 0.000000 -53.588779
v  48.251858 30.000000 -53.588779
v  42.385983 0.000000 -58.338902
v  42.385983 30.000000 -58.338902
v  35.322048 0.000000 -39.228859
v  31.028019 0.000000 -42.706112
v  39.229076 0.000000 -35.321804
v  42.706314 0.000000 -31.027754
v  39.229076 30.000000 -35.321804
v  42.706314 30.000000 -31.027754
v  35.322048 30.000000 -39.228859
v  31.028019 30.000000 -42.706112
# 16 vertices

vn 0.052333 0.000000 0.998630
vn 0.104525 0.000000 0.994522
vn 0.207909 0.000000 0.978148
vn 0.258816 0.000000 0.965927
vn 0.000000 -1.000000 -0.000000
vn 0.000000 1.000000 -0.000000
vn -0.258817 0.000000 -0.965926
vn -0.207909 0.000000 -0.978148
vn -0.104526 0.000000 -0.994522
vn -0.052334 0.000000 -0.998630
vn -1.000000 0.000000 -0.000002
vn 0.951057 0.000000 -0.309014
# 12 vertex normals

vt 0.028344 0.545281 0.000000
vt 0.137314 0.545281 0.000000
vt 0.137314 0.978388 0.000000
vt 0.028344 0.978388 0.000000
vt 0.246283 0.545281 0.000000
vt 0.246283 0.978388 0.000000
vt 0.355253 0.545281 0.000000
vt 0.355253 0.978388 0.000000
vt 0.674697 0.175609 0.000000
vt 0.781739 0.196015 0.000000
vt 0.715228 0.466937 0.000000
vt 0.636869 0.452000 0.000000
vt 0.886061 0.227498 0.000000
vt 0.791595 0.489984 0.000000
vt 0.986521 0.269713 0.000000
vt 0.865136 0.520887 0.000000
vt 0.323460 0.056452 0.000000
vt 0.432281 0.050762 0.000000
vt 0.432246 0.329730 0.000000
vt 0.352585 0.333894 0.000000
vt 0.541100 0.056479 0.000000
vt 0.511906 0.333914 0.000000
vt 0.648726 0.073539 0.000000
vt 0.590692 0.346403 0.000000
vt 0.041905 0.055280 0.000000
vt 0.121674 0.055280 0.000000
vt 0.121674 0.488387 0.000000
vt 0.041905 0.488387 0.000000
vt 0.201444 0.055280 0.000000
vt 0.201444 0.488387 0.000000
vt 0.281213 0.055280 0.000000
vt 0.281213 0.488387 0.000000
vt 0.660648 0.984630 0.000000
vt 0.381680 0.984630 0.000000
vt 0.381680 0.551524 0.000000
vt 0.660648 0.551524 0.000000
vt 0.706420 0.551524 0.000000
vt 0.985387 0.551524 0.000000
vt 0.985387 0.984630 0.000000
vt 0.706420 0.984630 0.000000
# 40 texture coords

o Object008
g Object008
s 8
f -16/-40/-12 -15/-39/-11 -14/-38/-11 -13/-37/-12 
f -15/-39/-11 -12/-36/-10 -11/-35/-10 -14/-38/-11 
f -12/-36/-10 -10/-34/-9 -9/-33/-9 -11/-35/-10 
s off
f -10/-32/-8 -12/-31/-8 -8/-30/-8 -7/-29/-8 
f -12/-31/-8 -15/-28/-8 -6/-27/-8 -8/-30/-8 
f -15/-28/-8 -16/-26/-8 -5/-25/-8 -6/-27/-8 
f -13/-24/-7 -14/-23/-7 -4/-22/-7 -3/-21/-7 
f -14/-23/-7 -11/-20/-7 -2/-19/-7 -4/-22/-7 
f -11/-20/-7 -9/-18/-7 -1/-17/-7 -2/-19/-7 
s 1
f -7/-16/-6 -8/-15/-5 -2/-14/-5 -1/-13/-6 
f -8/-15/-5 -6/-12/-4 -4/-11/-4 -2/-14/-5 
f -6/-12/-4 -5/-10/-3 -3/-9/-3 -4/-11/-4 
s off
f -13/-8/-2 -3/-7/-2 -5/-6/-2 -16/-5/-2 
f -10/-4/-1 -7/-3/-1 -1/-2/-1 -9/-1/-1 
# 14 polygons

#
# object Object009
#

v  42.385960 0.000000 -58.338924
v  36.055691 0.000000 -62.449875
v  36.055691 30.000000 -62.449875
v  42.385960 30.000000 -58.338924
v  29.330393 0.000000 -65.876610
v  29.330393 30.000000 -65.876610
v  22.283741 0.000000 -68.581589
v  22.283741 30.000000 -68.581589
v  21.470875 0.000000 -48.223984
v  16.312479 0.000000 -50.204117
v  26.394026 0.000000 -45.715492
v  31.028009 0.000000 -42.706135
v  26.394026 30.000000 -45.715492
v  31.028009 30.000000 -42.706135
v  21.470873 30.000000 -48.223984
v  16.312479 30.000000 -50.204117
# 16 vertices

vn 0.052333 0.000000 0.998630
vn 0.104525 0.000000 0.994522
vn 0.207909 0.000000 0.978148
vn 0.258816 0.000000 0.965927
vn 0.000000 -1.000000 -0.000000
vn 0.000000 1.000000 -0.000000
vn -0.258817 0.000000 -0.965926
vn -0.207909 0.000000 -0.978148
vn -0.104526 0.000000 -0.994522
vn -0.052334 0.000000 -0.998630
vn -1.000000 0.000000 -0.000002
vn 0.951057 0.000000 -0.309014
# 12 vertex normals

vt 0.028344 0.545281 0.000000
vt 0.137314 0.545281 0.000000
vt 0.137314 0.978388 0.000000
vt 0.028344 0.978388 0.000000
vt 0.246283 0.545281 0.000000
vt 0.246283 0.978388 0.000000
vt 0.355253 0.545281 0.000000
vt 0.355253 0.978388 0.000000
vt 0.674697 0.175609 0.000000
vt 0.781739 0.196015 0.000000
vt 0.715228 0.466937 0.000000
vt 0.636869 0.452000 0.000000
vt 0.886061 0.227498 0.000000
vt 0.791595 0.489984 0.000000
vt 0.986521 0.269713 0.000000
vt 0.865136 0.520887 0.000000
vt 0.323460 0.056452 0.000000
vt 0.432281 0.050762 0.000000
vt 0.432246 0.329730 0.000000
vt 0.352585 0.333894 0.000000
vt 0.541100 0.056479 0.000000
vt 0.511906 0.333914 0.000000
vt 0.648726 0.073539 0.000000
vt 0.590692 0.346403 0.000000
vt 0.041905 0.055280 0.000000
vt 0.121674 0.055280 0.000000
vt 0.121674 0.488387 0.000000
vt 0.041905 0.488387 0.000000
vt 0.201444 0.055280 0.000000
vt 0.201444 0.488387 0.000000
vt 0.281213 0.055280 0.000000
vt 0.281213 0.488387 0.000000
vt 0.660648 0.984630 0.000000
vt 0.381680 0.984630 0.000000
vt 0.381680 0.551524 0.000000
vt 0.660648 0.551524 0.000000
vt 0.706420 0.551524 0.000000
vt 0.985387 0.551524 0.000000
vt 0.985387 0.984630 0.000000
vt 0.706420 0.984630 0.000000
# 40 texture coords

o Object009
g Object009
s 8
f -16/-40/-12 -15/-39/-11 -14/-38/-11 -13/-37/-12 
f -15/-39/-11 -12/-36/-10 -11/-35/-10 -14/-38/-11 
f -12/-36/-10 -10/-34/-9 -9/-33/-9 -11/-35/-10 
s off
f -10/-32/-8 -12/-31/-8 -8/-30/-8 -7/-29/-8 
f -12/-31/-8 -15/-28/-8 -6/-27/-8 -8/-30/-8 
f -15/-28/-8 -16/-26/-8 -5/-25/-8 -6/-27/-8 
f -13/-24/-7 -14/-23/-7 -4/-22/-7 -3/-21/-7 
f -14/-23/-7 -11/-20/-7 -2/-19/-7 -4/-22/-7 
f -11/-20/-7 -9/-18/-7 -1/-17/-7 -2/-19/-7 
s 1
f -7/-16/-6 -8/-15/-5 -2/-14/-5 -1/-13/-6 
f -8/-15/-5 -6/-12/-4 -4/-11/-4 -2/-14/-5 
f -6/-12/-4 -5/-10/-3 -3/-9/-3 -4/-11/-4 
s off
f -13/-8/-2 -3/-7/-2 -5/-6/-2 -16/-5/-2 
f -10/-4/-1 -7/-3/-1 -1/-2/-1 -9/-1/-1 
# 14 polygons

#
# object Object010
#

v  22.283712 0.000000 -68.581604
v  14.992918 0.000000 -70.535179
v  14.992918 30.000000 -70.535179
v  22.283712 30.000000 -68.581604
v  7.537861 0.000000 -71.715973
v  7.537861 30.000000 -71.715973
v  0.000214 0.000000 -72.111023
v  0.000214 30.000000 -72.111023
v  5.517979 0.000000 -52.498600
v  0.000157 0.000000 -52.787788
v  10.975340 0.000000 -51.634216
v  16.312464 0.000000 -50.204128
v  10.975340 30.000000 -51.634216
v  16.312464 30.000000 -50.204128
v  5.517978 30.000000 -52.498600
v  0.000157 30.000000 -52.787788
# 16 vertices

vn 0.052333 0.000000 0.998630
vn 0.104525 0.000000 0.994522
vn 0.207909 0.000000 0.978148
vn 0.258816 0.000000 0.965927
vn 0.000000 -1.000000 -0.000000
vn 0.000000 1.000000 -0.000000
vn -0.258817 0.000000 -0.965926
vn -0.207909 0.000000 -0.978148
vn -0.104526 0.000000 -0.994522
vn -0.052334 0.000000 -0.998630
vn -1.000000 0.000000 -0.000002
vn 0.951057 0.000000 -0.309014
# 12 vertex normals

vt 0.028344 0.545281 0.000000
vt 0.137314 0.545281 0.000000
vt 0.137314 0.978388 0.000000
vt 0.028344 0.978388 0.000000
vt 0.246283 0.545281 0.000000
vt 0.246283 0.978388 0.000000
vt 0.355253 0.545281 0.000000
vt 0.355253 0.978388 0.000000
vt 0.674697 0.175609 0.000000
vt 0.781739 0.196015 0.000000
vt 0.715228 0.466937 0.000000
vt 0.636869 0.452000 0.000000
vt 0.886061 0.227498 0.000000
vt 0.791595 0.489984 0.000000
vt 0.986521 0.269713 0.000000
vt 0.865136 0.520887 0.000000
vt 0.323460 0.056452 0.000000
vt 0.432281 0.050762 0.000000
vt 0.432246 0.329730 0.000000
vt 0.352585 0.333894 0.000000
vt 0.541100 0.056479 0.000000
vt 0.511906 0.333914 0.000000
vt 0.648726 0.073539 0.000000
vt 0.590692 0.346403 0.000000
vt 0.041905 0.055280 0.000000
vt 0.121674 0.055280 0.000000
vt 0.121674 0.488387 0.000000
vt 0.041905 0.488387 0.000000
vt 0.201444 0.055280 0.000000
vt 0.201444 0.488387 0.000000
vt 0.281213 0.055280 0.000000
vt 0.281213 0.488387 0.000000
vt 0.660648 0.984630 0.000000
vt 0.381680 0.984630 0.000000
vt 0.381680 0.551524 0.000000
vt 0.660648 0.551524 0.000000
vt 0.706420 0.551524 0.000000
vt 0.985387 0.551524 0.000000
vt 0.985387 0.984630 0.000000
vt 0.706420 0.984630 0.000000
# 40 texture coords

o Object010
g Object010
s 8
f -16/-40/-12 -15/-39/-11 -14/-38/-11 -13/-37/-12 
f -15/-39/-11 -12/-36/-10 -11/-35/-10 -14/-38/-11 
f -12/-36/-10 -10/-34/-9 -9/-33/-9 -11/-35/-10 
s off
f -10/-32/-8 -12/-31/-8 -8/-30/-8 -7/-29/-8 
f -12/-31/-8 -15/-28/-8 -6/-27/-8 -8/-30/-8 
f -15/-28/-8 -16/-26/-8 -5/-25/-8 -6/-27/-8 
f -13/-24/-7 -14/-23/-7 -4/-22/-7 -3/-21/-7 
f -14/-23/-7 -11/-20/-7 -2/-19/-7 -4/-22/-7 
f -11/-20/-7 -9/-18/-7 -1/-17/-7 -2/-19/-7 
s 1
f -7/-16/-6 -8/-15/-5 -2/-14/-5 -1/-13/-6 
f -8/-15/-5 -6/-12/-4 -4/-11/-4 -2/-14/-5 
f -6/-12/-4 -5/-10/-3 -3/-9/-3 -4/-11/-4 
s off
f -13/-8/-2 -3/-7/-2 -5/-6/-2 -16/-5/-2 
f -10/-4/-1 -7/-3/-1 -1/-2/-1 -9/-1/-1 
# 14 polygons

#
# object Object011
#

v  0.000182 0.000000 -72.111023
v  -7.537465 0.000000 -71.716011
v  -7.537465 30.000000 -71.716011
v  0.000182 30.000000 -72.111023
v  -14.992530 0.000000 -70.535263
v  -14.992530 30.000000 -70.535263
v  -22.283337 0.000000 -68.581718
v  -22.283337 30.000000 -68.581718
v  -10.975056 0.000000 -51.634281
v  -16.312180 0.000000 -50.204216
v  -5.517688 0.000000 -52.498627
v  0.000140 0.000000 -52.787792
v  -5.517688 30.000000 -52.498627
v  0.000140 30.000000 -52.787792
v  -10.975057 30.000000 -51.634281
v  -16.312180 30.000000 -50.204216
# 16 vertices

vn 0.052333 0.000000 0.998630
vn 0.104525 0.000000 0.994522
vn 0.207909 0.000000 0.978148
vn 0.258816 0.000000 0.965927
vn 0.000000 -1.000000 -0.000000
vn 0.000000 1.000000 -0.000000
vn -0.258817 0.000000 -0.965926
vn -0.207909 0.000000 -0.978148
vn -0.104526 0.000000 -0.994522
vn -0.052334 0.000000 -0.998630
vn -1.000000 0.000000 -0.000002
vn 0.951057 0.000000 -0.309014
# 12 vertex normals

vt 0.028344 0.545281 0.000000
vt 0.137314 0.545281 0.000000
vt 0.137314 0.978388 0.000000
vt 0.028344 0.978388 0.000000
vt 0.246283 0.545281 0.000000
vt 0.246283 0.978388 0.000000
vt 0.355253 0.545281 0.000000
vt 0.355253 0.978388 0.000000
vt 0.674697 0.175609 0.000000
vt 0.781739 0.196015 0.000000
vt 0.715228 0.466937 0.000000
vt 0.636869 0.452000 0.000000
vt 0.886061 0.227498 0.000000
vt 0.791595 0.489984 0.000000
vt 0.986521 0.269713 0.000000
vt 0.865136 0.520887 0.000000
vt 0.323460 0.056452 0.000000
vt 0.432281 0.050762 0.000000
vt 0.432246 0.329730 0.000000
vt 0.352585 0.333894 0.000000
vt 0.541100 0.056479 0.000000
vt 0.511906 0.333914 0.000000
vt 0.648726 0.073539 0.000000
vt 0.590692 0.346403 0.000000
vt 0.041905 0.055280 0.000000
vt 0.121674 0.055280 0.000000
vt 0.121674 0.488387 0.000000
vt 0.041905 0.488387 0.000000
vt 0.201444 0.055280 0.000000
vt 0.201444 0.488387 0.000000
vt 0.281213 0.055280 0.000000
vt 0.281213 0.488387 0.000000
vt 0.660648 0.984630 0.000000
vt 0.381680 0.984630 0.000000
vt 0.381680 0.551524 0.000000
vt 0.660648 0.551524 0.000000
vt 0.706420 0.551524 0.000000
vt 0.985387 0.551524 0.000000
vt 0.985387 0.984630 0.000000
vt 0.706420 0.984630 0.000000
# 40 texture coords

o Object011
g Object011
s 8
f -16/-40/-12 -15/-39/-11 -14/-38/-11 -13/-37/-12 
f -15/-39/-11 -12/-36/-10 -11/-35/-10 -14/-38/-11 
f -12/-36/-10 -10/-34/-9 -9/-33/-9 -11/-35/-10 
s off
f -10/-32/-8 -12/-31/-8 -8/-30/-8 -7/-29/-8 
f -12/-31/-8 -15/-28/-8 -6/-27/-8 -8/-30/-8 
f -15/-28/-8 -16/-26/-8 -5/-25/-8 -6/-27/-8 
f -13/-24/-7 -14/-23/-7 -4/-22/-7 -3/-21/-7 
f -14/-23/-7 -11/-20/-7 -2/-19/-7 -4/-22/-7 
f -11/-20/-7 -9/-18/-7 -1/-17/-7 -2/-19/-7 
s 1
f -7/-16/-6 -8/-15/-5 -2/-14/-5 -1/-13/-6 
f -8/-15/-5 -6/-12/-4 -4/-11/-4 -2/-14/-5 
f -6/-12/-4 -5/-10/-3 -3/-9/-3 -4/-11/-4 
s off
f -13/-8/-2 -3/-7/-2 -5/-6/-2 -16/-5/-2 
f -10/-4/-1 -7/-3/-1 -1/-2/-1 -9/-1/-1 
# 14 polygons

#
# object Object012
#

v  -22.283367 0.000000 -68.581711
v  -29.330029 0.000000 -65.876770
v  -29.330029 30.000000 -65.876770
v  -22.283367 30.000000 -68.581711
v  -36.055347 0.000000 -62.450069
v  -36.055347 30.000000 -62.450069
v  -42.385635 0.000000 -58.339157
v  -42.385635 30.000000 -58.339157
v  -26.393774 0.000000 -45.715637
v  -31.027763 0.000000 -42.706303
v  -21.470606 0.000000 -48.224098
v  -16.312199 0.000000 -50.204216
v  -21.470606 30.000000 -48.224098
v  -16.312199 30.000000 -50.204216
v  -26.393776 30.000000 -45.715637
v  -31.027763 30.000000 -42.706303
# 16 vertices

vn 0.052333 0.000000 0.998630
vn 0.104525 0.000000 0.994522
vn 0.207909 0.000000 0.978148
vn 0.258816 0.000000 0.965927
vn 0.000000 -1.000000 -0.000000
vn 0.000000 1.000000 -0.000000
vn -0.258817 0.000000 -0.965926
vn -0.207909 0.000000 -0.978148
vn -0.104526 0.000000 -0.994522
vn -0.052334 0.000000 -0.998630
vn -1.000000 0.000000 -0.000002
vn 0.951057 0.000000 -0.309014
# 12 vertex normals

vt 0.028344 0.545281 0.000000
vt 0.137314 0.545281 0.000000
vt 0.137314 0.978388 0.000000
vt 0.028344 0.978388 0.000000
vt 0.246283 0.545281 0.000000
vt 0.246283 0.978388 0.000000
vt 0.355253 0.545281 0.000000
vt 0.355253 0.978388 0.000000
vt 0.674697 0.175609 0.000000
vt 0.781739 0.196015 0.000000
vt 0.715228 0.466937 0.000000
vt 0.636869 0.452000 0.000000
vt 0.886061 0.227498 0.000000
vt 0.791595 0.489984 0.000000
vt 0.986521 0.269713 0.000000
vt 0.865136 0.520887 0.000000
vt 0.323460 0.056452 0.000000
vt 0.432281 0.050762 0.000000
vt 0.432246 0.329730 0.000000
vt 0.352585 0.333894 0.000000
vt 0.541100 0.056479 0.000000
vt 0.511906 0.333914 0.000000
vt 0.648726 0.073539 0.000000
vt 0.590692 0.346403 0.000000
vt 0.041905 0.055280 0.000000
vt 0.121674 0.055280 0.000000
vt 0.121674 0.488387 0.000000
vt 0.041905 0.488387 0.000000
vt 0.201444 0.055280 0.000000
vt 0.201444 0.488387 0.000000
vt 0.281213 0.055280 0.000000
vt 0.281213 0.488387 0.000000
vt 0.660648 0.984630 0.000000
vt 0.381680 0.984630 0.000000
vt 0.381680 0.551524 0.000000
vt 0.660648 0.551524 0.000000
vt 0.706420 0.551524 0.000000
vt 0.985387 0.551524 0.000000
vt 0.985387 0.984630 0.000000
vt 0.706420 0.984630 0.000000
# 40 texture coords

o Object012
g Object012
s 8
f -16/-40/-12 -15/-39/-11 -14/-38/-11 -13/-37/-12 
f -15/-39/-11 -12/-36/-10 -11/-35/-10 -14/-38/-11 
f -12/-36/-10 -10/-34/-9 -9/-33/-9 -11/-35/-10 
s off
f -10/-32/-8 -12/-31/-8 -8/-30/-8 -7/-29/-8 
f -12/-31/-8 -15/-28/-8 -6/-27/-8 -8/-30/-8 
f -15/-28/-8 -16/-26/-8 -5/-25/-8 -6/-27/-8 
f -13/-24/-7 -14/-23/-7 -4/-22/-7 -3/-21/-7 
f -14/-23/-7 -11/-20/-7 -2/-19/-7 -4/-22/-7 
f -11/-20/-7 -9/-18/-7 -1/-17/-7 -2/-19/-7 
s 1
f -7/-16/-6 -8/-15/-5 -2/-14/-5 -1/-13/-6 
f -8/-15/-5 -6/-12/-4 -4/-11/-4 -2/-14/-5 
f -6/-12/-4 -5/-10/-3 -3/-9/-3 -4/-11/-4 
s off
f -13/-8/-2 -3/-7/-2 -5/-6/-2 -16/-5/-2 
f -10/-4/-1 -7/-3/-1 -1/-2/-1 -9/-1/-1 
# 14 polygons

#
# object Object013
#

v  -42.385662 0.000000 -58.339138
v  -48.251564 0.000000 -53.589046
v  -48.251564 30.000000 -53.589046
v  -42.385662 30.000000 -58.339138
v  -53.588814 0.000000 -48.251827
v  -53.588814 30.000000 -48.251827
v  -58.338932 0.000000 -42.385944
v  -58.338932 30.000000 -42.385944
v  -39.228886 0.000000 -35.322025
v  -42.706135 0.000000 -31.027994
v  -35.321831 0.000000 -39.229053
v  -31.027782 0.000000 -42.706295
v  -35.321831 30.000000 -39.229053
v  -31.027782 30.000000 -42.706295
v  -39.228886 30.000000 -35.322021
v  -42.706135 30.000000 -31.027994
# 16 vertices

vn 0.052333 0.000000 0.998630
vn 0.104525 0.000000 0.994522
vn 0.207909 0.000000 0.978148
vn 0.258816 0.000000 0.965927
vn 0.000000 -1.000000 -0.000000
vn 0.000000 1.000000 -0.000000
vn -0.258817 0.000000 -0.965926
vn -0.207909 0.000000 -0.978148
vn -0.104526 0.000000 -0.994522
vn -0.052334 0.000000 -0.998630
vn -1.000000 0.000000 -0.000002
vn 0.951057 0.000000 -0.309014
# 12 vertex normals

vt 0.028344 0.545281 0.000000
vt 0.137314 0.545281 0.000000
vt 0.137314 0.978388 0.000000
vt 0.028344 0.978388 0.000000
vt 0.246283 0.545281 0.000000
vt 0.246283 0.978388 0.000000
vt 0.355253 0.545281 0.000000
vt 0.355253 0.978388 0.000000
vt 0.674697 0.175609 0.000000
vt 0.781739 0.196015 0.000000
vt 0.715228 0.466937 0.000000
vt 0.636869 0.452000 0.000000
vt 0.886061 0.227498 0.000000
vt 0.791595 0.489984 0.000000
vt 0.986521 0.269713 0.000000
vt 0.865136 0.520887 0.000000
vt 0.323460 0.056452 0.000000
vt 0.432281 0.050762 0.000000
vt 0.432246 0.329730 0.000000
vt 0.352585 0.333894 0.000000
vt 0.541100 0.056479 0.000000
vt 0.511906 0.333914 0.000000
vt 0.648726 0.073539 0.000000
vt 0.590692 0.346403 0.000000
vt 0.041905 0.055280 0.000000
vt 0.121674 0.055280 0.000000
vt 0.121674 0.488387 0.000000
vt 0.041905 0.488387 0.000000
vt 0.201444 0.055280 0.000000
vt 0.201444 0.488387 0.000000
vt 0.281213 0.055280 0.000000
vt 0.281213 0.488387 0.000000
vt 0.660648 0.984630 0.000000
vt 0.381680 0.984630 0.000000
vt 0.381680 0.551524 0.000000
vt 0.660648 0.551524 0.000000
vt 0.706420 0.551524 0.000000
vt 0.985387 0.551524 0.000000
vt 0.985387 0.984630 0.000000
vt 0.706420 0.984630 0.000000
# 40 texture coords

o Object013
g Object013
s 8
f -16/-40/-12 -15/-39/-11 -14/-38/-11 -13/-37/-12 
f -15/-39/-11 -12/-36/-10 -11/-35/-10 -14/-38/-11 
f -12/-36/-10 -10/-34/-9 -9/-33/-9 -11/-35/-10 
s off
f -10/-32/-8 -12/-31/-8 -8/-30/-8 -7/-29/-8 
f -12/-31/-8 -15/-28/-8 -6/-27/-8 -8/-30/-8 
f -15/-28/-8 -16/-26/-8 -5/-25/-8 -6/-27/-8 
f -13/-24/-7 -14/-23/-7 -4/-22/-7 -3/-21/-7 
f -14/-23/-7 -11/-20/-7 -2/-19/-7 -4/-22/-7 
f -11/-20/-7 -9/-18/-7 -1/-17/-7 -2/-19/-7 
s 1
f -7/-16/-6 -8/-15/-5 -2/-14/-5 -1/-13/-6 
f -8/-15/-5 -6/-12/-4 -4/-11/-4 -2/-14/-5 
f -6/-12/-4 -5/-10/-3 -3/-9/-3 -4/-11/-4 
s off
f -13/-8/-2 -3/-7/-2 -5/-6/-2 -16/-5/-2 
f -10/-4/-1 -7/-3/-1 -1/-2/-1 -9/-1/-1 
# 14 polygons

#
# object Object014
#

v  -58.338951 0.000000 -42.385925
v  -62.449894 0.000000 -36.055653
v  -62.449894 30.000000 -36.055653
v  -58.338951 30.000000 -42.385925
v  -65.876633 0.000000 -29.330353
v  -65.876633 30.000000 -29.330353
v  -68.581604 0.000000 -22.283701
v  -68.581604 30.000000 -22.283701
v  -48.223995 0.000000 -21.470846
v  -50.204128 0.000000 -16.312450
v  -45.715508 0.000000 -26.393997
v  -42.706150 0.000000 -31.027985
v  -45.715508 30.000000 -26.393997
v  -42.706150 30.000000 -31.027985
v  -48.223999 30.000000 -21.470846
v  -50.204128 30.000000 -16.312450
# 16 vertices

vn 0.052333 0.000000 0.998630
vn 0.104525 0.000000 0.994522
vn 0.207909 0.000000 0.978148
vn 0.258816 0.000000 0.965927
vn 0.000000 -1.000000 -0.000000
vn 0.000000 1.000000 -0.000000
vn -0.258817 0.000000 -0.965926
vn -0.207909 0.000000 -0.978148
vn -0.104526 0.000000 -0.994522
vn -0.052334 0.000000 -0.998630
vn -1.000000 0.000000 -0.000002
vn 0.951057 0.000000 -0.309014
# 12 vertex normals

vt 0.028344 0.545281 0.000000
vt 0.137314 0.545281 0.000000
vt 0.137314 0.978388 0.000000
vt 0.028344 0.978388 0.000000
vt 0.246283 0.545281 0.000000
vt 0.246283 0.978388 0.000000
vt 0.355253 0.545281 0.000000
vt 0.355253 0.978388 0.000000
vt 0.674697 0.175609 0.000000
vt 0.781739 0.196015 0.000000
vt 0.715228 0.466937 0.000000
vt 0.636869 0.452000 0.000000
vt 0.886061 0.227498 0.000000
vt 0.791595 0.489984 0.000000
vt 0.986521 0.269713 0.000000
vt 0.865136 0.520887 0.000000
vt 0.323460 0.056452 0.000000
vt 0.432281 0.050762 0.000000
vt 0.432246 0.329730 0.000000
vt 0.352585 0.333894 0.000000
vt 0.541100 0.056479 0.000000
vt 0.511906 0.333914 0.000000
vt 0.648726 0.073539 0.000000
vt 0.590692 0.346403 0.000000
vt 0.041905 0.055280 0.000000
vt 0.121674 0.055280 0.000000
vt 0.121674 0.488387 0.000000
vt 0.041905 0.488387 0.000000
vt 0.201444 0.055280 0.000000
vt 0.201444 0.488387 0.000000
vt 0.281213 0.055280 0.000000
vt 0.281213 0.488387 0.000000
vt 0.660648 0.984630 0.000000
vt 0.381680 0.984630 0.000000
vt 0.381680 0.551524 0.000000
vt 0.660648 0.551524 0.000000
vt 0.706420 0.551524 0.000000
vt 0.985387 0.551524 0.000000
vt 0.985387 0.984630 0.000000
vt 0.706420 0.984630 0.000000
# 40 texture coords

o Object014
g Object014
s 8
f -16/-40/-12 -15/-39/-11 -14/-38/-11 -13/-37/-12 
f -15/-39/-11 -12/-36/-10 -11/-35/-10 -14/-38/-11 
f -12/-36/-10 -10/-34/-9 -9/-33/-9 -11/-35/-10 
s off
f -10/-32/-8 -12/-31/-8 -8/-30/-8 -7/-29/-8 
f -12/-31/-8 -15/-28/-8 -6/-27/-8 -8/-30/-8 
f -15/-28/-8 -16/-26/-8 -5/-25/-8 -6/-27/-8 
f -13/-24/-7 -14/-23/-7 -4/-22/-7 -3/-21/-7 
f -14/-23/-7 -11/-20/-7 -2/-19/-7 -4/-22/-7 
f -11/-20/-7 -9/-18/-7 -1/-17/-7 -2/-19/-7 
s 1
f -7/-16/-6 -8/-15/-5 -2/-14/-5 -1/-13/-6 
f -8/-15/-5 -6/-12/-4 -4/-11/-4 -2/-14/-5 
f -6/-12/-4 -5/-10/-3 -3/-9/-3 -4/-11/-4 
s off
f -13/-8/-2 -3/-7/-2 -5/-6/-2 -16/-5/-2 
f -10/-4/-1 -7/-3/-1 -1/-2/-1 -9/-1/-1 
# 14 polygons

#
# object Object015
#

v  -68.581619 0.000000 -22.283669
v  -70.535194 0.000000 -14.992874
v  -70.535194 30.000000 -14.992874
v  -68.581619 30.000000 -22.283669
v  -71.715973 0.000000 -7.537816
v  -71.715973 30.000000 -7.537816
v  -72.111015 0.000000 -0.000166
v  -72.111015 30.000000 -0.000166
v  -52.498600 0.000000 -5.517946
v  -52.787785 0.000000 -0.000124
v  -51.634228 0.000000 -10.975307
v  -50.204140 0.000000 -16.312431
v  -51.634228 30.000000 -10.975307
v  -50.204140 30.000000 -16.312431
v  -52.498600 30.000000 -5.517945
v  -52.787785 30.000000 -0.000124
# 16 vertices

vn 0.052333 0.000000 0.998630
vn 0.104525 0.000000 0.994522
vn 0.207909 0.000000 0.978148
vn 0.258816 0.000000 0.965927
vn 0.000000 -1.000000 -0.000000
vn 0.000000 1.000000 -0.000000
vn -0.258817 0.000000 -0.965926
vn -0.207909 0.000000 -0.978148
vn -0.104526 0.000000 -0.994522
vn -0.052334 0.000000 -0.998630
vn -1.000000 0.000000 -0.000002
vn 0.951057 0.000000 -0.309014
# 12 vertex normals

vt 0.028344 0.545281 0.000000
vt 0.137314 0.545281 0.000000
vt 0.137314 0.978388 0.000000
vt 0.028344 0.978388 0.000000
vt 0.246283 0.545281 0.000000
vt 0.246283 0.978388 0.000000
vt 0.355253 0.545281 0.000000
vt 0.355253 0.978388 0.000000
vt 0.674697 0.175609 0.000000
vt 0.781739 0.196015 0.000000
vt 0.715228 0.466937 0.000000
vt 0.636869 0.452000 0.000000
vt 0.886061 0.227498 0.000000
vt 0.791595 0.489984 0.000000
vt 0.986521 0.269713 0.000000
vt 0.865136 0.520887 0.000000
vt 0.323460 0.056452 0.000000
vt 0.432281 0.050762 0.000000
vt 0.432246 0.329730 0.000000
vt 0.352585 0.333894 0.000000
vt 0.541100 0.056479 0.000000
vt 0.511906 0.333914 0.000000
vt 0.648726 0.073539 0.000000
vt 0.590692 0.346403 0.000000
vt 0.041905 0.055280 0.000000
vt 0.121674 0.055280 0.000000
vt 0.121674 0.488387 0.000000
vt 0.041905 0.488387 0.000000
vt 0.201444 0.055280 0.000000
vt 0.201444 0.488387 0.000000
vt 0.281213 0.055280 0.000000
vt 0.281213 0.488387 0.000000
vt 0.660648 0.984630 0.000000
vt 0.381680 0.984630 0.000000
vt 0.381680 0.551524 0.000000
vt 0.660648 0.551524 0.000000
vt 0.706420 0.551524 0.000000
vt 0.985387 0.551524 0.000000
vt 0.985387 0.984630 0.000000
vt 0.706420 0.984630 0.000000
# 40 texture coords

o Object015
g Object015
s 8
f -16/-40/-12 -15/-39/-11 -14/-38/-11 -13/-37/-12 
f -15/-39/-11 -12/-36/-10 -11/-35/-10 -14/-38/-11 
f -12/-36/-10 -10/-34/-9 -9/-33/-9 -11/-35/-10 
s off
f -10/-32/-8 -12/-31/-8 -8/-30/-8 -7/-29/-8 
f -12/-31/-8 -15/-28/-8 -6/-27/-8 -8/-30/-8 
f -15/-28/-8 -16/-26/-8 -5/-25/-8 -6/-27/-8 
f -13/-24/-7 -14/-23/-7 -4/-22/-7 -3/-21/-7 
f -14/-23/-7 -11/-20/-7 -2/-19/-7 -4/-22/-7 
f -11/-20/-7 -9/-18/-7 -1/-17/-7 -2/-19/-7 
s 1
f -7/-16/-6 -8/-15/-5 -2/-14/-5 -1/-13/-6 
f -8/-15/-5 -6/-12/-4 -4/-11/-4 -2/-14/-5 
f -6/-12/-4 -5/-10/-3 -3/-9/-3 -4/-11/-4 
s off
f -13/-8/-2 -3/-7/-2 -5/-6/-2 -16/-5/-2 
f -10/-4/-1 -7/-3/-1 -1/-2/-1 -9/-1/-1 
# 14 polygons

#
# object Object016
#

v  -72.111023 0.000000 -0.000136
v  -71.716003 0.000000 7.537511
v  -71.716003 30.000000 7.537511
v  -72.111023 30.000000 -0.000136
v  -70.535255 0.000000 14.992575
v  -70.535255 30.000000 14.992575
v  -68.581703 0.000000 22.283381
v  -68.581703 30.000000 22.283381
v  -51.634274 0.000000 10.975088
v  -50.204205 0.000000 16.312210
v  -52.498623 0.000000 5.517722
v  -52.787792 0.000000 -0.000106
v  -52.498623 30.000000 5.517722
v  -52.787792 30.000000 -0.000106
v  -51.634274 30.000000 10.975089
v  -50.204205 30.000000 16.312210
# 16 vertices

vn 0.052333 0.000000 0.998630
vn 0.104525 0.000000 0.994522
vn 0.207909 0.000000 0.978148
vn 0.258816 0.000000 0.965927
vn 0.000000 -1.000000 -0.000000
vn 0.000000 1.000000 -0.000000
vn -0.258817 0.000000 -0.965926
vn -0.207909 0.000000 -0.978148
vn -0.104526 0.000000 -0.994522
vn -0.052334 0.000000 -0.998630
vn -1.000000 0.000000 -0.000002
vn 0.951057 0.000000 -0.309014
# 12 vertex normals

vt 0.028344 0.545281 0.000000
vt 0.137314 0.545281 0.000000
vt 0.137314 0.978388 0.000000
vt 0.028344 0.978388 0.000000
vt 0.246283 0.545281 0.000000
vt 0.246283 0.978388 0.000000
vt 0.355253 0.545281 0.000000
vt 0.355253 0.978388 0.000000
vt 0.674697 0.175609 0.000000
vt 0.781739 0.196015 0.000000
vt 0.715228 0.466937 0.000000
vt 0.636869 0.452000 0.000000
vt 0.886061 0.227498 0.000000
vt 0.791595 0.489984 0.000000
vt 0.986521 0.269713 0.000000
vt 0.865136 0.520887 0.000000
vt 0.323460 0.056452 0.000000
vt 0.432281 0.050762 0.000000
vt 0.432246 0.329730 0.000000
vt 0.352585 0.333894 0.000000
vt 0.541100 0.056479 0.000000
vt 0.511906 0.333914 0.000000
vt 0.648726 0.073539 0.000000
vt 0.590692 0.346403 0.000000
vt 0.041905 0.055280 0.000000
vt 0.121674 0.055280 0.000000
vt 0.121674 0.488387 0.000000
vt 0.041905 0.488387 0.000000
vt 0.201444 0.055280 0.000000
vt 0.201444 0.488387 0.000000
vt 0.281213 0.055280 0.000000
vt 0.281213 0.488387 0.000000
vt 0.660648 0.984630 0.000000
vt 0.381680 0.984630 0.000000
vt 0.381680 0.551524 0.000000
vt 0.660648 0.551524 0.000000
vt 0.706420 0.551524 0.000000
vt 0.985387 0.551524 0.000000
vt 0.985387 0.984630 0.000000
vt 0.706420 0.984630 0.000000
# 40 texture coords

o Object016
g Object016
s 8
f -16/-40/-12 -15/-39/-11 -14/-38/-11 -13/-37/-12 
f -15/-39/-11 -12/-36/-10 -11/-35/-10 -14/-38/-11 
f -12/-36/-10 -10/-34/-9 -9/-33/-9 -11/-35/-10 
s off
f -10/-32/-8 -12/-31/-8 -8/-30/-8 -7/-29/-8 
f -12/-31/-8 -15/-28/-8 -6/-27/-8 -8/-30/-8 
f -15/-28/-8 -16/-26/-8 -5/-25/-8 -6/-27/-8 
f -13/-24/-7 -14/-23/-7 -4/-22/-7 -3/-21/-7 
f -14/-23/-7 -11/-20/-7 -2/-19/-7 -4/-22/-7 
f -11/-20/-7 -9/-18/-7 -1/-17/-7 -2/-19/-7 
s 1
f -7/-16/-6 -8/-15/-5 -2/-14/-5 -1/-13/-6 
f -8/-15/-5 -6/-12/-4 -4/-11/-4 -2/-14/-5 
f -6/-12/-4 -5/-10/-3 -3/-9/-3 -4/-11/-4 
s off
f -13/-8/-2 -3/-7/-2 -5/-6/-2 -16/-5/-2 
f -10/-4/-1 -7/-3/-1 -1/-2/-1 -9/-1/-1 
# 14 polygons

#
# object Object017
#

v  -68.581696 0.000000 22.283413
v  -65.876747 0.000000 29.330070
v  -65.876747 30.000000 29.330070
v  -68.581696 30.000000 22.283413
v  -62.450054 0.000000 36.055389
v  -62.450054 30.000000 36.055389
v  -58.339127 0.000000 42.385674
v  -58.339127 30.000000 42.385674
v  -45.715622 0.000000 26.393805
v  -42.706280 0.000000 31.027792
v  -48.224083 0.000000 21.470638
v  -50.204205 0.000000 16.312231
v  -48.224083 30.000000 21.470638
v  -50.204205 30.000000 16.312231
v  -45.715622 30.000000 26.393806
v  -42.706280 30.000000 31.027792
# 16 vertices

vn 0.052333 0.000000 0.998630
vn 0.104525 0.000000 0.994522
vn 0.207909 0.000000 0.978148
vn 0.258816 0.000000 0.965927
vn 0.000000 -1.000000 -0.000000
vn 0.000000 1.000000 -0.000000
vn -0.258817 0.000000 -0.965926
vn -0.207909 0.000000 -0.978148
vn -0.104526 0.000000 -0.994522
vn -0.052334 0.000000 -0.998630
vn -1.000000 0.000000 -0.000002
vn 0.951057 0.000000 -0.309014
# 12 vertex normals

vt 0.028344 0.545281 0.000000
vt 0.137314 0.545281 0.000000
vt 0.137314 0.978388 0.000000
vt 0.028344 0.978388 0.000000
vt 0.246283 0.545281 0.000000
vt 0.246283 0.978388 0.000000
vt 0.355253 0.545281 0.000000
vt 0.355253 0.978388 0.000000
vt 0.674697 0.175609 0.000000
vt 0.781739 0.196015 0.000000
vt 0.715228 0.466937 0.000000
vt 0.636869 0.452000 0.000000
vt 0.886061 0.227498 0.000000
vt 0.791595 0.489984 0.000000
vt 0.986521 0.269713 0.000000
vt 0.865136 0.520887 0.000000
vt 0.323460 0.056452 0.000000
vt 0.432281 0.050762 0.000000
vt 0.432246 0.329730 0.000000
vt 0.352585 0.333894 0.000000
vt 0.541100 0.056479 0.000000
vt 0.511906 0.333914 0.000000
vt 0.648726 0.073539 0.000000
vt 0.590692 0.346403 0.000000
vt 0.041905 0.055280 0.000000
vt 0.121674 0.055280 0.000000
vt 0.121674 0.488387 0.000000
vt 0.041905 0.488387 0.000000
vt 0.201444 0.055280 0.000000
vt 0.201444 0.488387 0.000000
vt 0.281213 0.055280 0.000000
vt 0.281213 0.488387 0.000000
vt 0.660648 0.984630 0.000000
vt 0.381680 0.984630 0.000000
vt 0.381680 0.551524 0.000000
vt 0.660648 0.551524 0.000000
vt 0.706420 0.551524 0.000000
vt 0.985387 0.551524 0.000000
vt 0.985387 0.984630 0.000000
vt 0.706420 0.984630 0.000000
# 40 texture coords

o Object017
g Object017
s 8
f -16/-40/-12 -15/-39/-11 -14/-38/-11 -13/-37/-12 
f -15/-39/-11 -12/-36/-10 -11/-35/-10 -14/-38/-11 
f -12/-36/-10 -10/-34/-9 -9/-33/-9 -11/-35/-10 
s off
f -10/-32/-8 -12/-31/-8 -8/-30/-8 -7/-29/-8 
f -12/-31/-8 -15/-28/-8 -6/-27/-8 -8/-30/-8 
f -15/-28/-8 -16/-26/-8 -5/-25/-8 -6/-27/-8 
f -13/-24/-7 -14/-23/-7 -4/-22/-7 -3/-21/-7 
f -14/-23/-7 -11/-20/-7 -2/-19/-7 -4/-22/-7 
f -11/-20/-7 -9/-18/-7 -1/-17/-7 -2/-19/-7 
s 1
f -7/-16/-6 -8/-15/-5 -2/-14/-5 -1/-13/-6 
f -8/-15/-5 -6/-12/-4 -4/-11/-4 -2/-14/-5 
f -6/-12/-4 -5/-10/-3 -3/-9/-3 -4/-11/-4 
s off
f -13/-8/-2 -3/-7/-2 -5/-6/-2 -16/-5/-2 
f -10/-4/-1 -7/-3/-1 -1/-2/-1 -9/-1/-1 
# 14 polygons

#
# object Object018
#

v  -58.339115 0.000000 42.385700
v  -53.589016 0.000000 48.251598
v  -53.589016 30.000000 48.251598
v  -58.339115 30.000000 42.385700
v  -48.251793 0.000000 53.588844
v  -48.251793 30.000000 53.588844
v  -42.385910 0.000000 58.338959
v  -42.385910 30.000000 58.338959
v  -35.321999 0.000000 39.228905
v  -31.027966 0.000000 42.706154
v  -39.229034 0.000000 35.321857
v  -42.706276 0.000000 31.027811
v  -39.229034 30.000000 35.321857
v  -42.706276 30.000000 31.027811
v  -35.321999 30.000000 39.228909
v  -31.027966 30.000000 42.706154
# 16 vertices

vn 0.052333 0.000000 0.998630
vn 0.104525 0.000000 0.994522
vn 0.207909 0.000000 0.978148
vn 0.258816 0.000000 0.965927
vn 0.000000 -1.000000 -0.000000
vn 0.000000 1.000000 -0.000000
vn -0.258817 0.000000 -0.965926
vn -0.207909 0.000000 -0.978148
vn -0.104526 0.000000 -0.994522
vn -0.052334 0.000000 -0.998630
vn -1.000000 0.000000 -0.000002
vn 0.951057 0.000000 -0.309014
# 12 vertex normals

vt 0.028344 0.545281 0.000000
vt 0.137314 0.545281 0.000000
vt 0.137314 0.978388 0.000000
vt 0.028344 0.978388 0.000000
vt 0.246283 0.545281 0.000000
vt 0.246283 0.978388 0.000000
vt 0.355253 0.545281 0.000000
vt 0.355253 0.978388 0.000000
vt 0.674697 0.175609 0.000000
vt 0.781739 0.196015 0.000000
vt 0.715228 0.466937 0.000000
vt 0.636869 0.452000 0.000000
vt 0.886061 0.227498 0.000000
vt 0.791595 0.489984 0.000000
vt 0.986521 0.269713 0.000000
vt 0.865136 0.520887 0.000000
vt 0.323460 0.056452 0.000000
vt 0.432281 0.050762 0.000000
vt 0.432246 0.329730 0.000000
vt 0.352585 0.333894 0.000000
vt 0.541100 0.056479 0.000000
vt 0.511906 0.333914 0.000000
vt 0.648726 0.073539 0.000000
vt 0.590692 0.346403 0.000000
vt 0.041905 0.055280 0.000000
vt 0.121674 0.055280 0.000000
vt 0.121674 0.488387 0.000000
vt 0.041905 0.488387 0.000000
vt 0.201444 0.055280 0.000000
vt 0.201444 0.488387 0.000000
vt 0.281213 0.055280 0.000000
vt 0.281213 0.488387 0.000000
vt 0.660648 0.984630 0.000000
vt 0.381680 0.984630 0.000000
vt 0.381680 0.551524 0.000000
vt 0.660648 0.551524 0.000000
vt 0.706420 0.551524 0.000000
vt 0.985387 0.551524 0.000000
vt 0.985387 0.984630 0.000000
vt 0.706420 0.984630 0.000000
# 40 texture coords

o Object018
g Object018
s 8
f -16/-40/-12 -15/-39/-11 -14/-38/-11 -13/-37/-12 
f -15/-39/-11 -12/-36/-10 -11/-35/-10 -14/-38/-11 
f -12/-36/-10 -10/-34/-9 -9/-33/-9 -11/-35/-10 
s off
f -10/-32/-8 -12/-31/-8 -8/-30/-8 -7/-29/-8 
f -12/-31/-8 -15/-28/-8 -6/-27/-8 -8/-30/-8 
f -15/-28/-8 -16/-26/-8 -5/-25/-8 -6/-27/-8 
f -13/-24/-7 -14/-23/-7 -4/-22/-7 -3/-21/-7 
f -14/-23/-7 -11/-20/-7 -2/-19/-7 -4/-22/-7 
f -11/-20/-7 -9/-18/-7 -1/-17/-7 -2/-19/-7 
s 1
f -7/-16/-6 -8/-15/-5 -2/-14/-5 -1/-13/-6 
f -8/-15/-5 -6/-12/-4 -4/-11/-4 -2/-14/-5 
f -6/-12/-4 -5/-10/-3 -3/-9/-3 -4/-11/-4 
s off
f -13/-8/-2 -3/-7/-2 -5/-6/-2 -16/-5/-2 
f -10/-4/-1 -7/-3/-1 -1/-2/-1 -9/-1/-1 
# 14 polygons

#
# object Object019
#

v  -42.385887 0.000000 58.338978
v  -36.055614 0.000000 62.449917
v  -36.055614 30.000000 62.449917
v  -42.385887 30.000000 58.338978
v  -29.330311 0.000000 65.876648
v  -29.330311 30.000000 65.876648
v  -22.283655 0.000000 68.581619
v  -22.283655 30.000000 68.581619
v  -21.470814 0.000000 48.224010
v  -16.312416 0.000000 50.204140
v  -26.393969 0.000000 45.715519
v  -31.027956 0.000000 42.706169
v  -26.393969 30.000000 45.715519
v  -31.027956 30.000000 42.706169
v  -21.470814 30.000000 48.224010
v  -16.312416 30.000000 50.204140
# 16 vertices

vn 0.052333 0.000000 0.998630
vn 0.104525 0.000000 0.994522
vn 0.207909 0.000000 0.978148
vn 0.258816 0.000000 0.965927
vn 0.000000 -1.000000 -0.000000
vn 0.000000 1.000000 -0.000000
vn -0.258817 0.000000 -0.965926
vn -0.207909 0.000000 -0.978148
vn -0.104526 0.000000 -0.994522
vn -0.052334 0.000000 -0.998630
vn -1.000000 0.000000 -0.000002
vn 0.951057 0.000000 -0.309014
# 12 vertex normals

vt 0.028344 0.545281 0.000000
vt 0.137314 0.545281 0.000000
vt 0.137314 0.978388 0.000000
vt 0.028344 0.978388 0.000000
vt 0.246283 0.545281 0.000000
vt 0.246283 0.978388 0.000000
vt 0.355253 0.545281 0.000000
vt 0.355253 0.978388 0.000000
vt 0.674697 0.175609 0.000000
vt 0.781739 0.196015 0.000000
vt 0.715228 0.466937 0.000000
vt 0.636869 0.452000 0.000000
vt 0.886061 0.227498 0.000000
vt 0.791595 0.489984 0.000000
vt 0.986521 0.269713 0.000000
vt 0.865136 0.520887 0.000000
vt 0.323460 0.056452 0.000000
vt 0.432281 0.050762 0.000000
vt 0.432246 0.329730 0.000000
vt 0.352585 0.333894 0.000000
vt 0.541100 0.056479 0.000000
vt 0.511906 0.333914 0.000000
vt 0.648726 0.073539 0.000000
vt 0.590692 0.346403 0.000000
vt 0.041905 0.055280 0.000000
vt 0.121674 0.055280 0.000000
vt 0.121674 0.488387 0.000000
vt 0.041905 0.488387 0.000000
vt 0.201444 0.055280 0.000000
vt 0.201444 0.488387 0.000000
vt 0.281213 0.055280 0.000000
vt 0.281213 0.488387 0.000000
vt 0.660648 0.984630 0.000000
vt 0.381680 0.984630 0.000000
vt 0.381680 0.551524 0.000000
vt 0.660648 0.551524 0.000000
vt 0.706420 0.551524 0.000000
vt 0.985387 0.551524 0.000000
vt 0.985387 0.984630 0.000000
vt 0.706420 0.984630 0.000000
# 40 texture coords

o Object019
g Object019
s 8
f -16/-40/-12 -15/-39/-11 -14/-38/-11 -13/-37/-12 
f -15/-39/-11 -12/-36/-10 -11/-35/-10 -14/-38/-11 
f -12/-36/-10 -10/-34/-9 -9/-33/-9 -11/-35/-10 
s off
f -10/-32/-8 -12/-31/-8 -8/-30/-8 -7/-29/-8 
f -12/-31/-8 -15/-28/-8 -6/-27/-8 -8/-30/-8 
f -15/-28/-8 -16/-26/-8 -5/-25/-8 -6/-27/-8 
f -13/-24/-7 -14/-23/-7 -4/-22/-7 -3/-21/-7 
f -14/-23/-7 -11/-20/-7 -2/-19/-7 -4/-22/-7 
f -11/-20/-7 -9/-18/-7 -1/-17/-7 -2/-19/-7 
s 1
f -7/-16/-6 -8/-15/-5 -2/-14/-5 -1/-13/-6 
f -8/-15/-5 -6/-12/-4 -4/-11/-4 -2/-14/-5 
f -6/-12/-4 -5/-10/-3 -3/-9/-3 -4/-11/-4 
s off
f -13/-8/-2 -3/-7/-2 -5/-6/-2 -16/-5/-2 
f -10/-4/-1 -7/-3/-1 -1/-2/-1 -9/-1/-1 
# 14 polygons

#
# object Object020
#

v  -22.283627 0.000000 68.581627
v  -14.992829 0.000000 70.535194
v  -14.992829 30.000000 70.535194
v  -22.283627 30.000000 68.581627
v  -7.537771 0.000000 71.715981
v  -7.537771 30.000000 71.715981
v  -0.000122 0.000000 72.111023
v  -0.000122 30.000000 72.111023
v  -5.517913 0.000000 52.498604
v  -0.000092 0.000000 52.787788
v  -10.975275 0.000000 51.634232
v  -16.312401 0.000000 50.204147
v  -10.975275 30.000000 51.634232
v  -16.312401 30.000000 50.204147
v  -5.517913 30.000000 52.498604
v  -0.000092 30.000000 52.787788
# 16 vertices

vn 0.052333 0.000000 0.998630
vn 0.104525 0.000000 0.994522
vn 0.207909 0.000000 0.978148
vn 0.258816 0.000000 0.965927
vn 0.000000 -1.000000 -0.000000
vn 0.000000 1.000000 -0.000000
vn -0.258817 0.000000 -0.965926
vn -0.207909 0.000000 -0.978148
vn -0.104526 0.000000 -0.994522
vn -0.052334 0.000000 -0.998630
vn -1.000000 0.000000 -0.000002
vn 0.951057 0.000000 -0.309014
# 12 vertex normals

vt 0.028344 0.545281 0.000000
vt 0.137314 0.545281 0.000000
vt 0.137314 0.978388 0.000000
vt 0.028344 0.978388 0.000000
vt 0.246283 0.545281 0.000000
vt 0.246283 0.978388 0.000000
vt 0.355253 0.545281 0.000000
vt 0.355253 0.978388 0.000000
vt 0.674697 0.175609 0.000000
vt 0.781739 0.196015 0.000000
vt 0.715228 0.466937 0.000000
vt 0.636869 0.452000 0.000000
vt 0.886061 0.227498 0.000000
vt 0.791595 0.489984 0.000000
vt 0.986521 0.269713 0.000000
vt 0.865136 0.520887 0.000000
vt 0.323460 0.056452 0.000000
vt 0.432281 0.050762 0.000000
vt 0.432246 0.329730 0.000000
vt 0.352585 0.333894 0.000000
vt 0.541100 0.056479 0.000000
vt 0.511906 0.333914 0.000000
vt 0.648726 0.073539 0.000000
vt 0.590692 0.346403 0.000000
vt 0.041905 0.055280 0.000000
vt 0.121674 0.055280 0.000000
vt 0.121674 0.488387 0.000000
vt 0.041905 0.488387 0.000000
vt 0.201444 0.055280 0.000000
vt 0.201444 0.488387 0.000000
vt 0.281213 0.055280 0.000000
vt 0.281213 0.488387 0.000000
vt 0.660648 0.984630 0.000000
vt 0.381680 0.984630 0.000000
vt 0.381680 0.551524 0.000000
vt 0.660648 0.551524 0.000000
vt 0.706420 0.551524 0.000000
vt 0.985387 0.551524 0.000000
vt 0.985387 0.984630 0.000000
vt 0.706420 0.984630 0.000000
# 40 texture coords

o Object020
g Object020
s 8
f -16/-40/-12 -15/-39/-11 -14/-38/-11 -13/-37/-12 
f -15/-39/-11 -12/-36/-10 -11/-35/-10 -14/-38/-11 
f -12/-36/-10 -10/-34/-9 -9/-33/-9 -11/-35/-10 
s off
f -10/-32/-8 -12/-31/-8 -8/-30/-8 -7/-29/-8 
f -12/-31/-8 -15/-28/-8 -6/-27/-8 -8/-30/-8 
f -15/-28/-8 -16/-26/-8 -5/-25/-8 -6/-27/-8 
f -13/-24/-7 -14/-23/-7 -4/-22/-7 -3/-21/-7 
f -14/-23/-7 -11/-20/-7 -2/-19/-7 -4/-22/-7 
f -11/-20/-7 -9/-18/-7 -1/-17/-7 -2/-19/-7 
s 1
f -7/-16/-6 -8/-15/-5 -2/-14/-5 -1/-13/-6 
f -8/-15/-5 -6/-12/-4 -4/-11/-4 -2/-14/-5 
f -6/-12/-4 -5/-10/-3 -3/-9/-3 -4/-11/-4 
s off
f -13/-8/-2 -3/-7/-2 -5/-6/-2 -16/-5/-2 
f -10/-4/-1 -7/-3/-1 -1/-2/-1 -9/-1/-1 
# 14 polygons

