# 3ds Max Wavefront OBJ Exporter v0.97b - (c)2007 guruware
# File Created: 12.07.2018 22:15:17

#
# object Cylinder001
#

v  72.111023 0.000000 -0.000000
v  71.715996 0.000000 -7.537654
v  70.535225 0.000000 -14.992725
v  68.581657 0.000000 -22.283533
v  65.876694 0.000000 -29.330194
v  62.449978 0.000000 -36.055511
v  58.339043 0.000000 -42.385796
v  53.588932 0.000000 -48.251694
v  48.251690 0.000000 -53.588936
v  42.385796 0.000000 -58.339043
v  36.055508 0.000000 -62.449982
v  29.330193 0.000000 -65.876701
v  22.283529 0.000000 -68.581657
v  14.992723 0.000000 -70.535225
v  7.537651 0.000000 -71.715996
v  -0.000003 0.000000 -72.111023
v  -7.537658 0.000000 -71.715996
v  -14.992728 0.000000 -70.535225
v  -22.283535 0.000000 -68.581657
v  -29.330200 0.000000 -65.876694
v  -36.055515 0.000000 -62.449978
v  -42.385792 0.000000 -58.339043
v  -48.251686 0.000000 -53.588940
v  -53.588921 0.000000 -48.251705
v  -58.339027 0.000000 -42.385822
v  -62.449959 0.000000 -36.055546
v  -65.876678 0.000000 -29.330238
v  -68.581642 0.000000 -22.283585
v  -70.535210 0.000000 -14.992786
v  -71.715981 0.000000 -7.537725
v  -72.111023 0.000000 -0.000080
v  -71.716003 0.000000 7.537567
v  -70.535240 0.000000 14.992631
v  -68.581688 0.000000 22.283432
v  -65.876740 0.000000 29.330091
v  -62.450035 0.000000 36.055405
v  -58.339123 0.000000 42.385693
v  -53.589027 0.000000 48.251591
v  -48.251801 0.000000 53.588833
v  -42.385921 0.000000 58.338955
v  -36.055653 0.000000 62.449894
v  -29.330353 0.000000 65.876625
v  -22.283705 0.000000 68.581604
v  -14.992909 0.000000 70.535179
v  -7.537850 0.000000 71.715973
v  -0.000205 0.000000 72.111023
v  7.537442 0.000000 71.716011
v  14.992507 0.000000 70.535271
v  22.283314 0.000000 68.581726
v  29.329977 0.000000 65.876793
v  36.055298 0.000000 62.450100
v  42.385590 0.000000 58.339195
v  48.251495 0.000000 53.589108
v  53.588753 0.000000 48.251896
v  58.338875 0.000000 42.386024
v  62.449833 0.000000 36.055759
v  65.876572 0.000000 29.330469
v  68.581566 0.000000 22.283823
v  70.535156 0.000000 14.993032
v  71.715958 0.000000 7.537975
v  72.111023 30.000000 -0.000000
v  71.715996 30.000000 -7.537654
v  70.535225 30.000000 -14.992725
v  68.581657 30.000000 -22.283533
v  65.876694 30.000000 -29.330194
v  62.449978 30.000000 -36.055511
v  58.339043 30.000000 -42.385796
v  53.588932 30.000000 -48.251694
v  48.251690 30.000000 -53.588936
v  42.385796 30.000000 -58.339043
v  36.055508 30.000000 -62.449982
v  29.330193 30.000000 -65.876701
v  22.283529 30.000000 -68.581657
v  14.992723 30.000000 -70.535225
v  7.537651 30.000000 -71.715996
v  -0.000003 30.000000 -72.111023
v  -7.537658 30.000000 -71.715996
v  -14.992728 30.000000 -70.535225
v  -22.283535 30.000000 -68.581657
v  -29.330200 30.000000 -65.876694
v  -36.055515 30.000000 -62.449978
v  -42.385792 30.000000 -58.339043
v  -48.251686 30.000000 -53.588940
v  -53.588921 30.000000 -48.251705
v  -58.339027 30.000000 -42.385822
v  -62.449959 30.000000 -36.055546
v  -65.876678 30.000000 -29.330238
v  -68.581642 30.000000 -22.283585
v  -70.535210 30.000000 -14.992786
v  -71.715981 30.000000 -7.537725
v  -72.111023 30.000000 -0.000080
v  -71.716003 30.000000 7.537567
v  -70.535240 30.000000 14.992631
v  -68.581688 30.000000 22.283432
v  -65.876740 30.000000 29.330091
v  -62.450035 30.000000 36.055405
v  -58.339123 30.000000 42.385693
v  -53.589027 30.000000 48.251591
v  -48.251801 30.000000 53.588833
v  -42.385921 30.000000 58.338955
v  -36.055653 30.000000 62.449894
v  -29.330353 30.000000 65.876625
v  -22.283705 30.000000 68.581604
v  -14.992909 30.000000 70.535179
v  -7.537850 30.000000 71.715973
v  -0.000205 30.000000 72.111023
v  7.537442 30.000000 71.716011
v  14.992507 30.000000 70.535271
v  22.283314 30.000000 68.581726
v  29.329977 30.000000 65.876793
v  36.055298 30.000000 62.450100
v  42.385590 30.000000 58.339195
v  48.251495 30.000000 53.589108
v  53.588753 30.000000 48.251896
v  58.338875 30.000000 42.386024
v  62.449833 30.000000 36.055759
v  65.876572 30.000000 29.330469
v  68.581566 30.000000 22.283823
v  70.535156 30.000000 14.993032
v  71.715958 30.000000 7.537975
v  52.498615 0.000000 -5.517828
v  52.787792 0.000000 -0.000027
v  52.498585 0.000000 5.518080
v  51.634201 0.000000 10.975426
v  50.204102 0.000000 16.312534
v  48.223953 0.000000 21.470924
v  45.715458 0.000000 26.394075
v  42.706089 0.000000 31.028057
v  39.228840 0.000000 35.322071
v  35.321781 0.000000 39.229099
v  31.027731 0.000000 42.706329
v  26.393742 0.000000 45.715652
v  21.470570 0.000000 48.224110
v  16.312162 0.000000 50.204220
v  10.975039 0.000000 51.634285
v  5.517671 0.000000 52.498627
v  -0.000157 0.000000 52.787792
v  -5.517963 0.000000 52.498596
v  -10.975332 0.000000 51.634216
v  -16.312454 0.000000 50.204128
v  -21.470837 0.000000 48.223991
v  -26.394001 0.000000 45.715504
v  -31.027973 0.000000 42.706154
v  -35.322006 0.000000 39.228897
v  -39.229050 0.000000 35.321846
v  -42.706272 0.000000 31.027813
v  -45.715599 0.000000 26.393824
v  -48.224075 0.000000 21.470650
v  -50.204189 0.000000 16.312250
v  -51.634262 0.000000 10.975122
v  -52.498619 0.000000 5.517757
v  -52.787792 0.000000 -0.000050
v  -52.498604 0.000000 -5.517877
v  -51.634235 0.000000 -10.975248
v  -50.204159 0.000000 -16.312363
v  -48.224030 0.000000 -21.470758
v  -45.715549 0.000000 -26.393923
v  -42.706207 0.000000 -31.027899
v  -39.228966 0.000000 -35.321930
v  -35.321922 0.000000 -39.228973
v  -31.027878 0.000000 -42.706215
v  -26.393896 0.000000 -45.715565
v  -21.470736 0.000000 -48.224041
v  -16.312323 0.000000 -50.204170
v  -10.975195 0.000000 -51.634251
v  -5.517831 0.000000 -52.498615
v  -0.000003 0.000000 -52.787792
v  5.517825 0.000000 -52.498611
v  10.975189 0.000000 -51.634251
v  16.312325 0.000000 -50.204166
v  21.470730 0.000000 -48.224049
v  26.393888 0.000000 -45.715572
v  31.027882 0.000000 -42.706215
v  35.321922 0.000000 -39.228973
v  39.228970 0.000000 -35.321926
v  42.706215 0.000000 -31.027882
v  45.715561 0.000000 -26.393898
v  48.224041 0.000000 -21.470726
v  50.204170 0.000000 -16.312319
v  51.634251 0.000000 -10.975193
v  52.787792 30.000000 -0.000027
v  52.498611 30.000000 -5.517828
v  51.634251 30.000000 -10.975192
v  50.204174 30.000000 -16.312319
v  48.224041 30.000000 -21.470726
v  45.715565 30.000000 -26.393898
v  42.706219 30.000000 -31.027882
v  39.228970 30.000000 -35.321926
v  35.321922 30.000000 -39.228973
v  31.027880 30.000000 -42.706219
v  26.393888 30.000000 -45.715572
v  21.470726 30.000000 -48.224049
v  16.312325 30.000000 -50.204166
v  10.975189 30.000000 -51.634251
v  5.517825 30.000000 -52.498615
v  -0.000003 30.000000 -52.787788
v  -5.517831 30.000000 -52.498615
v  -10.975195 30.000000 -51.634251
v  -16.312323 30.000000 -50.204170
v  -21.470736 30.000000 -48.224041
v  -26.393896 30.000000 -45.715565
v  -31.027876 30.000000 -42.706219
v  -35.321918 30.000000 -39.228973
v  -39.228966 30.000000 -35.321930
v  -42.706207 30.000000 -31.027899
v  -45.715549 30.000000 -26.393923
v  -48.224030 30.000000 -21.470758
v  -50.204159 30.000000 -16.312363
v  -51.634235 30.000000 -10.975248
v  -52.498604 30.000000 -5.517877
v  -52.787792 30.000000 -0.000050
v  -52.498619 30.000000 5.517757
v  -51.634262 30.000000 10.975122
v  -50.204189 30.000000 16.312250
v  -48.224075 30.000000 21.470650
v  -45.715603 30.000000 26.393824
v  -42.706272 30.000000 31.027813
v  -39.229046 30.000000 35.321842
v  -35.322006 30.000000 39.228897
v  -31.027975 30.000000 42.706154
v  -26.394001 30.000000 45.715504
v  -21.470837 30.000000 48.223991
v  -16.312454 30.000000 50.204128
v  -10.975332 30.000000 51.634216
v  -5.517963 30.000000 52.498596
v  -0.000157 30.000000 52.787792
v  5.517671 30.000000 52.498627
v  10.975039 30.000000 51.634285
v  16.312162 30.000000 50.204220
v  21.470570 30.000000 48.224110
v  26.393742 30.000000 45.715652
v  31.027731 30.000000 42.706329
v  35.321781 30.000000 39.229099
v  39.228840 30.000000 35.322071
v  42.706089 30.000000 31.028051
v  45.715454 30.000000 26.394075
v  48.223953 30.000000 21.470924
v  50.204102 30.000000 16.312534
v  51.634201 30.000000 10.975426
v  52.498581 30.000000 5.518080
# 240 vertices

vn 0.718512 -0.695514 0.000001
vn 0.714538 -0.695554 -0.075097
vn 0.714538 0.695554 -0.075097
vn 0.718512 0.695514 0.000001
vn 0.702736 -0.695593 -0.149371
vn 0.702736 0.695593 -0.149371
vn 0.683308 -0.695554 -0.222025
vn 0.683308 0.695554 -0.222025
vn 0.656393 -0.695515 -0.292245
vn 0.656393 0.695515 -0.292245
vn 0.622249 -0.695515 -0.359256
vn 0.622250 0.695515 -0.359256
vn 0.581288 -0.695515 -0.422331
vn 0.581288 0.695515 -0.422331
vn 0.533933 -0.695554 -0.480750
vn 0.533933 0.695554 -0.480750
vn 0.480727 -0.695593 -0.533902
vn 0.480727 0.695593 -0.533902
vn 0.422305 -0.695554 -0.581260
vn 0.422305 0.695554 -0.581260
vn 0.359241 -0.695554 -0.622214
vn 0.359241 0.695554 -0.622214
vn 0.292226 -0.695554 -0.656360
vn 0.292226 0.695554 -0.656360
vn 0.222024 -0.695554 -0.683308
vn 0.222024 0.695554 -0.683308
vn 0.149371 -0.695593 -0.702736
vn 0.149371 0.695593 -0.702736
vn 0.075097 -0.695554 -0.714538
vn 0.075097 0.695554 -0.714538
vn 0.000000 -0.695515 -0.718512
vn 0.000000 0.695515 -0.718512
vn -0.075097 -0.695554 -0.714538
vn -0.075097 0.695554 -0.714538
vn -0.149371 -0.695593 -0.702736
vn -0.149371 0.695593 -0.702736
vn -0.222025 -0.695554 -0.683308
vn -0.222025 0.695554 -0.683308
vn -0.292245 -0.695515 -0.656393
vn -0.292245 0.695515 -0.656393
vn -0.359256 -0.695515 -0.622250
vn -0.359256 0.695515 -0.622250
vn -0.422331 -0.695515 -0.581288
vn -0.422331 0.695515 -0.581288
vn -0.480750 -0.695554 -0.533933
vn -0.480750 0.695554 -0.533933
vn -0.533933 -0.695554 -0.480750
vn -0.533933 0.695554 -0.480750
vn -0.581288 -0.695515 -0.422331
vn -0.581288 0.695515 -0.422331
vn -0.622249 -0.695515 -0.359256
vn -0.622249 0.695515 -0.359256
vn -0.656356 -0.695554 -0.292234
vn -0.656356 0.695554 -0.292234
vn -0.683310 -0.695554 -0.222017
vn -0.683310 0.695554 -0.222017
vn -0.702811 -0.695515 -0.149387
vn -0.702811 0.695515 -0.149387
vn -0.714575 -0.695515 -0.075106
vn -0.714575 0.695515 -0.075106
vn -0.718512 -0.695515 -0.000001
vn -0.718512 0.695515 -0.000001
vn -0.714576 -0.695515 0.075104
vn -0.714576 0.695515 0.075104
vn -0.702811 -0.695515 0.149386
vn -0.702811 0.695515 0.149386
vn -0.683311 -0.695554 0.222016
vn -0.683311 0.695554 0.222016
vn -0.656357 -0.695554 0.292232
vn -0.656357 0.695554 0.292232
vn -0.622250 -0.695515 0.359255
vn -0.622250 0.695515 0.359255
vn -0.581289 -0.695515 0.422329
vn -0.581289 0.695515 0.422329
vn -0.533959 -0.695514 0.480778
vn -0.533959 0.695514 0.480778
vn -0.480779 -0.695515 0.533957
vn -0.480779 0.695515 0.533957
vn -0.422332 -0.695515 0.581288
vn -0.422332 0.695515 0.581288
vn -0.359257 -0.695515 0.622249
vn -0.359257 0.695515 0.622249
vn -0.292235 -0.695554 0.656356
vn -0.292235 0.695554 0.656356
vn -0.222018 -0.695554 0.683310
vn -0.222018 0.695554 0.683310
vn -0.149389 -0.695515 0.702810
vn -0.149389 0.695515 0.702810
vn -0.075107 -0.695514 0.714576
vn -0.075107 0.695514 0.714576
vn -0.000002 -0.695515 0.718512
vn -0.000002 0.695515 0.718512
vn 0.075103 -0.695515 0.714576
vn 0.075103 0.695515 0.714576
vn 0.149385 -0.695515 0.702811
vn 0.149385 0.695515 0.702811
vn 0.222030 -0.695515 0.683346
vn 0.222030 0.695515 0.683346
vn 0.292243 -0.695515 0.656394
vn 0.292243 0.695515 0.656394
vn 0.359254 -0.695515 0.622251
vn 0.359254 0.695515 0.622251
vn 0.422303 -0.695554 0.581262
vn 0.422303 0.695554 0.581262
vn 0.480754 -0.695554 0.533929
vn 0.480754 0.695554 0.533929
vn 0.533957 -0.695515 0.480780
vn 0.533957 0.695515 0.480780
vn 0.581287 -0.695515 0.422333
vn 0.581287 0.695515 0.422333
vn 0.622248 -0.695515 0.359258
vn 0.622248 0.695515 0.359258
vn 0.656392 -0.695515 0.292248
vn 0.656392 0.695515 0.292248
vn 0.683307 -0.695554 0.222028
vn 0.683307 0.695554 0.222028
vn 0.702735 -0.695594 0.149374
vn 0.702735 0.695594 0.149374
vn 0.714538 -0.695554 0.075099
vn 0.714538 0.695554 0.075099
vn -0.694928 -0.719079 -0.000001
vn -0.691083 -0.719117 0.072632
vn -0.691121 -0.719079 -0.072642
vn -0.679742 -0.719078 -0.144487
vn -0.660916 -0.719079 -0.214748
vn -0.634848 -0.719078 -0.282656
vn -0.601792 -0.719117 -0.347444
vn -0.562203 -0.719079 -0.408477
vn -0.516399 -0.719117 -0.464977
vn -0.464996 -0.719078 -0.516434
vn -0.408467 -0.719078 -0.562211
vn -0.347462 -0.719078 -0.601827
vn -0.282651 -0.719078 -0.634850
vn -0.214743 -0.719078 -0.660917
vn -0.144482 -0.719079 -0.679743
vn -0.072638 -0.719078 -0.691122
vn 0.000002 -0.719079 -0.694929
vn 0.072634 -0.719117 -0.691083
vn 0.144481 -0.719117 -0.679703
vn 0.214746 -0.719079 -0.660916
vn 0.282635 -0.719117 -0.634814
vn 0.347449 -0.719117 -0.601789
vn 0.408470 -0.719078 -0.562208
vn 0.464999 -0.719078 -0.516432
vn 0.516433 -0.719079 -0.464997
vn 0.562176 -0.719117 -0.408447
vn 0.601859 -0.719040 -0.347486
vn 0.634849 -0.719079 -0.282652
vn 0.660917 -0.719078 -0.214744
vn 0.679743 -0.719078 -0.144483
vn 0.691122 -0.719078 -0.072639
vn 0.694929 -0.719079 0.000001
vn 0.691122 -0.719078 0.072641
vn 0.679705 -0.719117 0.144472
vn 0.660878 -0.719117 0.214737
vn 0.634849 -0.719078 0.282654
vn 0.601826 -0.719078 0.347465
vn 0.562209 -0.719078 0.408469
vn 0.516406 -0.719117 0.464969
vn 0.465027 -0.719041 0.516460
vn 0.408469 -0.719078 0.562210
vn 0.347465 -0.719078 0.601826
vn 0.282640 -0.719117 0.634811
vn 0.214720 -0.719155 0.660841
vn 0.144472 -0.719117 0.679705
vn 0.072640 -0.719079 0.691122
vn -0.000000 -0.719079 0.694929
vn -0.072640 -0.719078 0.691122
vn -0.144484 -0.719079 0.679743
vn -0.214745 -0.719078 0.660917
vn -0.282653 -0.719079 0.634849
vn -0.347465 -0.719079 0.601826
vn -0.408469 -0.719078 0.562209
vn -0.464968 -0.719117 0.516406
vn -0.516406 -0.719117 0.464969
vn -0.562209 -0.719078 0.408469
vn -0.601826 -0.719078 0.347464
vn -0.634849 -0.719078 0.282653
vn -0.660917 -0.719078 0.214745
vn -0.679703 -0.719117 0.144480
vn -0.691122 0.719078 0.072640
vn -0.694928 0.719079 -0.000001
vn -0.679743 0.719079 0.144484
vn -0.660916 0.719079 0.214745
vn -0.634849 0.719078 0.282653
vn -0.601826 0.719079 0.347464
vn -0.562209 0.719078 0.408469
vn -0.516406 0.719117 0.464969
vn -0.464969 0.719117 0.516406
vn -0.408469 0.719078 0.562209
vn -0.347448 0.719117 0.601790
vn -0.282633 0.719117 0.634815
vn -0.214745 0.719078 0.660917
vn -0.144484 0.719079 0.679743
vn -0.072640 0.719079 0.691122
vn 0.000000 0.719078 0.694929
vn 0.072640 0.719079 0.691122
vn 0.144472 0.719117 0.679705
vn 0.214720 0.719155 0.660841
vn 0.282640 0.719117 0.634811
vn 0.347465 0.719079 0.601826
vn 0.408469 0.719078 0.562209
vn 0.464969 0.719117 0.516406
vn 0.516406 0.719117 0.464969
vn 0.562209 0.719078 0.408469
vn 0.601826 0.719078 0.347465
vn 0.634849 0.719078 0.282654
vn 0.660878 0.719117 0.214737
vn 0.679705 0.719117 0.144472
vn 0.691122 0.719078 0.072641
vn 0.694929 0.719079 0.000001
vn 0.691122 0.719078 -0.072639
vn 0.679743 0.719078 -0.144483
vn 0.660917 0.719078 -0.214744
vn 0.634850 0.719079 -0.282652
vn 0.601827 0.719079 -0.347463
vn 0.562210 0.719079 -0.408468
vn 0.516407 0.719117 -0.464968
vn 0.464970 0.719116 -0.516405
vn 0.408470 0.719079 -0.562208
vn 0.347449 0.719117 -0.601789
vn 0.282635 0.719117 -0.634814
vn 0.214746 0.719079 -0.660916
vn 0.144481 0.719117 -0.679703
vn 0.072634 0.719117 -0.691083
vn 0.000002 0.719079 -0.694929
vn -0.072638 0.719079 -0.691122
vn -0.144482 0.719079 -0.679743
vn -0.214743 0.719078 -0.660917
vn -0.282651 0.719078 -0.634850
vn -0.347462 0.719078 -0.601827
vn -0.408467 0.719078 -0.562211
vn -0.464996 0.719078 -0.516434
vn -0.516431 0.719079 -0.465000
vn -0.562242 0.719040 -0.408491
vn -0.601857 0.719040 -0.347490
vn -0.634848 0.719078 -0.282656
vn -0.660916 0.719079 -0.214748
vn -0.679742 0.719078 -0.144487
vn -0.691122 0.719078 -0.072642
# 240 vertex normals

vt 0.750000 0.000000 1.000000
vt 0.766667 0.000000 1.000000
vt 0.766667 1.000000 1.000000
vt 0.750000 1.000000 1.000000
vt 0.783333 0.000000 1.000000
vt 0.783333 1.000000 1.000000
vt 0.800000 0.000000 1.000000
vt 0.800000 1.000000 1.000000
vt 0.816667 0.000000 1.000000
vt 0.816667 1.000000 1.000000
vt 0.833333 0.000000 1.000000
vt 0.833333 1.000000 1.000000
vt 0.850000 0.000000 1.000000
vt 0.850000 1.000000 1.000000
vt 0.866667 0.000000 1.000000
vt 0.866667 1.000000 1.000000
vt 0.883333 0.000000 1.000000
vt 0.883333 1.000000 1.000000
vt 0.900000 0.000000 1.000000
vt 0.900000 1.000000 1.000000
vt 0.916667 0.000000 1.000000
vt 0.916667 1.000000 1.000000
vt 0.933333 0.000000 1.000000
vt 0.933333 1.000000 1.000000
vt 0.950000 0.000000 1.000000
vt 0.950000 1.000000 1.000000
vt 0.966667 0.000000 1.000000
vt 0.966667 1.000000 1.000000
vt 0.983333 0.000000 1.000000
vt 0.983333 1.000000 1.000000
vt -0.016667 0.000000 1.000000
vt 0.000000 0.000000 1.000000
vt 0.000000 1.000000 1.000000
vt -0.016667 1.000000 1.000000
vt 0.016667 0.000000 1.000000
vt 0.016667 1.000000 1.000000
vt 0.033333 0.000000 1.000000
vt 0.033333 1.000000 1.000000
vt 0.050000 0.000000 1.000000
vt 0.050000 1.000000 1.000000
vt 0.066667 0.000000 1.000000
vt 0.066667 1.000000 1.000000
vt 0.083333 0.000000 1.000000
vt 0.083333 1.000000 1.000000
vt 0.100000 0.000000 1.000000
vt 0.100000 1.000000 1.000000
vt 0.116667 0.000000 1.000000
vt 0.116667 1.000000 1.000000
vt 0.133333 0.000000 1.000000
vt 0.133333 1.000000 1.000000
vt 0.150000 0.000000 1.000000
vt 0.150000 1.000000 1.000000
vt 0.166667 0.000000 1.000000
vt 0.166667 1.000000 1.000000
vt 0.183333 0.000000 1.000000
vt 0.183333 1.000000 1.000000
vt 0.200000 0.000000 1.000000
vt 0.200000 1.000000 1.000000
vt 0.216667 0.000000 1.000000
vt 0.216667 1.000000 1.000000
vt 0.233333 0.000000 1.000000
vt 0.233333 1.000000 1.000000
vt 0.250000 0.000000 1.000000
vt 0.250000 1.000000 1.000000
vt 0.266666 0.000000 1.000000
vt 0.266666 1.000000 1.000000
vt 0.283333 0.000000 1.000000
vt 0.283333 1.000000 1.000000
vt 0.300000 0.000000 1.000000
vt 0.300000 1.000000 1.000000
vt 0.316666 0.000000 1.000000
vt 0.316666 1.000000 1.000000
vt 0.333333 0.000000 1.000000
vt 0.333333 1.000000 1.000000
vt 0.350000 0.000000 1.000000
vt 0.350000 1.000000 1.000000
vt 0.366666 0.000000 1.000000
vt 0.366666 1.000000 1.000000
vt 0.383333 0.000000 1.000000
vt 0.383333 1.000000 1.000000
vt 0.400000 0.000000 1.000000
vt 0.400000 1.000000 1.000000
vt 0.416666 0.000000 1.000000
vt 0.416666 1.000000 1.000000
vt 0.433333 0.000000 1.000000
vt 0.433333 1.000000 1.000000
vt 0.450000 0.000000 1.000000
vt 0.450000 1.000000 1.000000
vt 0.466666 0.000000 1.000000
vt 0.466666 1.000000 1.000000
vt 0.483333 0.000000 1.000000
vt 0.483333 1.000000 1.000000
vt 0.500000 0.000000 1.000000
vt 0.500000 1.000000 1.000000
vt 0.516666 0.000000 1.000000
vt 0.516666 1.000000 1.000000
vt 0.533333 0.000000 1.000000
vt 0.533333 1.000000 1.000000
vt 0.549999 0.000000 1.000000
vt 0.549999 1.000000 1.000000
vt 0.566666 0.000000 1.000000
vt 0.566666 1.000000 1.000000
vt 0.583333 0.000000 1.000000
vt 0.583333 1.000000 1.000000
vt 0.599999 0.000000 1.000000
vt 0.599999 1.000000 1.000000
vt 0.616666 0.000000 1.000000
vt 0.616666 1.000000 1.000000
vt 0.633333 0.000000 1.000000
vt 0.633333 1.000000 1.000000
vt 0.649999 0.000000 1.000000
vt 0.649999 1.000000 1.000000
vt 0.666666 0.000000 1.000000
vt 0.666666 1.000000 1.000000
vt 0.683333 0.000000 1.000000
vt 0.683333 1.000000 1.000000
vt 0.699999 0.000000 1.000000
vt 0.699999 1.000000 1.000000
vt 0.716666 0.000000 1.000000
vt 0.716666 1.000000 1.000000
vt 0.733333 0.000000 1.000000
vt 0.733333 1.000000 1.000000
vt 0.365859 0.000000 0.052415
vt 0.316065 0.000000 -0.052418
vt 0.268285 0.000000 -0.156677
vt 0.223045 0.000000 -0.259218
vt 0.180840 0.000000 -0.358917
vt 0.142132 0.000000 -0.454684
vt 0.107345 0.000000 -0.545469
vt 0.076860 0.000000 -0.630277
vt 0.051012 0.000000 -0.708177
vt 0.030083 0.000000 -0.778318
vt 0.014302 0.000000 -0.839932
vt 0.003843 0.000000 -0.892343
vt -0.001180 0.000000 -0.934977
vt -0.000712 0.000000 -0.967367
vt 0.005241 0.000000 -0.989158
vt 0.016615 0.000000 -1.000112
vt 0.033285 0.000000 -1.000108
vt 0.055068 0.000000 -0.989148
vt 0.081726 0.000000 -0.967350
vt 0.112966 0.000000 -0.934955
vt 0.148446 0.000000 -0.892315
vt 0.187778 0.000000 -0.839901
vt 0.230529 0.000000 -0.778285
vt 0.276233 0.000000 -0.708143
vt 0.324387 0.000000 -0.630243
vt 0.374466 0.000000 -0.545439
vt 0.425919 0.000000 -0.454660
vt 0.478183 0.000000 -0.358901
vt 0.530686 0.000000 -0.259210
vt 0.582852 0.000000 -0.156680
vt 0.634110 0.000000 -0.052433
vt 0.683899 0.000000 0.052386
vt 0.731673 0.000000 0.156632
vt 0.776908 0.000000 0.259161
vt 0.819109 0.000000 0.358850
vt 0.857814 0.000000 0.454607
vt 0.892597 0.000000 0.545380
vt 0.923080 0.000000 0.630179
vt 0.948927 0.000000 0.708074
vt 0.969856 0.000000 0.778210
vt 0.985636 0.000000 0.839820
vt 0.996096 0.000000 0.892228
vt 1.001121 0.000000 0.934861
vt 1.000655 0.000000 0.967251
vt 0.994704 0.000000 0.989043
vt 0.994704 1.000000 0.989044
vt 1.000656 1.000000 0.967251
vt 1.001122 1.000000 0.934862
vt 0.996097 1.000000 0.892229
vt 0.985637 1.000000 0.839821
vt 0.969857 1.000000 0.778212
vt 0.948928 1.000000 0.708077
vt 0.923081 1.000000 0.630184
vt 0.892599 1.000000 0.545387
vt 0.857816 1.000000 0.454614
vt 0.819112 1.000000 0.358860
vt 0.776912 1.000000 0.259175
vt 0.731678 1.000000 0.156650
vt 0.683906 1.000000 0.052409
vt 0.634118 1.000000 -0.052406
vt 0.582862 1.000000 -0.156648
vt 0.530697 1.000000 -0.259173
vt 0.478197 1.000000 -0.358858
vt 0.425935 1.000000 -0.454612
vt 0.374484 1.000000 -0.545385
vt 0.324409 1.000000 -0.630182
vt 0.276257 1.000000 -0.708075
vt 0.230557 1.000000 -0.778211
vt 0.187809 1.000000 -0.839820
vt 0.148482 1.000000 -0.892228
vt 0.113005 1.000000 -0.934860
vt 0.081769 1.000000 -0.967250
vt 0.055115 1.000000 -0.989043
vt 0.033335 1.000000 -0.999999
vt 0.016668 1.000000 -1.000000
vt 0.005297 1.000000 -0.989044
vt -0.000655 1.000000 -0.967252
vt -0.001121 1.000000 -0.934862
vt 0.003903 1.000000 -0.892230
vt 0.014363 1.000000 -0.839823
vt 0.030143 1.000000 -0.778214
vt 0.051071 1.000000 -0.708079
vt 0.076918 1.000000 -0.630186
vt 0.107400 1.000000 -0.545389
vt 0.142183 1.000000 -0.454617
vt 0.180887 1.000000 -0.358863
vt 0.223087 1.000000 -0.259178
vt 0.268321 1.000000 -0.156653
vt 0.316093 1.000000 -0.052412
# 211 texture coords

o Cylinder001
g Cylinder001
s 8
f -240/-211/-240 -239/-210/-239 -179/-209/-238 -180/-208/-237 
f -239/-210/-239 -238/-207/-236 -178/-206/-235 -179/-209/-238 
f -238/-207/-236 -237/-205/-234 -177/-204/-233 -178/-206/-235 
f -237/-205/-234 -236/-203/-232 -176/-202/-231 -177/-204/-233 
f -236/-203/-232 -235/-201/-230 -175/-200/-229 -176/-202/-231 
f -235/-201/-230 -234/-199/-228 -174/-198/-227 -175/-200/-229 
f -234/-199/-228 -233/-197/-226 -173/-196/-225 -174/-198/-227 
f -233/-197/-226 -232/-195/-224 -172/-194/-223 -173/-196/-225 
f -232/-195/-224 -231/-193/-222 -171/-192/-221 -172/-194/-223 
f -231/-193/-222 -230/-191/-220 -170/-190/-219 -171/-192/-221 
f -230/-191/-220 -229/-189/-218 -169/-188/-217 -170/-190/-219 
f -229/-189/-218 -228/-187/-216 -168/-186/-215 -169/-188/-217 
f -228/-187/-216 -227/-185/-214 -167/-184/-213 -168/-186/-215 
f -227/-185/-214 -226/-183/-212 -166/-182/-211 -167/-184/-213 
f -226/-181/-212 -225/-180/-210 -165/-179/-209 -166/-178/-211 
f -225/-180/-210 -224/-177/-208 -164/-176/-207 -165/-179/-209 
f -224/-177/-208 -223/-175/-206 -163/-174/-205 -164/-176/-207 
f -223/-175/-206 -222/-173/-204 -162/-172/-203 -163/-174/-205 
f -222/-173/-204 -221/-171/-202 -161/-170/-201 -162/-172/-203 
f -221/-171/-202 -220/-169/-200 -160/-168/-199 -161/-170/-201 
f -220/-169/-200 -219/-167/-198 -159/-166/-197 -160/-168/-199 
f -219/-167/-198 -218/-165/-196 -158/-164/-195 -159/-166/-197 
f -218/-165/-196 -217/-163/-194 -157/-162/-193 -158/-164/-195 
f -217/-163/-194 -216/-161/-192 -156/-160/-191 -157/-162/-193 
f -216/-161/-192 -215/-159/-190 -155/-158/-189 -156/-160/-191 
f -215/-159/-190 -214/-157/-188 -154/-156/-187 -155/-158/-189 
f -214/-157/-188 -213/-155/-186 -153/-154/-185 -154/-156/-187 
f -213/-155/-186 -212/-153/-184 -152/-152/-183 -153/-154/-185 
f -212/-153/-184 -211/-151/-182 -151/-150/-181 -152/-152/-183 
f -211/-151/-182 -210/-149/-180 -150/-148/-179 -151/-150/-181 
f -210/-149/-180 -209/-147/-178 -149/-146/-177 -150/-148/-179 
f -209/-147/-178 -208/-145/-176 -148/-144/-175 -149/-146/-177 
f -208/-145/-176 -207/-143/-174 -147/-142/-173 -148/-144/-175 
f -207/-143/-174 -206/-141/-172 -146/-140/-171 -147/-142/-173 
f -206/-141/-172 -205/-139/-170 -145/-138/-169 -146/-140/-171 
f -205/-139/-170 -204/-137/-168 -144/-136/-167 -145/-138/-169 
f -204/-137/-168 -203/-135/-166 -143/-134/-165 -144/-136/-167 
f -203/-135/-166 -202/-133/-164 -142/-132/-163 -143/-134/-165 
f -202/-133/-164 -201/-131/-162 -141/-130/-161 -142/-132/-163 
f -201/-131/-162 -200/-129/-160 -140/-128/-159 -141/-130/-161 
f -200/-129/-160 -199/-127/-158 -139/-126/-157 -140/-128/-159 
f -199/-127/-158 -198/-125/-156 -138/-124/-155 -139/-126/-157 
f -198/-125/-156 -197/-123/-154 -137/-122/-153 -138/-124/-155 
f -197/-123/-154 -196/-121/-152 -136/-120/-151 -137/-122/-153 
f -196/-121/-152 -195/-119/-150 -135/-118/-149 -136/-120/-151 
f -195/-119/-150 -194/-117/-148 -134/-116/-147 -135/-118/-149 
f -194/-117/-148 -193/-115/-146 -133/-114/-145 -134/-116/-147 
f -193/-115/-146 -192/-113/-144 -132/-112/-143 -133/-114/-145 
f -192/-113/-144 -191/-111/-142 -131/-110/-141 -132/-112/-143 
f -191/-111/-142 -190/-109/-140 -130/-108/-139 -131/-110/-141 
f -190/-109/-140 -189/-107/-138 -129/-106/-137 -130/-108/-139 
f -189/-107/-138 -188/-105/-136 -128/-104/-135 -129/-106/-137 
f -188/-105/-136 -187/-103/-134 -127/-102/-133 -128/-104/-135 
f -187/-103/-134 -186/-101/-132 -126/-100/-131 -127/-102/-133 
f -186/-101/-132 -185/-99/-130 -125/-98/-129 -126/-100/-131 
f -185/-99/-130 -184/-97/-128 -124/-96/-127 -125/-98/-129 
f -184/-97/-128 -183/-95/-126 -123/-94/-125 -124/-96/-127 
f -183/-95/-126 -182/-93/-124 -122/-92/-123 -123/-94/-125 
f -182/-93/-124 -181/-91/-122 -121/-90/-121 -122/-92/-123 
f -181/-91/-122 -240/-211/-240 -180/-208/-237 -121/-90/-121 
s off
f -239/-210/-239 -240/-211/-240 -119/-211/-120 -120/-210/-119 
f -240/-211/-240 -181/-89/-122 -118/-89/-118 -119/-211/-120 
f -181/-89/-122 -182/-88/-124 -117/-88/-117 -118/-89/-118 
f -182/-88/-124 -183/-87/-126 -116/-87/-116 -117/-88/-117 
f -183/-87/-126 -184/-86/-128 -115/-86/-115 -116/-87/-116 
f -184/-86/-128 -185/-85/-130 -114/-85/-114 -115/-86/-115 
f -185/-85/-130 -186/-84/-132 -113/-84/-113 -114/-85/-114 
f -186/-84/-132 -187/-83/-134 -112/-83/-112 -113/-84/-113 
f -187/-83/-134 -188/-82/-136 -111/-82/-111 -112/-83/-112 
f -188/-82/-136 -189/-81/-138 -110/-81/-110 -111/-82/-111 
f -189/-81/-138 -190/-80/-140 -109/-80/-109 -110/-81/-110 
f -190/-80/-140 -191/-79/-142 -108/-79/-108 -109/-80/-109 
f -191/-79/-142 -192/-78/-144 -107/-78/-107 -108/-79/-108 
f -192/-78/-144 -193/-77/-146 -106/-77/-106 -107/-78/-107 
f -193/-77/-146 -194/-76/-148 -105/-76/-105 -106/-77/-106 
f -194/-76/-148 -195/-75/-150 -104/-75/-104 -105/-76/-105 
f -195/-75/-150 -196/-74/-152 -103/-74/-103 -104/-75/-104 
f -196/-74/-152 -197/-73/-154 -102/-73/-102 -103/-74/-103 
f -197/-73/-154 -198/-72/-156 -101/-72/-101 -102/-73/-102 
f -198/-72/-156 -199/-71/-158 -100/-71/-100 -101/-72/-101 
f -199/-71/-158 -200/-70/-160 -99/-70/-99 -100/-71/-100 
f -200/-70/-160 -201/-69/-162 -98/-69/-98 -99/-70/-99 
f -201/-69/-162 -202/-68/-164 -97/-68/-97 -98/-69/-98 
f -202/-68/-164 -203/-67/-166 -96/-67/-96 -97/-68/-97 
f -203/-67/-166 -204/-66/-168 -95/-66/-95 -96/-67/-96 
f -204/-66/-168 -205/-65/-170 -94/-65/-94 -95/-66/-95 
f -205/-65/-170 -206/-64/-172 -93/-64/-93 -94/-65/-94 
f -206/-64/-172 -207/-63/-174 -92/-63/-92 -93/-64/-93 
f -207/-63/-174 -208/-62/-176 -91/-62/-91 -92/-63/-92 
f -208/-62/-176 -209/-61/-178 -90/-61/-90 -91/-62/-91 
f -209/-61/-178 -210/-60/-180 -89/-60/-89 -90/-61/-90 
f -210/-60/-180 -211/-59/-182 -88/-59/-88 -89/-60/-89 
f -211/-59/-182 -212/-58/-184 -87/-58/-87 -88/-59/-88 
f -212/-58/-184 -213/-57/-186 -86/-57/-86 -87/-58/-87 
f -213/-57/-186 -214/-56/-188 -85/-56/-85 -86/-57/-86 
f -214/-56/-188 -215/-55/-190 -84/-55/-84 -85/-56/-85 
f -215/-55/-190 -216/-54/-192 -83/-54/-83 -84/-55/-84 
f -216/-54/-192 -217/-53/-194 -82/-53/-82 -83/-54/-83 
f -217/-53/-194 -218/-52/-196 -81/-52/-81 -82/-53/-82 
f -218/-52/-196 -219/-51/-198 -80/-51/-80 -81/-52/-81 
f -219/-51/-198 -220/-50/-200 -79/-50/-79 -80/-51/-80 
f -220/-50/-200 -221/-49/-202 -78/-49/-78 -79/-50/-79 
f -221/-49/-202 -222/-48/-204 -77/-48/-77 -78/-49/-78 
f -222/-48/-204 -223/-47/-206 -76/-47/-76 -77/-48/-77 
f -223/-47/-206 -224/-46/-208 -75/-46/-75 -76/-47/-76 
f -224/-46/-208 -225/-45/-210 -74/-45/-74 -75/-46/-75 
f -225/-45/-210 -226/-183/-212 -73/-183/-73 -74/-45/-74 
f -226/-183/-212 -227/-185/-214 -72/-185/-72 -73/-183/-73 
f -227/-185/-214 -228/-187/-216 -71/-187/-71 -72/-185/-72 
f -228/-187/-216 -229/-189/-218 -70/-189/-70 -71/-187/-71 
f -229/-189/-218 -230/-191/-220 -69/-191/-69 -70/-189/-70 
f -230/-191/-220 -231/-193/-222 -68/-193/-68 -69/-191/-69 
f -231/-193/-222 -232/-195/-224 -67/-195/-67 -68/-193/-68 
f -232/-195/-224 -233/-197/-226 -66/-197/-66 -67/-195/-67 
f -233/-197/-226 -234/-199/-228 -65/-199/-65 -66/-197/-66 
f -234/-199/-228 -235/-201/-230 -64/-201/-64 -65/-199/-65 
f -235/-201/-230 -236/-203/-232 -63/-203/-63 -64/-201/-64 
f -236/-203/-232 -237/-205/-234 -62/-205/-62 -63/-203/-63 
f -237/-205/-234 -238/-207/-236 -61/-207/-61 -62/-205/-62 
f -238/-207/-236 -239/-210/-239 -120/-210/-119 -61/-207/-61 
f -180/-208/-237 -179/-209/-238 -59/-209/-60 -60/-208/-59 
f -179/-209/-238 -178/-206/-235 -58/-206/-58 -59/-209/-60 
f -178/-206/-235 -177/-204/-233 -57/-204/-57 -58/-206/-58 
f -177/-204/-233 -176/-202/-231 -56/-202/-56 -57/-204/-57 
f -176/-202/-231 -175/-200/-229 -55/-200/-55 -56/-202/-56 
f -175/-200/-229 -174/-198/-227 -54/-198/-54 -55/-200/-55 
f -174/-198/-227 -173/-196/-225 -53/-196/-53 -54/-198/-54 
f -173/-196/-225 -172/-194/-223 -52/-194/-52 -53/-196/-53 
f -172/-194/-223 -171/-192/-221 -51/-192/-51 -52/-194/-52 
f -171/-192/-221 -170/-190/-219 -50/-190/-50 -51/-192/-51 
f -170/-190/-219 -169/-188/-217 -49/-188/-49 -50/-190/-50 
f -169/-188/-217 -168/-186/-215 -48/-186/-48 -49/-188/-49 
f -168/-186/-215 -167/-184/-213 -47/-184/-47 -48/-186/-48 
f -167/-184/-213 -166/-182/-211 -46/-182/-46 -47/-184/-47 
f -166/-182/-211 -165/-44/-209 -45/-44/-45 -46/-182/-46 
f -165/-44/-209 -164/-43/-207 -44/-43/-44 -45/-44/-45 
f -164/-43/-207 -163/-42/-205 -43/-42/-43 -44/-43/-44 
f -163/-42/-205 -162/-41/-203 -42/-41/-42 -43/-42/-43 
f -162/-41/-203 -161/-40/-201 -41/-40/-41 -42/-41/-42 
f -161/-40/-201 -160/-39/-199 -40/-39/-40 -41/-40/-41 
f -160/-39/-199 -159/-38/-197 -39/-38/-39 -40/-39/-40 
f -159/-38/-197 -158/-37/-195 -38/-37/-38 -39/-38/-39 
f -158/-37/-195 -157/-36/-193 -37/-36/-37 -38/-37/-38 
f -157/-36/-193 -156/-35/-191 -36/-35/-36 -37/-36/-37 
f -156/-35/-191 -155/-34/-189 -35/-34/-35 -36/-35/-36 
f -155/-34/-189 -154/-33/-187 -34/-33/-34 -35/-34/-35 
f -154/-33/-187 -153/-32/-185 -33/-32/-33 -34/-33/-34 
f -153/-32/-185 -152/-31/-183 -32/-31/-32 -33/-32/-33 
f -152/-31/-183 -151/-30/-181 -31/-30/-31 -32/-31/-32 
f -151/-30/-181 -150/-29/-179 -30/-29/-30 -31/-30/-31 
f -150/-29/-179 -149/-28/-177 -29/-28/-29 -30/-29/-30 
f -149/-28/-177 -148/-27/-175 -28/-27/-28 -29/-28/-29 
f -148/-27/-175 -147/-26/-173 -27/-26/-27 -28/-27/-28 
f -147/-26/-173 -146/-25/-171 -26/-25/-26 -27/-26/-27 
f -146/-25/-171 -145/-24/-169 -25/-24/-25 -26/-25/-26 
f -145/-24/-169 -144/-23/-167 -24/-23/-24 -25/-24/-25 
f -144/-23/-167 -143/-22/-165 -23/-22/-23 -24/-23/-24 
f -143/-22/-165 -142/-21/-163 -22/-21/-22 -23/-22/-23 
f -142/-21/-163 -141/-20/-161 -21/-20/-21 -22/-21/-22 
f -141/-20/-161 -140/-19/-159 -20/-19/-20 -21/-20/-21 
f -140/-19/-159 -139/-18/-157 -19/-18/-19 -20/-19/-20 
f -139/-18/-157 -138/-17/-155 -18/-17/-18 -19/-18/-19 
f -138/-17/-155 -137/-16/-153 -17/-16/-17 -18/-17/-18 
f -137/-16/-153 -136/-15/-151 -16/-15/-16 -17/-16/-17 
f -136/-15/-151 -135/-14/-149 -15/-14/-15 -16/-15/-16 
f -135/-14/-149 -134/-13/-147 -14/-13/-14 -15/-14/-15 
f -134/-13/-147 -133/-12/-145 -13/-12/-13 -14/-13/-14 
f -133/-12/-145 -132/-11/-143 -12/-11/-12 -13/-12/-13 
f -132/-11/-143 -131/-10/-141 -11/-10/-11 -12/-11/-12 
f -131/-10/-141 -130/-9/-139 -10/-9/-10 -11/-10/-11 
f -130/-9/-139 -129/-8/-137 -9/-8/-9 -10/-9/-10 
f -129/-8/-137 -128/-7/-135 -8/-7/-8 -9/-8/-9 
f -128/-7/-135 -127/-6/-133 -7/-6/-7 -8/-7/-8 
f -127/-6/-133 -126/-5/-131 -6/-5/-6 -7/-6/-7 
f -126/-5/-131 -125/-4/-129 -5/-4/-5 -6/-5/-6 
f -125/-4/-129 -124/-3/-127 -4/-3/-4 -5/-4/-5 
f -124/-3/-127 -123/-2/-125 -3/-2/-3 -4/-3/-4 
f -123/-2/-125 -122/-1/-123 -2/-1/-2 -3/-2/-3 
f -122/-1/-123 -121/-90/-121 -1/-90/-1 -2/-1/-2 
f -121/-90/-121 -180/-208/-237 -60/-208/-59 -1/-90/-1 
s 1
f -120/-210/-119 -119/-211/-120 -60/-208/-59 -59/-209/-60 
f -119/-211/-120 -118/-89/-118 -1/-90/-1 -60/-208/-59 
f -118/-89/-118 -117/-88/-117 -2/-1/-2 -1/-90/-1 
f -117/-88/-117 -116/-87/-116 -3/-2/-3 -2/-1/-2 
f -116/-87/-116 -115/-86/-115 -4/-3/-4 -3/-2/-3 
f -115/-86/-115 -114/-85/-114 -5/-4/-5 -4/-3/-4 
f -114/-85/-114 -113/-84/-113 -6/-5/-6 -5/-4/-5 
f -113/-84/-113 -112/-83/-112 -7/-6/-7 -6/-5/-6 
f -112/-83/-112 -111/-82/-111 -8/-7/-8 -7/-6/-7 
f -111/-82/-111 -110/-81/-110 -9/-8/-9 -8/-7/-8 
f -110/-81/-110 -109/-80/-109 -10/-9/-10 -9/-8/-9 
f -109/-80/-109 -108/-79/-108 -11/-10/-11 -10/-9/-10 
f -108/-79/-108 -107/-78/-107 -12/-11/-12 -11/-10/-11 
f -107/-78/-107 -106/-77/-106 -13/-12/-13 -12/-11/-12 
f -106/-77/-106 -105/-76/-105 -14/-13/-14 -13/-12/-13 
f -105/-76/-105 -104/-75/-104 -15/-14/-15 -14/-13/-14 
f -104/-75/-104 -103/-74/-103 -16/-15/-16 -15/-14/-15 
f -103/-74/-103 -102/-73/-102 -17/-16/-17 -16/-15/-16 
f -102/-73/-102 -101/-72/-101 -18/-17/-18 -17/-16/-17 
f -101/-72/-101 -100/-71/-100 -19/-18/-19 -18/-17/-18 
f -100/-71/-100 -99/-70/-99 -20/-19/-20 -19/-18/-19 
f -99/-70/-99 -98/-69/-98 -21/-20/-21 -20/-19/-20 
f -98/-69/-98 -97/-68/-97 -22/-21/-22 -21/-20/-21 
f -97/-68/-97 -96/-67/-96 -23/-22/-23 -22/-21/-22 
f -96/-67/-96 -95/-66/-95 -24/-23/-24 -23/-22/-23 
f -95/-66/-95 -94/-65/-94 -25/-24/-25 -24/-23/-24 
f -94/-65/-94 -93/-64/-93 -26/-25/-26 -25/-24/-25 
f -93/-64/-93 -92/-63/-92 -27/-26/-27 -26/-25/-26 
f -92/-63/-92 -91/-62/-91 -28/-27/-28 -27/-26/-27 
f -91/-62/-91 -90/-61/-90 -29/-28/-29 -28/-27/-28 
f -90/-61/-90 -89/-60/-89 -30/-29/-30 -29/-28/-29 
f -89/-60/-89 -88/-59/-88 -31/-30/-31 -30/-29/-30 
f -88/-59/-88 -87/-58/-87 -32/-31/-32 -31/-30/-31 
f -87/-58/-87 -86/-57/-86 -33/-32/-33 -32/-31/-32 
f -86/-57/-86 -85/-56/-85 -34/-33/-34 -33/-32/-33 
f -85/-56/-85 -84/-55/-84 -35/-34/-35 -34/-33/-34 
f -84/-55/-84 -83/-54/-83 -36/-35/-36 -35/-34/-35 
f -83/-54/-83 -82/-53/-82 -37/-36/-37 -36/-35/-36 
f -82/-53/-82 -81/-52/-81 -38/-37/-38 -37/-36/-37 
f -81/-52/-81 -80/-51/-80 -39/-38/-39 -38/-37/-38 
f -80/-51/-80 -79/-50/-79 -40/-39/-40 -39/-38/-39 
f -79/-50/-79 -78/-49/-78 -41/-40/-41 -40/-39/-40 
f -78/-49/-78 -77/-48/-77 -42/-41/-42 -41/-40/-41 
f -77/-48/-77 -76/-47/-76 -43/-42/-43 -42/-41/-42 
f -76/-47/-76 -75/-46/-75 -44/-43/-44 -43/-42/-43 
f -75/-46/-75 -74/-45/-74 -45/-44/-45 -44/-43/-44 
f -74/-45/-74 -73/-183/-73 -46/-182/-46 -45/-44/-45 
f -73/-183/-73 -72/-185/-72 -47/-184/-47 -46/-182/-46 
f -72/-185/-72 -71/-187/-71 -48/-186/-48 -47/-184/-47 
f -71/-187/-71 -70/-189/-70 -49/-188/-49 -48/-186/-48 
f -70/-189/-70 -69/-191/-69 -50/-190/-50 -49/-188/-49 
f -69/-191/-69 -68/-193/-68 -51/-192/-51 -50/-190/-50 
f -68/-193/-68 -67/-195/-67 -52/-194/-52 -51/-192/-51 
f -67/-195/-67 -66/-197/-66 -53/-196/-53 -52/-194/-52 
f -66/-197/-66 -65/-199/-65 -54/-198/-54 -53/-196/-53 
f -65/-199/-65 -64/-201/-64 -55/-200/-55 -54/-198/-54 
f -64/-201/-64 -63/-203/-63 -56/-202/-56 -55/-200/-55 
f -63/-203/-63 -62/-205/-62 -57/-204/-57 -56/-202/-56 
f -62/-205/-62 -61/-207/-61 -58/-206/-58 -57/-204/-57 
f -61/-207/-61 -120/-210/-119 -59/-209/-60 -58/-206/-58 
# 240 polygons

#
# object Object001
#

v  -0.000205 0.000000 72.111023
v  7.537442 0.000000 71.716011
v  7.537442 30.000000 71.716011
v  -0.000205 30.000000 72.111023
v  14.992507 0.000000 70.535271
v  14.992507 30.000000 70.535271
v  22.283314 0.000000 68.581726
v  22.283314 30.000000 68.581726
v  10.975039 0.000000 51.634285
v  16.312162 0.000000 50.204220
v  5.517671 0.000000 52.498627
v  -0.000157 0.000000 52.787792
v  5.517671 30.000000 52.498627
v  -0.000157 30.000000 52.787792
v  10.975039 30.000000 51.634285
v  16.312162 30.000000 50.204220
# 16 vertices

vn -0.563352 -0.574647 0.593646
vn 0.075103 -0.695515 0.714576
vn 0.075103 0.695515 0.714576
vn -0.563352 0.574647 0.593646
vn 0.149385 -0.695515 0.702811
vn 0.149385 0.695515 0.702811
vn 0.719224 -0.574647 0.390510
vn 0.719224 0.574647 0.390510
vn -0.144482 -0.719079 -0.679743
vn 0.388651 -0.580154 -0.715802
vn -0.072638 -0.719078 -0.691122
vn -0.590821 -0.580154 -0.560671
vn -0.072638 0.719079 -0.691122
vn -0.590821 0.580154 -0.560671
vn -0.144482 0.719079 -0.679743
vn 0.388651 0.580154 -0.715802
# 16 vertex normals

vt 0.500000 0.000000 1.000000
vt 0.516666 0.000000 1.000000
vt 0.516666 1.000000 1.000000
vt 0.500000 1.000000 1.000000
vt 0.533333 0.000000 1.000000
vt 0.533333 1.000000 1.000000
vt 0.549999 0.000000 1.000000
vt 0.549999 1.000000 1.000000
vt 0.003843 0.000000 -0.892343
vt -0.001180 0.000000 -0.934977
vt -0.000712 0.000000 -0.967367
vt 0.005241 0.000000 -0.989158
vt 0.005297 1.000000 -0.989044
vt -0.000655 1.000000 -0.967252
vt -0.001121 1.000000 -0.934862
vt 0.003903 1.000000 -0.892230
# 16 texture coords

o Object001
g Object001
s 8
f -16/-16/-16 -15/-15/-15 -14/-14/-14 -13/-13/-13 
f -15/-15/-15 -12/-12/-12 -11/-11/-11 -14/-14/-14 
f -12/-12/-12 -10/-10/-10 -9/-9/-9 -11/-11/-11 
s off
f -10/-8/-10 -12/-7/-12 -8/-7/-8 -7/-8/-7 
f -12/-7/-12 -15/-6/-15 -6/-6/-6 -8/-7/-8 
f -15/-6/-15 -16/-5/-16 -5/-5/-5 -6/-6/-6 
f -13/-4/-13 -14/-3/-14 -4/-3/-4 -3/-4/-3 
f -14/-3/-14 -11/-2/-11 -2/-2/-2 -4/-3/-4 
f -11/-2/-11 -9/-1/-9 -1/-1/-1 -2/-2/-2 
s 1
f -7/-8/-7 -8/-7/-8 -2/-2/-2 -1/-1/-1 
f -8/-7/-8 -6/-6/-6 -4/-3/-4 -2/-2/-2 
f -6/-6/-6 -5/-5/-5 -3/-4/-3 -4/-3/-4 
s off
f -13/-13/-13 -3/-4/-3 -5/-5/-5 -16/-5/-16 
f -10/-10/-10 -7/-8/-7 -1/-1/-1 -9/-1/-9 
# 14 polygons

#
# object Object002
#

v  22.283339 0.000000 68.581718
v  29.330000 0.000000 65.876778
v  29.330000 30.000000 65.876778
v  22.283339 30.000000 68.581718
v  36.055321 0.000000 62.450092
v  36.055321 30.000000 62.450092
v  42.385612 0.000000 58.339176
v  42.385612 30.000000 58.339176
v  26.393753 0.000000 45.715652
v  31.027748 0.000000 42.706314
v  21.470587 0.000000 48.224106
v  16.312176 0.000000 50.204224
v  21.470587 30.000000 48.224106
v  16.312176 30.000000 50.204224
v  26.393755 30.000000 45.715652
v  31.027748 30.000000 42.706314
# 16 vertices

vn -0.352333 -0.574647 0.738676
vn 0.292243 -0.695515 0.656394
vn 0.292243 0.695515 0.656394
vn -0.352333 0.574647 0.738676
vn 0.359254 -0.695515 0.622251
vn 0.359254 0.695515 0.622251
vn 0.804697 -0.574647 0.149144
vn 0.804697 0.574647 0.149144
vn -0.347462 -0.719079 -0.601827
vn 0.148434 -0.580154 -0.800868
vn -0.282651 -0.719078 -0.634850
vn -0.735161 -0.580154 -0.350656
vn -0.282651 0.719079 -0.634850
vn -0.735161 0.580154 -0.350656
vn -0.347463 0.719079 -0.601827
vn 0.148434 0.580154 -0.800868
# 16 vertex normals

vt 0.500000 0.000000 1.000000
vt 0.516666 0.000000 1.000000
vt 0.516666 1.000000 1.000000
vt 0.500000 1.000000 1.000000
vt 0.533333 0.000000 1.000000
vt 0.533333 1.000000 1.000000
vt 0.549999 0.000000 1.000000
vt 0.549999 1.000000 1.000000
vt 0.003843 0.000000 -0.892343
vt -0.001180 0.000000 -0.934977
vt -0.000712 0.000000 -0.967367
vt 0.005241 0.000000 -0.989158
vt 0.005297 1.000000 -0.989044
vt -0.000655 1.000000 -0.967252
vt -0.001121 1.000000 -0.934862
vt 0.003903 1.000000 -0.892230
# 16 texture coords

o Object002
g Object002
s 8
f -16/-16/-16 -15/-15/-15 -14/-14/-14 -13/-13/-13 
f -15/-15/-15 -12/-12/-12 -11/-11/-11 -14/-14/-14 
f -12/-12/-12 -10/-10/-10 -9/-9/-9 -11/-11/-11 
s off
f -10/-8/-10 -12/-7/-12 -8/-7/-8 -7/-8/-7 
f -12/-7/-12 -15/-6/-15 -6/-6/-6 -8/-7/-8 
f -15/-6/-15 -16/-5/-16 -5/-5/-5 -6/-6/-6 
f -13/-4/-13 -14/-3/-14 -4/-3/-4 -3/-4/-3 
f -14/-3/-14 -11/-2/-11 -2/-2/-2 -4/-3/-4 
f -11/-2/-11 -9/-1/-9 -1/-1/-1 -2/-2/-2 
s 1
f -7/-8/-7 -8/-7/-8 -2/-2/-2 -1/-1/-1 
f -8/-7/-8 -6/-6/-6 -4/-3/-4 -2/-2/-2 
f -6/-6/-6 -5/-5/-5 -3/-4/-3 -4/-3/-4 
s off
f -13/-13/-13 -3/-4/-3 -5/-5/-5 -16/-5/-16 
f -10/-10/-10 -7/-8/-7 -1/-1/-1 -9/-1/-9 
# 14 polygons

#
# object Object003
#

v  42.385628 0.000000 58.339165
v  48.251534 0.000000 53.589077
v  48.251534 30.000000 53.589077
v  42.385628 30.000000 58.339165
v  53.588783 0.000000 48.251858
v  53.588783 30.000000 48.251858
v  58.338905 0.000000 42.385979
v  58.338905 30.000000 42.385979
v  39.228863 0.000000 35.322048
v  42.706116 0.000000 31.028019
v  35.321808 0.000000 39.229076
v  31.027758 0.000000 42.706314
v  35.321808 30.000000 39.229076
v  31.027758 30.000000 42.706314
v  39.228867 30.000000 35.322048
v  42.706116 30.000000 31.028019
# 16 vertices

vn -0.106825 -0.574647 0.811400
vn 0.480777 -0.695515 0.533960
vn 0.480777 0.695515 0.533960
vn -0.106825 0.574647 0.811400
vn 0.533957 -0.695515 0.480780
vn 0.533957 0.695515 0.480780
vn 0.811400 -0.574647 -0.106820
vn 0.811400 0.574647 -0.106820
vn -0.516431 -0.719079 -0.464999
vn -0.106312 -0.580154 -0.807539
vn -0.464997 -0.719078 -0.516434
vn -0.807539 -0.580154 -0.106316
vn -0.464997 0.719079 -0.516434
vn -0.807539 0.580154 -0.106316
vn -0.516431 0.719079 -0.464999
vn -0.106312 0.580154 -0.807539
# 16 vertex normals

vt 0.500000 0.000000 1.000000
vt 0.516666 0.000000 1.000000
vt 0.516666 1.000000 1.000000
vt 0.500000 1.000000 1.000000
vt 0.533333 0.000000 1.000000
vt 0.533333 1.000000 1.000000
vt 0.549999 0.000000 1.000000
vt 0.549999 1.000000 1.000000
vt 0.003843 0.000000 -0.892343
vt -0.001180 0.000000 -0.934977
vt -0.000712 0.000000 -0.967367
vt 0.005241 0.000000 -0.989158
vt 0.005297 1.000000 -0.989044
vt -0.000655 1.000000 -0.967252
vt -0.001121 1.000000 -0.934862
vt 0.003903 1.000000 -0.892230
# 16 texture coords

o Object003
g Object003
s 8
f -16/-16/-16 -15/-15/-15 -14/-14/-14 -13/-13/-13 
f -15/-15/-15 -12/-12/-12 -11/-11/-11 -14/-14/-14 
f -12/-12/-12 -10/-10/-10 -9/-9/-9 -11/-11/-11 
s off
f -10/-8/-10 -12/-7/-12 -8/-7/-8 -7/-8/-7 
f -12/-7/-12 -15/-6/-15 -6/-6/-6 -8/-7/-8 
f -15/-6/-15 -16/-5/-16 -5/-5/-5 -6/-6/-6 
f -13/-4/-13 -14/-3/-14 -4/-3/-4 -3/-4/-3 
f -14/-3/-14 -11/-2/-11 -2/-2/-2 -4/-3/-4 
f -11/-2/-11 -9/-1/-9 -1/-1/-1 -2/-2/-2 
s 1
f -7/-8/-7 -8/-7/-8 -2/-2/-2 -1/-1/-1 
f -8/-7/-8 -6/-6/-6 -4/-3/-4 -2/-2/-2 
f -6/-6/-6 -5/-5/-5 -3/-4/-3 -4/-3/-4 
s off
f -13/-13/-13 -3/-4/-3 -5/-5/-5 -16/-5/-16 
f -10/-10/-10 -7/-8/-7 -1/-1/-1 -9/-1/-9 
# 14 polygons

#
# object Object004
#

v  58.338921 0.000000 42.385963
v  62.449871 0.000000 36.055695
v  62.449871 30.000000 36.055695
v  58.338921 30.000000 42.385963
v  65.876602 0.000000 29.330399
v  65.876602 30.000000 29.330399
v  68.581589 0.000000 22.283745
v  68.581589 30.000000 22.283745
v  48.223980 0.000000 21.470879
v  50.204113 0.000000 16.312485
v  45.715488 0.000000 26.394028
v  42.706131 0.000000 31.028013
v  45.715488 30.000000 26.394028
v  42.706131 30.000000 31.028013
v  48.223980 30.000000 21.470877
v  50.204113 30.000000 16.312485
# 16 vertices

vn 0.149140 -0.574647 0.804698
vn 0.622248 -0.695515 0.359258
vn 0.622248 0.695515 0.359258
vn 0.149140 0.574647 0.804698
vn 0.656392 -0.695515 0.292247
vn 0.656392 0.695515 0.292247
vn 0.738678 -0.574647 -0.352329
vn 0.738678 0.574647 -0.352329
vn -0.634848 -0.719079 -0.282655
vn -0.350652 -0.580154 -0.735163
vn -0.601825 -0.719078 -0.347466
vn -0.800868 -0.580154 0.148430
vn -0.601825 0.719079 -0.347466
vn -0.800868 0.580154 0.148430
vn -0.634848 0.719079 -0.282655
vn -0.350652 0.580154 -0.735163
# 16 vertex normals

vt 0.500000 0.000000 1.000000
vt 0.516666 0.000000 1.000000
vt 0.516666 1.000000 1.000000
vt 0.500000 1.000000 1.000000
vt 0.533333 0.000000 1.000000
vt 0.533333 1.000000 1.000000
vt 0.549999 0.000000 1.000000
vt 0.549999 1.000000 1.000000
vt 0.003843 0.000000 -0.892343
vt -0.001180 0.000000 -0.934977
vt -0.000712 0.000000 -0.967367
vt 0.005241 0.000000 -0.989158
vt 0.005297 1.000000 -0.989044
vt -0.000655 1.000000 -0.967252
vt -0.001121 1.000000 -0.934862
vt 0.003903 1.000000 -0.892230
# 16 texture coords

o Object004
g Object004
s 8
f -16/-16/-16 -15/-15/-15 -14/-14/-14 -13/-13/-13 
f -15/-15/-15 -12/-12/-12 -11/-11/-11 -14/-14/-14 
f -12/-12/-12 -10/-10/-10 -9/-9/-9 -11/-11/-11 
s off
f -10/-8/-10 -12/-7/-12 -8/-7/-8 -7/-8/-7 
f -12/-7/-12 -15/-6/-15 -6/-6/-6 -8/-7/-8 
f -15/-6/-15 -16/-5/-16 -5/-5/-5 -6/-6/-6 
f -13/-4/-13 -14/-3/-14 -4/-3/-4 -3/-4/-3 
f -14/-3/-14 -11/-2/-11 -2/-2/-2 -4/-3/-4 
f -11/-2/-11 -9/-1/-9 -1/-1/-1 -2/-2/-2 
s 1
f -7/-8/-7 -8/-7/-8 -2/-2/-2 -1/-1/-1 
f -8/-7/-8 -6/-6/-6 -4/-3/-4 -2/-2/-2 
f -6/-6/-6 -5/-5/-5 -3/-4/-3 -4/-3/-4 
s off
f -13/-13/-13 -3/-4/-3 -5/-5/-5 -16/-5/-16 
f -10/-10/-10 -7/-8/-7 -1/-1/-1 -9/-1/-9 
# 14 polygons

#
# object Object005
#

v  68.581596 0.000000 22.283724
v  70.535179 0.000000 14.992931
v  70.535179 30.000000 14.992931
v  68.581596 30.000000 22.283724
v  71.715973 0.000000 7.537875
v  71.715973 30.000000 7.537875
v  72.111023 0.000000 0.000225
v  72.111023 30.000000 0.000225
v  52.498596 0.000000 5.517988
v  52.787788 0.000000 0.000167
v  51.634216 0.000000 10.975349
v  50.204124 0.000000 16.312473
v  51.634216 30.000000 10.975349
v  50.204124 30.000000 16.312473
v  52.498596 30.000000 5.517987
v  52.787788 30.000000 0.000167
# 16 vertices

vn 0.390506 -0.574647 0.719226
vn 0.702810 -0.695515 0.149389
vn 0.702810 0.695515 0.149389
vn 0.390506 0.574647 0.719226
vn 0.714576 -0.695515 0.075107
vn 0.714576 0.695515 0.075107
vn 0.593649 -0.574647 -0.563349
vn 0.593649 0.574647 -0.563349
vn -0.691121 -0.719079 -0.072642
vn -0.560668 -0.580154 -0.590824
vn -0.679743 -0.719078 -0.144486
vn -0.715804 -0.580154 0.388648
vn -0.679743 0.719079 -0.144486
vn -0.715804 0.580154 0.388648
vn -0.691121 0.719079 -0.072642
vn -0.560668 0.580154 -0.590824
# 16 vertex normals

vt 0.500000 0.000000 1.000000
vt 0.516666 0.000000 1.000000
vt 0.516666 1.000000 1.000000
vt 0.500000 1.000000 1.000000
vt 0.533333 0.000000 1.000000
vt 0.533333 1.000000 1.000000
vt 0.549999 0.000000 1.000000
vt 0.549999 1.000000 1.000000
vt 0.003843 0.000000 -0.892343
vt -0.001180 0.000000 -0.934977
vt -0.000712 0.000000 -0.967367
vt 0.005241 0.000000 -0.989158
vt 0.005297 1.000000 -0.989044
vt -0.000655 1.000000 -0.967252
vt -0.001121 1.000000 -0.934862
vt 0.003903 1.000000 -0.892230
# 16 texture coords

o Object005
g Object005
s 8
f -16/-16/-16 -15/-15/-15 -14/-14/-14 -13/-13/-13 
f -15/-15/-15 -12/-12/-12 -11/-11/-11 -14/-14/-14 
f -12/-12/-12 -10/-10/-10 -9/-9/-9 -11/-11/-11 
s off
f -10/-8/-10 -12/-7/-12 -8/-7/-8 -7/-8/-7 
f -12/-7/-12 -15/-6/-15 -6/-6/-6 -8/-7/-8 
f -15/-6/-15 -16/-5/-16 -5/-5/-5 -6/-6/-6 
f -13/-4/-13 -14/-3/-14 -4/-3/-4 -3/-4/-3 
f -14/-3/-14 -11/-2/-11 -2/-2/-2 -4/-3/-4 
f -11/-2/-11 -9/-1/-9 -1/-1/-1 -2/-2/-2 
s 1
f -7/-8/-7 -8/-7/-8 -2/-2/-2 -1/-1/-1 
f -8/-7/-8 -6/-6/-6 -4/-3/-4 -2/-2/-2 
f -6/-6/-6 -5/-5/-5 -3/-4/-3 -4/-3/-4 
s off
f -13/-13/-13 -3/-4/-3 -5/-5/-5 -16/-5/-16 
f -10/-10/-10 -7/-8/-7 -1/-1/-1 -9/-1/-9 
# 14 polygons

#
# object Object006
#

v  72.111023 0.000000 0.000202
v  71.716011 0.000000 -7.537445
v  71.716011 30.000000 -7.537445
v  72.111023 30.000000 0.000202
v  70.535271 0.000000 -14.992510
v  70.535271 30.000000 -14.992510
v  68.581726 0.000000 -22.283318
v  68.581726 30.000000 -22.283318
v  51.634285 0.000000 -10.975040
v  50.204220 0.000000 -16.312164
v  52.498627 0.000000 -5.517673
v  52.787792 0.000000 0.000155
v  52.498627 30.000000 -5.517673
v  52.787792 30.000000 0.000155
v  51.634285 30.000000 -10.975041
v  50.204220 30.000000 -16.312164
# 16 vertices

vn 0.593646 -0.574647 0.563352
vn 0.714576 -0.695515 -0.075103
vn 0.714576 0.695515 -0.075103
vn 0.593646 0.574647 0.563352
vn 0.702811 -0.695515 -0.149385
vn 0.702811 0.695515 -0.149385
vn 0.390509 -0.574647 -0.719224
vn 0.390509 0.574647 -0.719224
vn -0.679743 -0.719079 0.144482
vn -0.715802 -0.580154 -0.388651
vn -0.691122 -0.719078 0.072638
vn -0.560671 -0.580154 0.590821
vn -0.691122 0.719079 0.072638
vn -0.560671 0.580154 0.590821
vn -0.679743 0.719079 0.144482
vn -0.715802 0.580154 -0.388651
# 16 vertex normals

vt 0.500000 0.000000 1.000000
vt 0.516666 0.000000 1.000000
vt 0.516666 1.000000 1.000000
vt 0.500000 1.000000 1.000000
vt 0.533333 0.000000 1.000000
vt 0.533333 1.000000 1.000000
vt 0.549999 0.000000 1.000000
vt 0.549999 1.000000 1.000000
vt 0.003843 0.000000 -0.892343
vt -0.001180 0.000000 -0.934977
vt -0.000712 0.000000 -0.967367
vt 0.005241 0.000000 -0.989158
vt 0.005297 1.000000 -0.989044
vt -0.000655 1.000000 -0.967252
vt -0.001121 1.000000 -0.934862
vt 0.003903 1.000000 -0.892230
# 16 texture coords

o Object006
g Object006
s 8
f -16/-16/-16 -15/-15/-15 -14/-14/-14 -13/-13/-13 
f -15/-15/-15 -12/-12/-12 -11/-11/-11 -14/-14/-14 
f -12/-12/-12 -10/-10/-10 -9/-9/-9 -11/-11/-11 
s off
f -10/-8/-10 -12/-7/-12 -8/-7/-8 -7/-8/-7 
f -12/-7/-12 -15/-6/-15 -6/-6/-6 -8/-7/-8 
f -15/-6/-15 -16/-5/-16 -5/-5/-5 -6/-6/-6 
f -13/-4/-13 -14/-3/-14 -4/-3/-4 -3/-4/-3 
f -14/-3/-14 -11/-2/-11 -2/-2/-2 -4/-3/-4 
f -11/-2/-11 -9/-1/-9 -1/-1/-1 -2/-2/-2 
s 1
f -7/-8/-7 -8/-7/-8 -2/-2/-2 -1/-1/-1 
f -8/-7/-8 -6/-6/-6 -4/-3/-4 -2/-2/-2 
f -6/-6/-6 -5/-5/-5 -3/-4/-3 -4/-3/-4 
s off
f -13/-13/-13 -3/-4/-3 -5/-5/-5 -16/-5/-16 
f -10/-10/-10 -7/-8/-7 -1/-1/-1 -9/-1/-9 
# 14 polygons

#
# object Object007
#

v  68.581718 0.000000 -22.283340
v  65.876778 0.000000 -29.330002
v  65.876778 30.000000 -29.330002
v  68.581718 30.000000 -22.283340
v  62.450085 0.000000 -36.055321
v  62.450085 30.000000 -36.055321
v  58.339172 0.000000 -42.385612
v  58.339172 30.000000 -42.385612
v  45.715645 0.000000 -26.393755
v  42.706310 0.000000 -31.027748
v  48.224102 0.000000 -21.470585
v  50.204220 0.000000 -16.312178
v  48.224102 30.000000 -21.470585
v  50.204220 30.000000 -16.312178
v  45.715645 30.000000 -26.393757
v  42.706310 30.000000 -31.027748
# 16 vertices

vn 0.738676 -0.574647 0.352333
vn 0.656394 -0.695515 -0.292243
vn 0.656394 0.695515 -0.292243
vn 0.738676 0.574647 0.352333
vn 0.622251 -0.695515 -0.359254
vn 0.622251 0.695515 -0.359254
vn 0.149144 -0.574647 -0.804697
vn 0.149144 0.574647 -0.804697
vn -0.601827 -0.719079 0.347463
vn -0.800868 -0.580154 -0.148434
vn -0.634850 -0.719078 0.282651
vn -0.350656 -0.580154 0.735161
vn -0.634850 0.719079 0.282651
vn -0.350656 0.580154 0.735161
vn -0.601827 0.719079 0.347463
vn -0.800868 0.580154 -0.148434
# 16 vertex normals

vt 0.500000 0.000000 1.000000
vt 0.516666 0.000000 1.000000
vt 0.516666 1.000000 1.000000
vt 0.500000 1.000000 1.000000
vt 0.533333 0.000000 1.000000
vt 0.533333 1.000000 1.000000
vt 0.549999 0.000000 1.000000
vt 0.549999 1.000000 1.000000
vt 0.003843 0.000000 -0.892343
vt -0.001180 0.000000 -0.934977
vt -0.000712 0.000000 -0.967367
vt 0.005241 0.000000 -0.989158
vt 0.005297 1.000000 -0.989044
vt -0.000655 1.000000 -0.967252
vt -0.001121 1.000000 -0.934862
vt 0.003903 1.000000 -0.892230
# 16 texture coords

o Object007
g Object007
s 8
f -16/-16/-16 -15/-15/-15 -14/-14/-14 -13/-13/-13 
f -15/-15/-15 -12/-12/-12 -11/-11/-11 -14/-14/-14 
f -12/-12/-12 -10/-10/-10 -9/-9/-9 -11/-11/-11 
s off
f -10/-8/-10 -12/-7/-12 -8/-7/-8 -7/-8/-7 
f -12/-7/-12 -15/-6/-15 -6/-6/-6 -8/-7/-8 
f -15/-6/-15 -16/-5/-16 -5/-5/-5 -6/-6/-6 
f -13/-4/-13 -14/-3/-14 -4/-3/-4 -3/-4/-3 
f -14/-3/-14 -11/-2/-11 -2/-2/-2 -4/-3/-4 
f -11/-2/-11 -9/-1/-9 -1/-1/-1 -2/-2/-2 
s 1
f -7/-8/-7 -8/-7/-8 -2/-2/-2 -1/-1/-1 
f -8/-7/-8 -6/-6/-6 -4/-3/-4 -2/-2/-2 
f -6/-6/-6 -5/-5/-5 -3/-4/-3 -4/-3/-4 
s off
f -13/-13/-13 -3/-4/-3 -5/-5/-5 -16/-5/-16 
f -10/-10/-10 -7/-8/-7 -1/-1/-1 -9/-1/-9 
# 14 polygons

#
# object Object008
#

v  58.339165 0.000000 -42.385624
v  53.589077 0.000000 -48.251530
v  53.589077 30.000000 -48.251530
v  58.339165 30.000000 -42.385624
v  48.251858 0.000000 -53.588779
v  48.251858 30.000000 -53.588779
v  42.385983 0.000000 -58.338902
v  42.385983 30.000000 -58.338902
v  35.322048 0.000000 -39.228859
v  31.028019 0.000000 -42.706112
v  39.229076 0.000000 -35.321804
v  42.706314 0.000000 -31.027754
v  39.229076 30.000000 -35.321804
v  42.706314 30.000000 -31.027754
v  35.322048 30.000000 -39.228859
v  31.028019 30.000000 -42.706112
# 16 vertices

vn 0.811400 -0.574647 0.106825
vn 0.533960 -0.695515 -0.480777
vn 0.533960 0.695515 -0.480777
vn 0.811400 0.574647 0.106825
vn 0.480780 -0.695515 -0.533957
vn 0.480780 0.695515 -0.533957
vn -0.106820 -0.574647 -0.811400
vn -0.106820 0.574647 -0.811400
vn -0.465000 -0.719079 0.516431
vn -0.807539 -0.580154 0.106312
vn -0.516434 -0.719078 0.464997
vn -0.106316 -0.580154 0.807539
vn -0.516434 0.719079 0.464997
vn -0.106316 0.580154 0.807539
vn -0.465000 0.719079 0.516431
vn -0.807539 0.580154 0.106312
# 16 vertex normals

vt 0.500000 0.000000 1.000000
vt 0.516666 0.000000 1.000000
vt 0.516666 1.000000 1.000000
vt 0.500000 1.000000 1.000000
vt 0.533333 0.000000 1.000000
vt 0.533333 1.000000 1.000000
vt 0.549999 0.000000 1.000000
vt 0.549999 1.000000 1.000000
vt 0.003843 0.000000 -0.892343
vt -0.001180 0.000000 -0.934977
vt -0.000712 0.000000 -0.967367
vt 0.005241 0.000000 -0.989158
vt 0.005297 1.000000 -0.989044
vt -0.000655 1.000000 -0.967252
vt -0.001121 1.000000 -0.934862
vt 0.003903 1.000000 -0.892230
# 16 texture coords

o Object008
g Object008
s 8
f -16/-16/-16 -15/-15/-15 -14/-14/-14 -13/-13/-13 
f -15/-15/-15 -12/-12/-12 -11/-11/-11 -14/-14/-14 
f -12/-12/-12 -10/-10/-10 -9/-9/-9 -11/-11/-11 
s off
f -10/-8/-10 -12/-7/-12 -8/-7/-8 -7/-8/-7 
f -12/-7/-12 -15/-6/-15 -6/-6/-6 -8/-7/-8 
f -15/-6/-15 -16/-5/-16 -5/-5/-5 -6/-6/-6 
f -13/-4/-13 -14/-3/-14 -4/-3/-4 -3/-4/-3 
f -14/-3/-14 -11/-2/-11 -2/-2/-2 -4/-3/-4 
f -11/-2/-11 -9/-1/-9 -1/-1/-1 -2/-2/-2 
s 1
f -7/-8/-7 -8/-7/-8 -2/-2/-2 -1/-1/-1 
f -8/-7/-8 -6/-6/-6 -4/-3/-4 -2/-2/-2 
f -6/-6/-6 -5/-5/-5 -3/-4/-3 -4/-3/-4 
s off
f -13/-13/-13 -3/-4/-3 -5/-5/-5 -16/-5/-16 
f -10/-10/-10 -7/-8/-7 -1/-1/-1 -9/-1/-9 
# 14 polygons

#
# object Object009
#

v  42.385960 0.000000 -58.338924
v  36.055691 0.000000 -62.449875
v  36.055691 30.000000 -62.449875
v  42.385960 30.000000 -58.338924
v  29.330393 0.000000 -65.876610
v  29.330393 30.000000 -65.876610
v  22.283741 0.000000 -68.581589
v  22.283741 30.000000 -68.581589
v  21.470875 0.000000 -48.223984
v  16.312479 0.000000 -50.204117
v  26.394026 0.000000 -45.715492
v  31.028009 0.000000 -42.706135
v  26.394026 30.000000 -45.715492
v  31.028009 30.000000 -42.706135
v  21.470873 30.000000 -48.223984
v  16.312479 30.000000 -50.204117
# 16 vertices

vn 0.804698 -0.574647 -0.149140
vn 0.359258 -0.695515 -0.622248
vn 0.359258 0.695515 -0.622248
vn 0.804698 0.574647 -0.149140
vn 0.292247 -0.695515 -0.656393
vn 0.292247 0.695515 -0.656393
vn -0.352329 -0.574647 -0.738678
vn -0.352329 0.574647 -0.738678
vn -0.282655 -0.719079 0.634848
vn -0.735163 -0.580154 0.350652
vn -0.347466 -0.719078 0.601825
vn 0.148430 -0.580154 0.800868
vn -0.347466 0.719079 0.601825
vn 0.148430 0.580154 0.800868
vn -0.282655 0.719079 0.634848
vn -0.735163 0.580154 0.350652
# 16 vertex normals

vt 0.500000 0.000000 1.000000
vt 0.516666 0.000000 1.000000
vt 0.516666 1.000000 1.000000
vt 0.500000 1.000000 1.000000
vt 0.533333 0.000000 1.000000
vt 0.533333 1.000000 1.000000
vt 0.549999 0.000000 1.000000
vt 0.549999 1.000000 1.000000
vt 0.003843 0.000000 -0.892343
vt -0.001180 0.000000 -0.934977
vt -0.000712 0.000000 -0.967367
vt 0.005241 0.000000 -0.989158
vt 0.005297 1.000000 -0.989044
vt -0.000655 1.000000 -0.967252
vt -0.001121 1.000000 -0.934862
vt 0.003903 1.000000 -0.892230
# 16 texture coords

o Object009
g Object009
s 8
f -16/-16/-16 -15/-15/-15 -14/-14/-14 -13/-13/-13 
f -15/-15/-15 -12/-12/-12 -11/-11/-11 -14/-14/-14 
f -12/-12/-12 -10/-10/-10 -9/-9/-9 -11/-11/-11 
s off
f -10/-8/-10 -12/-7/-12 -8/-7/-8 -7/-8/-7 
f -12/-7/-12 -15/-6/-15 -6/-6/-6 -8/-7/-8 
f -15/-6/-15 -16/-5/-16 -5/-5/-5 -6/-6/-6 
f -13/-4/-13 -14/-3/-14 -4/-3/-4 -3/-4/-3 
f -14/-3/-14 -11/-2/-11 -2/-2/-2 -4/-3/-4 
f -11/-2/-11 -9/-1/-9 -1/-1/-1 -2/-2/-2 
s 1
f -7/-8/-7 -8/-7/-8 -2/-2/-2 -1/-1/-1 
f -8/-7/-8 -6/-6/-6 -4/-3/-4 -2/-2/-2 
f -6/-6/-6 -5/-5/-5 -3/-4/-3 -4/-3/-4 
s off
f -13/-13/-13 -3/-4/-3 -5/-5/-5 -16/-5/-16 
f -10/-10/-10 -7/-8/-7 -1/-1/-1 -9/-1/-9 
# 14 polygons

#
# object Object010
#

v  22.283712 0.000000 -68.581604
v  14.992918 0.000000 -70.535179
v  14.992918 30.000000 -70.535179
v  22.283712 30.000000 -68.581604
v  7.537861 0.000000 -71.715973
v  7.537861 30.000000 -71.715973
v  0.000214 0.000000 -72.111023
v  0.000214 30.000000 -72.111023
v  5.517979 0.000000 -52.498600
v  0.000157 0.000000 -52.787788
v  10.975340 0.000000 -51.634216
v  16.312464 0.000000 -50.204128
v  10.975340 30.000000 -51.634216
v  16.312464 30.000000 -50.204128
v  5.517978 30.000000 -52.498600
v  0.000157 30.000000 -52.787788
# 16 vertices

vn 0.719226 -0.574647 -0.390506
vn 0.149389 -0.695515 -0.702810
vn 0.149389 0.695515 -0.702810
vn 0.719226 0.574647 -0.390506
vn 0.075107 -0.695515 -0.714576
vn 0.075107 0.695515 -0.714576
vn -0.563349 -0.574647 -0.593649
vn -0.563349 0.574647 -0.593649
vn -0.072642 -0.719079 0.691121
vn -0.590824 -0.580154 0.560668
vn -0.144486 -0.719078 0.679743
vn 0.388648 -0.580154 0.715804
vn -0.144486 0.719079 0.679743
vn 0.388648 0.580154 0.715804
vn -0.072642 0.719079 0.691121
vn -0.590824 0.580154 0.560668
# 16 vertex normals

vt 0.500000 0.000000 1.000000
vt 0.516666 0.000000 1.000000
vt 0.516666 1.000000 1.000000
vt 0.500000 1.000000 1.000000
vt 0.533333 0.000000 1.000000
vt 0.533333 1.000000 1.000000
vt 0.549999 0.000000 1.000000
vt 0.549999 1.000000 1.000000
vt 0.003843 0.000000 -0.892343
vt -0.001180 0.000000 -0.934977
vt -0.000712 0.000000 -0.967367
vt 0.005241 0.000000 -0.989158
vt 0.005297 1.000000 -0.989044
vt -0.000655 1.000000 -0.967252
vt -0.001121 1.000000 -0.934862
vt 0.003903 1.000000 -0.892230
# 16 texture coords

o Object010
g Object010
s 8
f -16/-16/-16 -15/-15/-15 -14/-14/-14 -13/-13/-13 
f -15/-15/-15 -12/-12/-12 -11/-11/-11 -14/-14/-14 
f -12/-12/-12 -10/-10/-10 -9/-9/-9 -11/-11/-11 
s off
f -10/-8/-10 -12/-7/-12 -8/-7/-8 -7/-8/-7 
f -12/-7/-12 -15/-6/-15 -6/-6/-6 -8/-7/-8 
f -15/-6/-15 -16/-5/-16 -5/-5/-5 -6/-6/-6 
f -13/-4/-13 -14/-3/-14 -4/-3/-4 -3/-4/-3 
f -14/-3/-14 -11/-2/-11 -2/-2/-2 -4/-3/-4 
f -11/-2/-11 -9/-1/-9 -1/-1/-1 -2/-2/-2 
s 1
f -7/-8/-7 -8/-7/-8 -2/-2/-2 -1/-1/-1 
f -8/-7/-8 -6/-6/-6 -4/-3/-4 -2/-2/-2 
f -6/-6/-6 -5/-5/-5 -3/-4/-3 -4/-3/-4 
s off
f -13/-13/-13 -3/-4/-3 -5/-5/-5 -16/-5/-16 
f -10/-10/-10 -7/-8/-7 -1/-1/-1 -9/-1/-9 
# 14 polygons

#
# object Object011
#

v  0.000182 0.000000 -72.111023
v  -7.537465 0.000000 -71.716011
v  -7.537465 30.000000 -71.716011
v  0.000182 30.000000 -72.111023
v  -14.992530 0.000000 -70.535263
v  -14.992530 30.000000 -70.535263
v  -22.283337 0.000000 -68.581718
v  -22.283337 30.000000 -68.581718
v  -10.975056 0.000000 -51.634281
v  -16.312180 0.000000 -50.204216
v  -5.517688 0.000000 -52.498627
v  0.000140 0.000000 -52.787792
v  -5.517688 30.000000 -52.498627
v  0.000140 30.000000 -52.787792
v  -10.975057 30.000000 -51.634281
v  -16.312180 30.000000 -50.204216
# 16 vertices

vn 0.563352 -0.574647 -0.593646
vn -0.075103 -0.695515 -0.714576
vn -0.075103 0.695515 -0.714576
vn 0.563352 0.574647 -0.593646
vn -0.149385 -0.695515 -0.702811
vn -0.149385 0.695515 -0.702811
vn -0.719224 -0.574647 -0.390509
vn -0.719224 0.574647 -0.390509
vn 0.144482 -0.719079 0.679743
vn -0.388651 -0.580154 0.715802
vn 0.072638 -0.719078 0.691122
vn 0.590821 -0.580154 0.560671
vn 0.072638 0.719079 0.691122
vn 0.590821 0.580154 0.560671
vn 0.144482 0.719079 0.679743
vn -0.388651 0.580154 0.715802
# 16 vertex normals

vt 0.500000 0.000000 1.000000
vt 0.516666 0.000000 1.000000
vt 0.516666 1.000000 1.000000
vt 0.500000 1.000000 1.000000
vt 0.533333 0.000000 1.000000
vt 0.533333 1.000000 1.000000
vt 0.549999 0.000000 1.000000
vt 0.549999 1.000000 1.000000
vt 0.003843 0.000000 -0.892343
vt -0.001180 0.000000 -0.934977
vt -0.000712 0.000000 -0.967367
vt 0.005241 0.000000 -0.989158
vt 0.005297 1.000000 -0.989044
vt -0.000655 1.000000 -0.967252
vt -0.001121 1.000000 -0.934862
vt 0.003903 1.000000 -0.892230
# 16 texture coords

o Object011
g Object011
s 8
f -16/-16/-16 -15/-15/-15 -14/-14/-14 -13/-13/-13 
f -15/-15/-15 -12/-12/-12 -11/-11/-11 -14/-14/-14 
f -12/-12/-12 -10/-10/-10 -9/-9/-9 -11/-11/-11 
s off
f -10/-8/-10 -12/-7/-12 -8/-7/-8 -7/-8/-7 
f -12/-7/-12 -15/-6/-15 -6/-6/-6 -8/-7/-8 
f -15/-6/-15 -16/-5/-16 -5/-5/-5 -6/-6/-6 
f -13/-4/-13 -14/-3/-14 -4/-3/-4 -3/-4/-3 
f -14/-3/-14 -11/-2/-11 -2/-2/-2 -4/-3/-4 
f -11/-2/-11 -9/-1/-9 -1/-1/-1 -2/-2/-2 
s 1
f -7/-8/-7 -8/-7/-8 -2/-2/-2 -1/-1/-1 
f -8/-7/-8 -6/-6/-6 -4/-3/-4 -2/-2/-2 
f -6/-6/-6 -5/-5/-5 -3/-4/-3 -4/-3/-4 
s off
f -13/-13/-13 -3/-4/-3 -5/-5/-5 -16/-5/-16 
f -10/-10/-10 -7/-8/-7 -1/-1/-1 -9/-1/-9 
# 14 polygons

#
# object Object012
#

v  -22.283367 0.000000 -68.581711
v  -29.330029 0.000000 -65.876770
v  -29.330029 30.000000 -65.876770
v  -22.283367 30.000000 -68.581711
v  -36.055347 0.000000 -62.450069
v  -36.055347 30.000000 -62.450069
v  -42.385635 0.000000 -58.339157
v  -42.385635 30.000000 -58.339157
v  -26.393774 0.000000 -45.715637
v  -31.027763 0.000000 -42.706303
v  -21.470606 0.000000 -48.224098
v  -16.312199 0.000000 -50.204216
v  -21.470606 30.000000 -48.224098
v  -16.312199 30.000000 -50.204216
v  -26.393776 30.000000 -45.715637
v  -31.027763 30.000000 -42.706303
# 16 vertices

vn 0.352332 -0.574647 -0.738676
vn -0.292243 -0.695515 -0.656394
vn -0.292243 0.695515 -0.656394
vn 0.352332 0.574647 -0.738676
vn -0.359254 -0.695515 -0.622251
vn -0.359254 0.695515 -0.622251
vn -0.804697 -0.574647 -0.149144
vn -0.804697 0.574647 -0.149144
vn 0.347463 -0.719079 0.601827
vn -0.148434 -0.580154 0.800868
vn 0.282652 -0.719078 0.634850
vn 0.735161 -0.580154 0.350656
vn 0.282651 0.719079 0.634850
vn 0.735161 0.580154 0.350656
vn 0.347463 0.719079 0.601827
vn -0.148434 0.580154 0.800868
# 16 vertex normals

vt 0.500000 0.000000 1.000000
vt 0.516666 0.000000 1.000000
vt 0.516666 1.000000 1.000000
vt 0.500000 1.000000 1.000000
vt 0.533333 0.000000 1.000000
vt 0.533333 1.000000 1.000000
vt 0.549999 0.000000 1.000000
vt 0.549999 1.000000 1.000000
vt 0.003843 0.000000 -0.892343
vt -0.001180 0.000000 -0.934977
vt -0.000712 0.000000 -0.967367
vt 0.005241 0.000000 -0.989158
vt 0.005297 1.000000 -0.989044
vt -0.000655 1.000000 -0.967252
vt -0.001121 1.000000 -0.934862
vt 0.003903 1.000000 -0.892230
# 16 texture coords

o Object012
g Object012
s 8
f -16/-16/-16 -15/-15/-15 -14/-14/-14 -13/-13/-13 
f -15/-15/-15 -12/-12/-12 -11/-11/-11 -14/-14/-14 
f -12/-12/-12 -10/-10/-10 -9/-9/-9 -11/-11/-11 
s off
f -10/-8/-10 -12/-7/-12 -8/-7/-8 -7/-8/-7 
f -12/-7/-12 -15/-6/-15 -6/-6/-6 -8/-7/-8 
f -15/-6/-15 -16/-5/-16 -5/-5/-5 -6/-6/-6 
f -13/-4/-13 -14/-3/-14 -4/-3/-4 -3/-4/-3 
f -14/-3/-14 -11/-2/-11 -2/-2/-2 -4/-3/-4 
f -11/-2/-11 -9/-1/-9 -1/-1/-1 -2/-2/-2 
s 1
f -7/-8/-7 -8/-7/-8 -2/-2/-2 -1/-1/-1 
f -8/-7/-8 -6/-6/-6 -4/-3/-4 -2/-2/-2 
f -6/-6/-6 -5/-5/-5 -3/-4/-3 -4/-3/-4 
s off
f -13/-13/-13 -3/-4/-3 -5/-5/-5 -16/-5/-16 
f -10/-10/-10 -7/-8/-7 -1/-1/-1 -9/-1/-9 
# 14 polygons

#
# object Object013
#

v  -42.385662 0.000000 -58.339138
v  -48.251564 0.000000 -53.589046
v  -48.251564 30.000000 -53.589046
v  -42.385662 30.000000 -58.339138
v  -53.588814 0.000000 -48.251827
v  -53.588814 30.000000 -48.251827
v  -58.338932 0.000000 -42.385944
v  -58.338932 30.000000 -42.385944
v  -39.228886 0.000000 -35.322025
v  -42.706135 0.000000 -31.027994
v  -35.321831 0.000000 -39.229053
v  -31.027782 0.000000 -42.706295
v  -35.321831 30.000000 -39.229053
v  -31.027782 30.000000 -42.706295
v  -39.228886 30.000000 -35.322021
v  -42.706135 30.000000 -31.027994
# 16 vertices

vn 0.106824 -0.574647 -0.811400
vn -0.480777 -0.695515 -0.533959
vn -0.480777 0.695515 -0.533959
vn 0.106824 0.574647 -0.811400
vn -0.533957 -0.695515 -0.480780
vn -0.533957 0.695515 -0.480780
vn -0.811400 -0.574647 0.106821
vn -0.811400 0.574647 0.106821
vn 0.516431 -0.719079 0.464999
vn 0.106313 -0.580154 0.807539
vn 0.464997 -0.719078 0.516434
vn 0.807539 -0.580154 0.106316
vn 0.464997 0.719079 0.516434
vn 0.807539 0.580154 0.106316
vn 0.516431 0.719079 0.464999
vn 0.106313 0.580154 0.807539
# 16 vertex normals

vt 0.500000 0.000000 1.000000
vt 0.516666 0.000000 1.000000
vt 0.516666 1.000000 1.000000
vt 0.500000 1.000000 1.000000
vt 0.533333 0.000000 1.000000
vt 0.533333 1.000000 1.000000
vt 0.549999 0.000000 1.000000
vt 0.549999 1.000000 1.000000
vt 0.003843 0.000000 -0.892343
vt -0.001180 0.000000 -0.934977
vt -0.000712 0.000000 -0.967367
vt 0.005241 0.000000 -0.989158
vt 0.005297 1.000000 -0.989044
vt -0.000655 1.000000 -0.967252
vt -0.001121 1.000000 -0.934862
vt 0.003903 1.000000 -0.892230
# 16 texture coords

o Object013
g Object013
s 8
f -16/-16/-16 -15/-15/-15 -14/-14/-14 -13/-13/-13 
f -15/-15/-15 -12/-12/-12 -11/-11/-11 -14/-14/-14 
f -12/-12/-12 -10/-10/-10 -9/-9/-9 -11/-11/-11 
s off
f -10/-8/-10 -12/-7/-12 -8/-7/-8 -7/-8/-7 
f -12/-7/-12 -15/-6/-15 -6/-6/-6 -8/-7/-8 
f -15/-6/-15 -16/-5/-16 -5/-5/-5 -6/-6/-6 
f -13/-4/-13 -14/-3/-14 -4/-3/-4 -3/-4/-3 
f -14/-3/-14 -11/-2/-11 -2/-2/-2 -4/-3/-4 
f -11/-2/-11 -9/-1/-9 -1/-1/-1 -2/-2/-2 
s 1
f -7/-8/-7 -8/-7/-8 -2/-2/-2 -1/-1/-1 
f -8/-7/-8 -6/-6/-6 -4/-3/-4 -2/-2/-2 
f -6/-6/-6 -5/-5/-5 -3/-4/-3 -4/-3/-4 
s off
f -13/-13/-13 -3/-4/-3 -5/-5/-5 -16/-5/-16 
f -10/-10/-10 -7/-8/-7 -1/-1/-1 -9/-1/-9 
# 14 polygons

#
# object Object014
#

v  -58.338951 0.000000 -42.385925
v  -62.449894 0.000000 -36.055653
v  -62.449894 30.000000 -36.055653
v  -58.338951 30.000000 -42.385925
v  -65.876633 0.000000 -29.330353
v  -65.876633 30.000000 -29.330353
v  -68.581604 0.000000 -22.283701
v  -68.581604 30.000000 -22.283701
v  -48.223995 0.000000 -21.470846
v  -50.204128 0.000000 -16.312450
v  -45.715508 0.000000 -26.393997
v  -42.706150 0.000000 -31.027985
v  -45.715508 30.000000 -26.393997
v  -42.706150 30.000000 -31.027985
v  -48.223999 30.000000 -21.470846
v  -50.204128 30.000000 -16.312450
# 16 vertices

vn -0.149140 -0.574647 -0.804698
vn -0.622249 -0.695515 -0.359257
vn -0.622249 0.695515 -0.359257
vn -0.149140 0.574647 -0.804698
vn -0.656393 -0.695515 -0.292247
vn -0.656393 0.695515 -0.292247
vn -0.738678 -0.574647 0.352329
vn -0.738678 0.574647 0.352329
vn 0.634848 -0.719079 0.282654
vn 0.350653 -0.580154 0.735163
vn 0.601825 -0.719078 0.347466
vn 0.800868 -0.580154 -0.148431
vn 0.601825 0.719079 0.347466
vn 0.800868 0.580154 -0.148431
vn 0.634848 0.719079 0.282654
vn 0.350653 0.580154 0.735163
# 16 vertex normals

vt 0.500000 0.000000 1.000000
vt 0.516666 0.000000 1.000000
vt 0.516666 1.000000 1.000000
vt 0.500000 1.000000 1.000000
vt 0.533333 0.000000 1.000000
vt 0.533333 1.000000 1.000000
vt 0.549999 0.000000 1.000000
vt 0.549999 1.000000 1.000000
vt 0.003843 0.000000 -0.892343
vt -0.001180 0.000000 -0.934977
vt -0.000712 0.000000 -0.967367
vt 0.005241 0.000000 -0.989158
vt 0.005297 1.000000 -0.989044
vt -0.000655 1.000000 -0.967252
vt -0.001121 1.000000 -0.934862
vt 0.003903 1.000000 -0.892230
# 16 texture coords

o Object014
g Object014
s 8
f -16/-16/-16 -15/-15/-15 -14/-14/-14 -13/-13/-13 
f -15/-15/-15 -12/-12/-12 -11/-11/-11 -14/-14/-14 
f -12/-12/-12 -10/-10/-10 -9/-9/-9 -11/-11/-11 
s off
f -10/-8/-10 -12/-7/-12 -8/-7/-8 -7/-8/-7 
f -12/-7/-12 -15/-6/-15 -6/-6/-6 -8/-7/-8 
f -15/-6/-15 -16/-5/-16 -5/-5/-5 -6/-6/-6 
f -13/-4/-13 -14/-3/-14 -4/-3/-4 -3/-4/-3 
f -14/-3/-14 -11/-2/-11 -2/-2/-2 -4/-3/-4 
f -11/-2/-11 -9/-1/-9 -1/-1/-1 -2/-2/-2 
s 1
f -7/-8/-7 -8/-7/-8 -2/-2/-2 -1/-1/-1 
f -8/-7/-8 -6/-6/-6 -4/-3/-4 -2/-2/-2 
f -6/-6/-6 -5/-5/-5 -3/-4/-3 -4/-3/-4 
s off
f -13/-13/-13 -3/-4/-3 -5/-5/-5 -16/-5/-16 
f -10/-10/-10 -7/-8/-7 -1/-1/-1 -9/-1/-9 
# 14 polygons

#
# object Object015
#

v  -68.581619 0.000000 -22.283669
v  -70.535194 0.000000 -14.992874
v  -70.535194 30.000000 -14.992874
v  -68.581619 30.000000 -22.283669
v  -71.715973 0.000000 -7.537816
v  -71.715973 30.000000 -7.537816
v  -72.111015 0.000000 -0.000166
v  -72.111015 30.000000 -0.000166
v  -52.498600 0.000000 -5.517946
v  -52.787785 0.000000 -0.000124
v  -51.634228 0.000000 -10.975307
v  -50.204140 0.000000 -16.312431
v  -51.634228 30.000000 -10.975307
v  -50.204140 30.000000 -16.312431
v  -52.498600 30.000000 -5.517945
v  -52.787785 30.000000 -0.000124
# 16 vertices

vn -0.390506 -0.574647 -0.719226
vn -0.702810 -0.695515 -0.149388
vn -0.702810 0.695515 -0.149388
vn -0.390506 0.574647 -0.719226
vn -0.714576 -0.695515 -0.075107
vn -0.714576 0.695515 -0.075107
vn -0.593649 -0.574647 0.563349
vn -0.593649 0.574647 0.563349
vn 0.691122 -0.719079 0.072641
vn 0.560669 -0.580154 0.590824
vn 0.679743 -0.719078 0.144485
vn 0.715803 -0.580154 -0.388648
vn 0.679743 0.719079 0.144485
vn 0.715803 0.580154 -0.388648
vn 0.691122 0.719079 0.072641
vn 0.560669 0.580154 0.590824
# 16 vertex normals

vt 0.500000 0.000000 1.000000
vt 0.516666 0.000000 1.000000
vt 0.516666 1.000000 1.000000
vt 0.500000 1.000000 1.000000
vt 0.533333 0.000000 1.000000
vt 0.533333 1.000000 1.000000
vt 0.549999 0.000000 1.000000
vt 0.549999 1.000000 1.000000
vt 0.003843 0.000000 -0.892343
vt -0.001180 0.000000 -0.934977
vt -0.000712 0.000000 -0.967367
vt 0.005241 0.000000 -0.989158
vt 0.005297 1.000000 -0.989044
vt -0.000655 1.000000 -0.967252
vt -0.001121 1.000000 -0.934862
vt 0.003903 1.000000 -0.892230
# 16 texture coords

o Object015
g Object015
s 8
f -16/-16/-16 -15/-15/-15 -14/-14/-14 -13/-13/-13 
f -15/-15/-15 -12/-12/-12 -11/-11/-11 -14/-14/-14 
f -12/-12/-12 -10/-10/-10 -9/-9/-9 -11/-11/-11 
s off
f -10/-8/-10 -12/-7/-12 -8/-7/-8 -7/-8/-7 
f -12/-7/-12 -15/-6/-15 -6/-6/-6 -8/-7/-8 
f -15/-6/-15 -16/-5/-16 -5/-5/-5 -6/-6/-6 
f -13/-4/-13 -14/-3/-14 -4/-3/-4 -3/-4/-3 
f -14/-3/-14 -11/-2/-11 -2/-2/-2 -4/-3/-4 
f -11/-2/-11 -9/-1/-9 -1/-1/-1 -2/-2/-2 
s 1
f -7/-8/-7 -8/-7/-8 -2/-2/-2 -1/-1/-1 
f -8/-7/-8 -6/-6/-6 -4/-3/-4 -2/-2/-2 
f -6/-6/-6 -5/-5/-5 -3/-4/-3 -4/-3/-4 
s off
f -13/-13/-13 -3/-4/-3 -5/-5/-5 -16/-5/-16 
f -10/-10/-10 -7/-8/-7 -1/-1/-1 -9/-1/-9 
# 14 polygons

#
# object Object016
#

v  -72.111023 0.000000 -0.000136
v  -71.716003 0.000000 7.537511
v  -71.716003 30.000000 7.537511
v  -72.111023 30.000000 -0.000136
v  -70.535255 0.000000 14.992575
v  -70.535255 30.000000 14.992575
v  -68.581703 0.000000 22.283381
v  -68.581703 30.000000 22.283381
v  -51.634274 0.000000 10.975088
v  -50.204205 0.000000 16.312210
v  -52.498623 0.000000 5.517722
v  -52.787792 0.000000 -0.000106
v  -52.498623 30.000000 5.517722
v  -52.787792 30.000000 -0.000106
v  -51.634274 30.000000 10.975089
v  -50.204205 30.000000 16.312210
# 16 vertices

vn -0.593647 -0.574647 -0.563351
vn -0.714576 -0.695515 0.075103
vn -0.714576 0.695515 0.075103
vn -0.593647 0.574647 -0.563351
vn -0.702811 -0.695515 0.149386
vn -0.702811 0.695515 0.149386
vn -0.390509 -0.574647 0.719224
vn -0.390509 0.574647 0.719224
vn 0.679743 -0.719079 -0.144482
vn 0.715802 -0.580154 0.388650
vn 0.691122 -0.719078 -0.072639
vn 0.560670 -0.580154 -0.590822
vn 0.691122 0.719079 -0.072639
vn 0.560670 0.580154 -0.590822
vn 0.679743 0.719079 -0.144482
vn 0.715802 0.580154 0.388650
# 16 vertex normals

vt 0.500000 0.000000 1.000000
vt 0.516666 0.000000 1.000000
vt 0.516666 1.000000 1.000000
vt 0.500000 1.000000 1.000000
vt 0.533333 0.000000 1.000000
vt 0.533333 1.000000 1.000000
vt 0.549999 0.000000 1.000000
vt 0.549999 1.000000 1.000000
vt 0.003843 0.000000 -0.892343
vt -0.001180 0.000000 -0.934977
vt -0.000712 0.000000 -0.967367
vt 0.005241 0.000000 -0.989158
vt 0.005297 1.000000 -0.989044
vt -0.000655 1.000000 -0.967252
vt -0.001121 1.000000 -0.934862
vt 0.003903 1.000000 -0.892230
# 16 texture coords

o Object016
g Object016
s 8
f -16/-16/-16 -15/-15/-15 -14/-14/-14 -13/-13/-13 
f -15/-15/-15 -12/-12/-12 -11/-11/-11 -14/-14/-14 
f -12/-12/-12 -10/-10/-10 -9/-9/-9 -11/-11/-11 
s off
f -10/-8/-10 -12/-7/-12 -8/-7/-8 -7/-8/-7 
f -12/-7/-12 -15/-6/-15 -6/-6/-6 -8/-7/-8 
f -15/-6/-15 -16/-5/-16 -5/-5/-5 -6/-6/-6 
f -13/-4/-13 -14/-3/-14 -4/-3/-4 -3/-4/-3 
f -14/-3/-14 -11/-2/-11 -2/-2/-2 -4/-3/-4 
f -11/-2/-11 -9/-1/-9 -1/-1/-1 -2/-2/-2 
s 1
f -7/-8/-7 -8/-7/-8 -2/-2/-2 -1/-1/-1 
f -8/-7/-8 -6/-6/-6 -4/-3/-4 -2/-2/-2 
f -6/-6/-6 -5/-5/-5 -3/-4/-3 -4/-3/-4 
s off
f -13/-13/-13 -3/-4/-3 -5/-5/-5 -16/-5/-16 
f -10/-10/-10 -7/-8/-7 -1/-1/-1 -9/-1/-9 
# 14 polygons

#
# object Object017
#

v  -68.581696 0.000000 22.283413
v  -65.876747 0.000000 29.330070
v  -65.876747 30.000000 29.330070
v  -68.581696 30.000000 22.283413
v  -62.450054 0.000000 36.055389
v  -62.450054 30.000000 36.055389
v  -58.339127 0.000000 42.385674
v  -58.339127 30.000000 42.385674
v  -45.715622 0.000000 26.393805
v  -42.706280 0.000000 31.027792
v  -48.224083 0.000000 21.470638
v  -50.204205 0.000000 16.312231
v  -48.224083 30.000000 21.470638
v  -50.204205 30.000000 16.312231
v  -45.715622 30.000000 26.393806
v  -42.706280 30.000000 31.027792
# 16 vertices

vn -0.738677 -0.574647 -0.352332
vn -0.656394 -0.695515 0.292244
vn -0.656394 0.695515 0.292244
vn -0.738677 0.574647 -0.352332
vn -0.622250 -0.695515 0.359255
vn -0.622250 0.695515 0.359255
vn -0.149143 -0.574647 0.804697
vn -0.149143 0.574647 0.804697
vn 0.601826 -0.719079 -0.347463
vn 0.800868 -0.580154 0.148433
vn 0.634850 -0.719078 -0.282652
vn 0.350655 -0.580154 -0.735162
vn 0.634850 0.719079 -0.282652
vn 0.350655 0.580154 -0.735162
vn 0.601826 0.719079 -0.347463
vn 0.800868 0.580154 0.148433
# 16 vertex normals

vt 0.500000 0.000000 1.000000
vt 0.516666 0.000000 1.000000
vt 0.516666 1.000000 1.000000
vt 0.500000 1.000000 1.000000
vt 0.533333 0.000000 1.000000
vt 0.533333 1.000000 1.000000
vt 0.549999 0.000000 1.000000
vt 0.549999 1.000000 1.000000
vt 0.003843 0.000000 -0.892343
vt -0.001180 0.000000 -0.934977
vt -0.000712 0.000000 -0.967367
vt 0.005241 0.000000 -0.989158
vt 0.005297 1.000000 -0.989044
vt -0.000655 1.000000 -0.967252
vt -0.001121 1.000000 -0.934862
vt 0.003903 1.000000 -0.892230
# 16 texture coords

o Object017
g Object017
s 8
f -16/-16/-16 -15/-15/-15 -14/-14/-14 -13/-13/-13 
f -15/-15/-15 -12/-12/-12 -11/-11/-11 -14/-14/-14 
f -12/-12/-12 -10/-10/-10 -9/-9/-9 -11/-11/-11 
s off
f -10/-8/-10 -12/-7/-12 -8/-7/-8 -7/-8/-7 
f -12/-7/-12 -15/-6/-15 -6/-6/-6 -8/-7/-8 
f -15/-6/-15 -16/-5/-16 -5/-5/-5 -6/-6/-6 
f -13/-4/-13 -14/-3/-14 -4/-3/-4 -3/-4/-3 
f -14/-3/-14 -11/-2/-11 -2/-2/-2 -4/-3/-4 
f -11/-2/-11 -9/-1/-9 -1/-1/-1 -2/-2/-2 
s 1
f -7/-8/-7 -8/-7/-8 -2/-2/-2 -1/-1/-1 
f -8/-7/-8 -6/-6/-6 -4/-3/-4 -2/-2/-2 
f -6/-6/-6 -5/-5/-5 -3/-4/-3 -4/-3/-4 
s off
f -13/-13/-13 -3/-4/-3 -5/-5/-5 -16/-5/-16 
f -10/-10/-10 -7/-8/-7 -1/-1/-1 -9/-1/-9 
# 14 polygons

#
# object Object018
#

v  -58.339115 0.000000 42.385700
v  -53.589016 0.000000 48.251598
v  -53.589016 30.000000 48.251598
v  -58.339115 30.000000 42.385700
v  -48.251793 0.000000 53.588844
v  -48.251793 30.000000 53.588844
v  -42.385910 0.000000 58.338959
v  -42.385910 30.000000 58.338959
v  -35.321999 0.000000 39.228905
v  -31.027966 0.000000 42.706154
v  -39.229034 0.000000 35.321857
v  -42.706276 0.000000 31.027811
v  -39.229034 30.000000 35.321857
v  -42.706276 30.000000 31.027811
v  -35.321999 30.000000 39.228909
v  -31.027966 30.000000 42.706154
# 16 vertices

vn -0.811400 -0.574647 -0.106824
vn -0.533959 -0.695515 0.480777
vn -0.533959 0.695515 0.480777
vn -0.811400 0.574647 -0.106824
vn -0.480779 -0.695515 0.533958
vn -0.480779 0.695515 0.533958
vn 0.106821 -0.574647 0.811400
vn 0.106821 0.574647 0.811400
vn 0.464999 -0.719079 -0.516432
vn 0.807539 -0.580154 -0.106313
vn 0.516434 -0.719078 -0.464997
vn 0.106315 -0.580154 -0.807539
vn 0.516434 0.719079 -0.464997
vn 0.106315 0.580154 -0.807539
vn 0.464999 0.719079 -0.516432
vn 0.807539 0.580154 -0.106313
# 16 vertex normals

vt 0.500000 0.000000 1.000000
vt 0.516666 0.000000 1.000000
vt 0.516666 1.000000 1.000000
vt 0.500000 1.000000 1.000000
vt 0.533333 0.000000 1.000000
vt 0.533333 1.000000 1.000000
vt 0.549999 0.000000 1.000000
vt 0.549999 1.000000 1.000000
vt 0.003843 0.000000 -0.892343
vt -0.001180 0.000000 -0.934977
vt -0.000712 0.000000 -0.967367
vt 0.005241 0.000000 -0.989158
vt 0.005297 1.000000 -0.989044
vt -0.000655 1.000000 -0.967252
vt -0.001121 1.000000 -0.934862
vt 0.003903 1.000000 -0.892230
# 16 texture coords

o Object018
g Object018
s 8
f -16/-16/-16 -15/-15/-15 -14/-14/-14 -13/-13/-13 
f -15/-15/-15 -12/-12/-12 -11/-11/-11 -14/-14/-14 
f -12/-12/-12 -10/-10/-10 -9/-9/-9 -11/-11/-11 
s off
f -10/-8/-10 -12/-7/-12 -8/-7/-8 -7/-8/-7 
f -12/-7/-12 -15/-6/-15 -6/-6/-6 -8/-7/-8 
f -15/-6/-15 -16/-5/-16 -5/-5/-5 -6/-6/-6 
f -13/-4/-13 -14/-3/-14 -4/-3/-4 -3/-4/-3 
f -14/-3/-14 -11/-2/-11 -2/-2/-2 -4/-3/-4 
f -11/-2/-11 -9/-1/-9 -1/-1/-1 -2/-2/-2 
s 1
f -7/-8/-7 -8/-7/-8 -2/-2/-2 -1/-1/-1 
f -8/-7/-8 -6/-6/-6 -4/-3/-4 -2/-2/-2 
f -6/-6/-6 -5/-5/-5 -3/-4/-3 -4/-3/-4 
s off
f -13/-13/-13 -3/-4/-3 -5/-5/-5 -16/-5/-16 
f -10/-10/-10 -7/-8/-7 -1/-1/-1 -9/-1/-9 
# 14 polygons

#
# object Object019
#

v  -42.385887 0.000000 58.338978
v  -36.055614 0.000000 62.449917
v  -36.055614 30.000000 62.449917
v  -42.385887 30.000000 58.338978
v  -29.330311 0.000000 65.876648
v  -29.330311 30.000000 65.876648
v  -22.283655 0.000000 68.581619
v  -22.283655 30.000000 68.581619
v  -21.470814 0.000000 48.224010
v  -16.312416 0.000000 50.204140
v  -26.393969 0.000000 45.715519
v  -31.027956 0.000000 42.706169
v  -26.393969 30.000000 45.715519
v  -31.027956 30.000000 42.706169
v  -21.470814 30.000000 48.224010
v  -16.312416 30.000000 50.204140
# 16 vertices

vn -0.804697 -0.574647 0.149141
vn -0.359257 -0.695515 0.622249
vn -0.359257 0.695515 0.622249
vn -0.804697 0.574647 0.149141
vn -0.292246 -0.695515 0.656393
vn -0.292246 0.695515 0.656393
vn 0.352330 -0.574647 0.738678
vn 0.352330 0.574647 0.738678
vn 0.282654 -0.719079 -0.634848
vn 0.735162 -0.580154 -0.350653
vn 0.347465 -0.719078 -0.601826
vn -0.148431 -0.580154 -0.800868
vn 0.347465 0.719079 -0.601825
vn -0.148431 0.580154 -0.800868
vn 0.282654 0.719079 -0.634848
vn 0.735162 0.580154 -0.350653
# 16 vertex normals

vt 0.500000 0.000000 1.000000
vt 0.516666 0.000000 1.000000
vt 0.516666 1.000000 1.000000
vt 0.500000 1.000000 1.000000
vt 0.533333 0.000000 1.000000
vt 0.533333 1.000000 1.000000
vt 0.549999 0.000000 1.000000
vt 0.549999 1.000000 1.000000
vt 0.003843 0.000000 -0.892343
vt -0.001180 0.000000 -0.934977
vt -0.000712 0.000000 -0.967367
vt 0.005241 0.000000 -0.989158
vt 0.005297 1.000000 -0.989044
vt -0.000655 1.000000 -0.967252
vt -0.001121 1.000000 -0.934862
vt 0.003903 1.000000 -0.892230
# 16 texture coords

o Object019
g Object019
s 8
f -16/-16/-16 -15/-15/-15 -14/-14/-14 -13/-13/-13 
f -15/-15/-15 -12/-12/-12 -11/-11/-11 -14/-14/-14 
f -12/-12/-12 -10/-10/-10 -9/-9/-9 -11/-11/-11 
s off
f -10/-8/-10 -12/-7/-12 -8/-7/-8 -7/-8/-7 
f -12/-7/-12 -15/-6/-15 -6/-6/-6 -8/-7/-8 
f -15/-6/-15 -16/-5/-16 -5/-5/-5 -6/-6/-6 
f -13/-4/-13 -14/-3/-14 -4/-3/-4 -3/-4/-3 
f -14/-3/-14 -11/-2/-11 -2/-2/-2 -4/-3/-4 
f -11/-2/-11 -9/-1/-9 -1/-1/-1 -2/-2/-2 
s 1
f -7/-8/-7 -8/-7/-8 -2/-2/-2 -1/-1/-1 
f -8/-7/-8 -6/-6/-6 -4/-3/-4 -2/-2/-2 
f -6/-6/-6 -5/-5/-5 -3/-4/-3 -4/-3/-4 
s off
f -13/-13/-13 -3/-4/-3 -5/-5/-5 -16/-5/-16 
f -10/-10/-10 -7/-8/-7 -1/-1/-1 -9/-1/-9 
# 14 polygons

#
# object Object020
#

v  -22.283627 0.000000 68.581627
v  -14.992829 0.000000 70.535194
v  -14.992829 30.000000 70.535194
v  -22.283627 30.000000 68.581627
v  -7.537771 0.000000 71.715981
v  -7.537771 30.000000 71.715981
v  -0.000122 0.000000 72.111023
v  -0.000122 30.000000 72.111023
v  -5.517913 0.000000 52.498604
v  -0.000092 0.000000 52.787788
v  -10.975275 0.000000 51.634232
v  -16.312401 0.000000 50.204147
v  -10.975275 30.000000 51.634232
v  -16.312401 30.000000 50.204147
v  -5.517913 30.000000 52.498604
v  -0.000092 30.000000 52.787788
# 16 vertices

vn -0.719226 -0.574647 0.390507
vn -0.149388 -0.695515 0.702810
vn -0.149388 0.695515 0.702810
vn -0.719226 0.574647 0.390507
vn -0.075106 -0.695515 0.714576
vn -0.075106 0.695515 0.714576
vn 0.563350 -0.574647 0.593648
vn 0.563350 0.574647 0.593648
vn 0.072641 -0.719079 -0.691122
vn 0.590823 -0.580154 -0.560669
vn 0.144485 -0.719078 -0.679743
vn -0.388649 -0.580154 -0.715803
vn 0.144485 0.719079 -0.679743
vn -0.388649 0.580154 -0.715803
vn 0.072641 0.719079 -0.691122
vn 0.590823 0.580154 -0.560669
# 16 vertex normals

vt 0.500000 0.000000 1.000000
vt 0.516666 0.000000 1.000000
vt 0.516666 1.000000 1.000000
vt 0.500000 1.000000 1.000000
vt 0.533333 0.000000 1.000000
vt 0.533333 1.000000 1.000000
vt 0.549999 0.000000 1.000000
vt 0.549999 1.000000 1.000000
vt 0.003843 0.000000 -0.892343
vt -0.001180 0.000000 -0.934977
vt -0.000712 0.000000 -0.967367
vt 0.005241 0.000000 -0.989158
vt 0.005297 1.000000 -0.989044
vt -0.000655 1.000000 -0.967252
vt -0.001121 1.000000 -0.934862
vt 0.003903 1.000000 -0.892230
# 16 texture coords

o Object020
g Object020
s 8
f -16/-16/-16 -15/-15/-15 -14/-14/-14 -13/-13/-13 
f -15/-15/-15 -12/-12/-12 -11/-11/-11 -14/-14/-14 
f -12/-12/-12 -10/-10/-10 -9/-9/-9 -11/-11/-11 
s off
f -10/-8/-10 -12/-7/-12 -8/-7/-8 -7/-8/-7 
f -12/-7/-12 -15/-6/-15 -6/-6/-6 -8/-7/-8 
f -15/-6/-15 -16/-5/-16 -5/-5/-5 -6/-6/-6 
f -13/-4/-13 -14/-3/-14 -4/-3/-4 -3/-4/-3 
f -14/-3/-14 -11/-2/-11 -2/-2/-2 -4/-3/-4 
f -11/-2/-11 -9/-1/-9 -1/-1/-1 -2/-2/-2 
s 1
f -7/-8/-7 -8/-7/-8 -2/-2/-2 -1/-1/-1 
f -8/-7/-8 -6/-6/-6 -4/-3/-4 -2/-2/-2 
f -6/-6/-6 -5/-5/-5 -3/-4/-3 -4/-3/-4 
s off
f -13/-13/-13 -3/-4/-3 -5/-5/-5 -16/-5/-16 
f -10/-10/-10 -7/-8/-7 -1/-1/-1 -9/-1/-9 
# 14 polygons

